2,3,5,7,8
2,3,5,7,8
2,3,5,7,8
0,0,0,0,0
1,9,4,6,10
1,9,4,6,10
1,9,4,6,10
1,9,4,6,10
1,9,4,6,10
1,9,4,6,10
0,0,0,0,0
3,8,2,5,7
3,8,2,5,7
3,8,2,5,7
3,8,2,5,7
3,8,2,5,7
3,8,2,5,7
0,0,0,0,0
10,6,1,4,9
10,6,1,4,9
10,6,1,4,9
10,6,1,4,9
10,6,1,4,9
10,6,1,4,9
0,0,0,0,0
1,3,7,9,5
1,3,7,9,5
1,3,7,9,5
1,3,7,9,5
1,3,7,9,5
1,3,7,9,5
0,0,0,0,0
2,4,10,8,3
2,4,10,8,3
2,4,10,8,3
2,4,10,8,3
2,4,10,8,3
2,4,10,8,3
0,0,0,0,0
6,5,9,7,2
6,5,9,7,2
6,5,9,7,2
6,5,9,7,2
6,5,9,7,2
6,5,9,7,2
0,0,0,0,0
7,1,8,6,3
7,1,8,6,3
7,1,8,6,3
7,1,8,5,3
7,1,8,5,3
7,1,8,5,3
0,0,0,0,0
5,2,10,9,4
5,2,10,9,4
5,2,10,9,4
5,2,10,9,4
5,2,10,9,4
5,2,10,9,4
0,0,0,0,0
6,8,3,7,1
6,8,3,7,1
6,8,3,7,1
6,8,3,7,1
6,8,3,7,1
6,8,3,7,1
0,0,0,0,0
8,4,2,10,5
8,4,2,10,5
8,4,2,10,5
8,4,2,10,5
8,4,2,10,5
8,4,2,10,5
0,0,0,0,0
5,9,7,3,6
5,9,7,3,6
5,9,7,3,6
5,9,7,3,6
5,9,7,3,6
5,9,7,3,6
0,0,0,0,0
10,1,4,2,9
10,1,4,2,9
10,1,4,2,9
10,1,4,2,9
10,1,4,2,9
10,1,4,2,9
8,5,6,3,7
0,0,0,0,0
3,7,5,6,8
3,7,5,6,8
3,7,5,6,8
3,7,5,6,8
3,7,5,6,8
0,0,0,0,0
9,4,6,1,10
9,4,6,1,10
9,4,6,1,10
9,4,6,1,10
9,4,6,1,10
9,4,6,1,10
8,6,2,3,7
8,6,2,3,7
8,6,2,3,7
0,0,0,0,0
4,2,10,8,1
4,2,10,8,1
4,2,10,8,1
4,2,10,8,1
4,2,10,8,1
4,2,10,8,1
0,0,0,0,0
10,9,4,5,6
10,9,4,5,6
10,9,4,5,6
10,9,4,5,6
10,9,4,5,6
10,9,4,5,6
0,0,0,0,0
8,7,3,2,1
8,7,3,2,1
8,7,3,2,1
8,7,3,2,1
8,7,3,2,1
8,7,3,2,1
0,0,0,0,0
7,9,5,6,3
7,9,5,6,3
7,9,5,6,3
7,9,5,6,3
7,9,5,6,3
7,9,5,6,3
0,0,0,0,0
1,8,2,10,4
1,8,2,10,4
1,8,2,10,4
1,8,2,10,4
1,8,2,10,4
1,8,2,10,4
0,0,0,0,0
5,6,9,1,10
5,6,9,1,10
5,6,9,1,10
5,6,9,1,10
5,6,9,1,10
5,6,9,1,10
0,0,0,0,0
3,2,4,8,7
3,2,4,8,7
3,2,4,8,7
3,2,4,8,7
3,2,4,8,7
3,2,4,8,7
0,0,0,0,0
0,0,0,0,0
