1,2,5,9,10,11,13,14,17,18
1,2,5,9,10,11,13,14,17,18
1,2,5,9,10,11,13,14,17,18
1,2,5,9,10,11,13,14,17,18
1,2,5,9,10,11,13,14,17,18
1,2,5,9,10,11,13,14,17,18
0,0,0,0,0,0,0,0,0,0
8,15,12,6,1,14,7,19,4,16
8,15,12,6,1,14,7,19,4,16
8,15,12,6,1,14,7,19,4,16
8,15,12,6,1,14,7,19,4,16
8,15,12,6,1,14,7,19,4,16
8,15,12,6,1,14,7,19,4,16
0,0,0,0,0,0,0,0,0,0
19,9,15,3,5,18,12,20,6,13
19,9,15,3,5,18,12,20,6,13
19,9,15,3,5,18,12,20,6,13
19,9,15,3,5,18,12,20,6,13
19,9,15,3,5,18,12,20,6,13
19,9,15,3,5,18,12,20,6,13
0,0,0,0,0,0,0,0,0,0
20,16,2,7,17,3,10,4,9,11
20,16,2,7,17,3,10,4,9,11
20,16,2,7,17,3,10,4,9,11
20,16,2,7,17,3,10,4,9,11
20,16,2,7,17,3,10,4,9,11
20,16,2,7,17,3,10,4,9,11
0,0,0,0,0,0,0,0,0,0
14,15,16,10,11,8,1,6,4,18
14,15,16,10,11,8,1,6,4,18
14,15,16,10,11,8,1,6,4,18
14,15,16,10,11,8,1,6,4,18
14,15,16,10,11,8,1,6,4,18
14,15,16,10,11,8,1,6,4,18
0,0,0,0,0,0,0,0,0,0
13,9,12,17,15,1,18,5,19,2
13,9,12,17,15,1,18,5,19,2
13,9,12,17,15,1,18,5,19,2
13,9,12,17,15,1,18,5,19,2
13,9,12,17,15,1,18,5,19,2
13,9,12,17,15,1,18,5,19,2
0,0,0,0,0,0,0,0,0,0
12,4,3,6,8,14,11,20,7,16
12,4,3,6,8,14,11,20,7,16
12,4,3,6,8,14,11,20,7,16
12,4,3,6,8,14,11,20,7,16
12,4,3,6,8,14,11,20,7,16
12,4,3,6,8,14,11,20,7,16
0,0,0,0,0,0,0,0,0,0
2,3,13,20,7,5,17,10,9,19
2,3,13,20,7,5,17,10,9,19
2,3,13,20,7,5,17,10,9,19
2,3,13,20,7,5,17,10,9,19
2,3,13,20,7,5,17,10,9,19
2,3,13,20,7,5,17,10,9,19
0,0,0,0,0,0,0,0,0,0
18,19,8,13,14,15,6,1,5,12
18,19,8,13,14,15,6,1,5,12
18,19,8,13,14,15,6,1,5,12
18,19,8,13,14,15,6,1,5,12
18,19,8,13,14,15,6,1,5,12
18,19,8,13,14,15,6,1,5,12
0,0,0,0,0,0,0,0,0,0
20,10,2,17,16,7,9,4,11,3
20,10,2,17,16,7,9,4,11,3
20,10,2,17,16,7,9,4,11,3
20,10,2,17,16,7,9,4,11,3
20,10,2,17,16,7,9,4,11,3
20,10,2,17,16,7,9,4,11,3
5,1,14,8,19,13,18,15,12,6
5,1,14,8,19,13,18,15,12,6
5,1,14,8,19,13,18,15,12,6
5,1,14,8,19,13,18,15,12,6
0,0,0,0,0,0,0,0,0,0
10,1,4,15,8,2,16,11,17,7
10,1,4,15,8,2,16,11,17,7
10,1,4,15,8,2,16,11,17,7
10,1,4,15,8,2,16,11,17,7
10,1,4,15,8,2,16,11,17,7
10,1,4,15,8,2,16,11,17,7
0,0,0,0,0,0,0,0,0,0
6,12,20,13,5,9,19,3,18,14
6,12,20,13,5,9,19,3,18,14
6,12,20,13,5,9,19,3,18,14
6,12,20,13,5,9,19,3,18,14
6,12,20,13,5,9,19,3,18,14
6,12,20,13,5,9,19,3,18,14
0,0,0,0,0,0,0,0,0,0
3,4,7,2,17,19,9,16,15,12
3,4,7,2,17,19,9,16,15,12
3,4,7,2,17,19,9,16,15,12
3,4,7,2,17,19,9,16,15,12
3,4,7,2,17,19,9,16,15,12
3,4,7,2,17,19,9,16,15,12
0,0,0,0,0,0,0,0,0,0
8,7,10,16,1,20,17,11,6,4
8,7,10,16,1,20,17,11,6,4
8,7,10,16,1,20,17,11,6,4
8,7,10,16,1,20,17,11,6,4
8,7,10,16,1,20,17,11,6,4
8,7,10,16,1,20,17,11,6,4
0,0,0,0,0,0,0,0,0,0
11,14,13,12,6,15,3,18,10,5
11,14,13,12,6,15,3,18,10,5
11,14,13,12,6,15,3,18,10,5
11,14,13,12,6,15,3,18,10,5
11,14,13,12,6,15,3,18,10,5
11,14,13,12,6,15,3,18,10,5
0,0,0,0,0,0,0,0,0,0
9,19,18,5,13,2,1,8,14,20
9,19,18,5,13,2,1,8,14,20
9,19,18,5,13,2,1,8,14,20
9,19,18,5,13,2,1,8,14,20
9,19,18,5,13,2,1,8,14,20
9,19,18,5,13,2,1,8,14,20
0,0,0,0,0,0,0,0,0,0
17,11,10,4,16,3,2,7,20,8
17,11,10,4,16,3,2,7,20,8
17,11,10,4,16,3,2,7,20,8
17,11,10,4,16,3,2,7,20,8
17,11,10,4,16,3,2,7,20,8
17,11,10,4,16,3,2,7,20,8
0,0,0,0,0,0,0,0,0,0
7,17,1,19,6,12,4,9,10,15
7,17,1,19,6,12,4,9,10,15
7,17,1,19,6,12,4,9,10,15
7,17,1,19,6,12,4,9,10,15
7,17,1,19,6,12,4,9,10,15
7,17,1,19,6,12,4,9,10,15
0,0,0,0,0,0,0,0,0,0
2,8,20,18,11,16,14,13,3,5
2,8,20,18,11,16,14,13,3,5
2,8,20,18,11,16,14,13,3,5
2,8,20,18,11,16,14,13,3,5
2,8,20,18,11,16,14,13,3,5
2,8,20,18,11,16,14,13,3,5
0,0,0,0,0,0,0,0,0,0
