
Gurobi 9.0.2 (linux64, Matlab) logging started Tue 27 Apr 2021 07:59:17 AM EDT

Gurobi Optimizer version 9.0.2 build v9.0.2rc0 (linux64)

Warning: Thread count (80) is larger than core count (64)
         Reduce the value of the Threads parameter to improve performance


Concurrent MIP optimizer: 8 concurrent instances (10 threads per instance)


User MIP start did not produce a new incumbent solution
User MIP start violates constraint R2856 by 23.000000000

Presolve removed 4 rows and 36 columns
Presolve time: 0.29s
Presolved: 2980 rows, 3076 columns, 14932 nonzeros
Variable types: 0 continuous, 3076 integer (3076 binary)

Root relaxation: objective 0.000000e+00, 1276 iterations, 1.16 seconds
Another try with MIP start

    Nodes    |    Current Node    |     Objective Bounds      |     Work
 Expl Unexpl |  Obj  Depth IntInf | Incumbent    BestBd   Gap | It/Node Time

     0     0      -    -    -              -    0.00000      -     -    3s
     0     0      -    -    -              - 56572.5582      -     -   11s
     0     0      -    -    -              - 63245.6798      -     -   13s
     0     0      -    -    -              - 63483.7068      -     -   14s
     0     0      -    -    -              - 63520.3662      -     -   14s
     0     0      -    -    -              - 63528.1655      -     -   14s
     0     0      -    -    -              - 63528.4155      -     -   14s
     0     0      -    -    -              - 87573.8668      -     -   18s
     0     0      -    -    -              - 89059.8836      -     -   20s
     0     0      -    -    -              - 89850.7793      -     -   20s
     0     0      -    -    -              - 90094.6749      -     -   21s
     0     0      -    -    -              - 90269.3745      -     -   21s
     0     0      -    -    -              - 90458.7009      -     -   21s
     0     0      -    -    -              - 90490.8113      -     -   21s
     0     0      -    -    -              - 90494.0006      -     -   21s
     0     0      -    -    -              - 93910.4355      -     -   24s
     0     0      -    -    -              - 94403.0035      -     -   25s
     0     0      -    -    -              - 94617.5857      -     -   25s
     0     0      -    -    -              - 94682.6961      -     -   25s
     0     0      -    -    -              - 94689.6388      -     -   25s
     0     0      -    -    -              - 96601.4346      -     -   27s
     0     0      -    -    -              - 96961.3267      -     -   28s
     0     0      -    -    -              - 97015.4727      -     -   29s
     0     0      -    -    -              - 97036.1311      -     -   29s
     0     0      -    -    -              - 97041.8827      -     -   29s
     0     0      -    -    -              - 97976.6154      -     -   31s
     0     2      -    -    -              - 97976.6478      -     -   55s
     3     8      -    -    -              - 103313.797      -     -   60s
    25    36      -    -    -              - 103956.331      -     -   66s
    45    56      -    -    -              - 106070.108      -     -   72s
    65    76      -    -    -              - 106070.108      -     -   76s
    85    98      -    -    -              - 106070.108      -     -   82s
    97   108      -    -    -              - 106070.108      -     -   86s
   107   118      -    -    -              - 106070.108      -     -   90s
   127   139      -    -    -              - 106070.108      -     -   95s
   154   167      -    -    -              - 106070.108      -     -  100s
   178   191      -    -    -              - 106070.108      -     -  108s
   190   206      -    -    -              - 106070.108      -     -  111s
   207   227      -    -    -              - 106070.108      -     -  116s
   244   261      -    -    -              - 106070.108      -     -  121s
   278   299      -    -    -              - 106070.108      -     -  126s
   300   326      -    -    -              - 106070.108      -     -  131s
   357   398      -    -    -              - 106070.108      -     -  137s
   399   432      -    -    -              - 106070.108      -     -  140s
   441   457      -    -    -              - 106070.108      -     -  145s
   526   530      -    -    -              - 106070.108      -     -  153s
   573   574      -    -    -              - 107253.708      -     -  157s
   619   612      -    -    -              - 107253.708      -     -  161s
   675   642      -    -    -              - 107253.708      -     -  167s
   725   670      -    -    -              - 107253.708      -     -  170s
   761   700      -    -    -              - 107253.708      -     -  176s
   791   735      -    -    -              - 107253.708      -     -  181s
   826   773      -    -    -              - 107253.708      -     -  187s
   875   797      -    -    -              - 107253.708      -     -  193s
   907   828      -    -    -              - 107253.708      -     -  198s
   938   854      -    -    -              - 107253.708      -     -  205s
   976   881      -    -    -              - 107253.708      -     -  212s
  1007   920      -    -    -              - 107253.708      -     -  219s
  1050   958      -    -    -              - 109554.757      -     -  225s
  1105  1007      -    -    -              - 109554.757      -     -  233s
  1154  1069      -    -    -              - 109554.757      -     -  240s
  1216  1118      -    -    -              - 109554.757      -     -  248s
  1275  1174      -    -    -              - 109554.757      -     -  257s
  1331  1247      -    -    -              - 109554.757      -     -  265s
  1406  1319      -    -    -              - 109554.757      -     -  276s
  1524  1395      -    -    -              - 109554.757      -     -  285s
  1639  1397      -    -    -              - 109554.757      -     -  290s
  1640  1398      -    -    -              - 109554.757      -     -  300s
  1641  1399      -    -    -              - 109554.757      -     -  305s
  1644  1401      -    -    -              - 109554.757      -     -  310s
  1649  1404      -    -    -              - 109554.757      -     -  315s
  1653  1407      -    -    -              - 109554.757      -     -  321s
  1657  1409      -    -    -              - 109554.757      -     -  326s
  1660  1411      -    -    -              - 109554.757      -     -  330s
  1662  1413      -    -    -              - 109554.757      -     -  359s
  1663  1416      -    -    -              - 109554.757      -     -  362s
  1665  1420      -    -    -              - 111901.322      -     -  367s
  1669  1426      -    -    -              - 113682.347      -     -  372s
  1677  1434      -    -    -              - 113686.176      -     -  375s
  1697  1447      -    -    -              - 114852.068      -     -  381s
  1707  1454      -    -    -              - 114852.068      -     -  385s
  1727  1467      -    -    -              - 114852.068      -     -  394s
  1737  1475      -    -    -              - 114852.068      -     -  397s
  1748  1482      -    -    -              - 114852.068      -     -  401s
  1770  1496      -    -    -              - 114852.068      -     -  406s
  1791  1512      -    -    -     6189900.00 114852.068  98.1%     -  411s
  1803  1522      -    -    -     6189900.00 114852.068  98.1%     -  416s
  1831  1540      -    -    -     6189900.00 114852.068  98.1%     -  422s
  1845  1552      -    -    -     6189900.00 114852.068  98.1%     -  426s
  1861  1564      -    -    -     6189900.00 114852.068  98.1%     -  430s
  1879  1571      -    -    -     6189900.00 114852.068  98.1%     -  436s
  1892  1585      -    -    -     6189900.00 114852.068  98.1%     -  442s
  1910  1595      -    -    -     6189900.00 114852.068  98.1%     -  446s
  1926  1610      -    -    -     6189900.00 114852.068  98.1%     -  452s
  1946  1623      -    -    -     6189900.00 114852.068  98.1%     -  457s
  1966  1641      -    -    -     6189900.00 114852.068  98.1%     -  461s
  1991  1655      -    -    -     6189900.00 114852.068  98.1%     -  466s
  2013  1676      -    -    -     6189900.00 114852.068  98.1%     -  471s
  2041  1692      -    -    -     6189900.00 115005.796  98.1%     -  479s
  2067  1712      -    -    -     6189900.00 115005.796  98.1%     -  485s
  2097  1733      -    -    -     6189900.00 115005.796  98.1%     -  492s
  2130  1749      -    -    -     6189900.00 115005.796  98.1%     -  499s
  2161  1762      -    -    -     6189900.00 115005.796  98.1%     -  507s
  2195  1787      -    -    -     6189900.00 115005.796  98.1%     -  512s
  2233  1800      -    -    -     6189900.00 115005.796  98.1%     -  521s
  2275  1815      -    -    -     6189900.00 115005.796  98.1%     -  530s
  2312  1821      -    -    -     616600.000 115005.796  81.3%     -  540s
  2368  1821      -    -    -     616600.000 115005.796  81.3%     -  550s
  2407  1840      -    -    -     616600.000 115005.796  81.3%     -  558s
  2443  1862      -    -    -     616600.000 115005.796  81.3%     -  568s
  2479  1882      -    -    -     616600.000 115005.796  81.3%     -  577s
  2523  1898      -    -    -     616600.000 115005.796  81.3%     -  588s
  2553  1923      -    -    -     493700.000 115005.796  76.7%     -  598s
  2588  1947      -    -    -     493700.000 115005.796  76.7%     -  609s
  2628  1970      -    -    -     493700.000 115005.796  76.7%     -  625s
  2664  2003      -    -    -     493700.000 116122.804  76.5%     -  634s
  2715  2025      -    -    -     493700.000 116122.804  76.5%     -  643s
  2765  2059      -    -    -     493700.000 116122.804  76.5%     -  653s
  2835  2092      -    -    -     493700.000 116122.804  76.5%     -  663s
  2897  2110      -    -    -     493700.000 116122.804  76.5%     -  673s
  2964  2145      -    -    -     493700.000 116122.804  76.5%     -  682s
  3025  2190      -    -    -     493700.000 116122.804  76.5%     -  692s
  3093  2223      -    -    -     493700.000 116122.804  76.5%     -  701s
  3170  2265      -    -    -     493700.000 116122.804  76.5%     -  714s
  3278  2285      -    -    -     493700.000 116122.804  76.5%     -  726s
  3362  2325      -    -    -     493700.000 116122.804  76.5%     -  739s
  3450  2351      -    -    -     493700.000 117957.639  76.1%     -  755s
  3535  2401      -    -    -     493700.000 117957.639  76.1%     -  769s
  3618  2441      -    -    -     493700.000 117957.639  76.1%     -  783s
  3713  2481      -    -    -     493700.000 118730.444  76.0%     -  795s
  3795  2540      -    -    -     493700.000 118730.444  76.0%     -  808s
  3891  2580      -    -    -     493700.000 118730.444  76.0%     -  820s
  3995  2632      -    -    -     493700.000 118730.444  76.0%     -  835s
  4086  2695      -    -    -     493700.000 118730.444  76.0%     -  851s
  4193  2745      -    -    -     493700.000 119038.608  75.9%     -  868s
  4335  2808      -    -    -     493700.000 119038.608  75.9%     -  885s
  4473  2845      -    -    -     493700.000 119835.145  75.7%     -  901s
  4580  2915      -    -    -     493700.000 119835.145  75.7%     -  918s
  4708  3004      -    -    -     493700.000 119835.145  75.7%     -  933s
  4842  3081      -    -    -     493700.000 119835.145  75.7%     -  952s
  5048  3103      -    -    -     493700.000 120408.320  75.6%     -  973s
  5183  3175      -    -    -     493700.000 120408.320  75.6%     -  993s
  5320  3221      -    -    -     493700.000 120732.236  75.5%     - 1009s
  5432  3343      -    -    -     493700.000 120732.236  75.5%     - 1028s
  5603  3425      -    -    -     493700.000 122241.439  75.2%     - 1047s
  5776  3524      -    -    -     493700.000 122241.439  75.2%     - 1069s
  5999  3614      -    -    -     493700.000 122241.439  75.2%     - 1089s
  6172  3775      -    -    -     493700.000 123211.616  75.0%     - 1110s
  6361  3945      -    -    -     493700.000 123211.616  75.0%     - 1140s
  6573  4115      -    -    -     493700.000 123775.260  74.9%     - 1166s
  6780  4295      -    -    -     493700.000 123775.260  74.9%     - 1191s
  7006  4491      -    -    -     493700.000 124761.263  74.7%     - 1219s
  7254  4671      -    -    -     493700.000 124761.263  74.7%     - 1243s
  7492  4859      -    -    -     493700.000 124761.263  74.7%     - 1271s
  7713  5075      -    -    -     493700.000 124761.263  74.7%     - 1298s
  7959  5317      -    -    -     493700.000 124761.263  74.7%     - 1328s
  8303  5528      -    -    -     493700.000 124761.263  74.7%     - 1355s
  8562  5768      -    -    -     493700.000 124761.263  74.7%     - 1386s
  8812  6047      -    -    -     493700.000 124761.263  74.7%     - 1416s
  9199  6245      -    -    -     493700.000 124761.263  74.7%     - 1443s
  9455  6498      -    -    -     493700.000 124761.263  74.7%     - 1473s
  9799  6745      -    -    -     493700.000 125007.745  74.7%     - 1506s
 10110  7048      -    -    -     493700.000 125007.745  74.7%     - 1547s
 10505  7307      -    -    -     493700.000 125442.848  74.6%     - 1582s
 10818  7637      -    -    -     493700.000 125442.848  74.6%     - 1621s
 11228  7932      -    -    -     493700.000 125442.848  74.6%     - 1655s
 11621  8229      -    -    -     493700.000 125462.920  74.6%     - 1689s
 12026  8599      -    -    -     493700.000 125523.714  74.6%     - 1727s
 12468  8944      -    -    -     493700.000 125523.714  74.6%     - 1769s
 12926  9326      -    -    -     493700.000 126110.646  74.5%     - 1813s
 13390  9688      -    -    -     493700.000 126312.236  74.4%     - 1857s
 13896 10089      -    -    -     493700.000 126312.236  74.4%     - 1900s
 14375 10459      -    -    -     493700.000 126349.215  74.4%     - 1944s
 14861 10937      -    -    -     493700.000 127386.628  74.2%     - 1992s
 15474 11407      -    -    -     493700.000 127471.880  74.2%     - 2041s
 16026 11927      -    -    -     493700.000 127876.095  74.1%     - 2098s
 16805 12429      -    -    -     493700.000 128128.667  74.0%     - 2156s
 17451 12970      -    -    -     493700.000 128426.261  74.0%     - 2217s
 18138 13470      -    -    -     493700.000 128481.211  74.0%     - 2276s
 18784 14029      -    -    -     493700.000 128780.546  73.9%     - 2346s
 19483 14603      -    -    -     493700.000 128835.911  73.9%     - 2414s
 20197 15160      -    -    -     460900.000 129075.136  72.0%     - 2477s
 20894 15730      -    -    -     460900.000 129233.451  72.0%     - 2542s
 21640 16437      -    -    -     460900.000 129498.116  71.9%     - 2605s
 22746 17081      -    -    -     460900.000 129610.176  71.9%     - 2677s
 23588 17801      -    -    -     460900.000 129760.856  71.8%     - 2767s
 24512 18508      -    -    -     460900.000 130005.703  71.8%     - 2852s
 25441 19324      -    -    -     460900.000 130116.116  71.8%     - 2936s
 26483 20082      -    -    -     460900.000 130449.067  71.7%     - 3021s
 27433 20877      -    -    -     460900.000 130685.630  71.6%     - 3103s
 28628 21669      -    -    -     460900.000 130919.459  71.6%     - 3186s
 29612 22466      -    -    -     460900.000 131092.232  71.6%     - 3271s
 30635 23180      -    -    -     460900.000 131133.082  71.5%     - 3356s
 31724 23933      -    -    -     460900.000 131374.039  71.5%     - 3437s
 32720 24713      -    -    -     460900.000 131644.854  71.4%     - 3521s
 33714 25590      -    -    -     460900.000 131879.874  71.4%     - 3607s
 34890 26402      -    -    -     460900.000 132271.208  71.3%     - 3696s
 35904 27184      -    -    -     422600.000 132457.376  68.7%     - 3793s
 36974 27935      -    -    -     422600.000 132659.592  68.6%     - 3882s
 37026 27749      -    -    -     422600.000 132659.592  68.6%     - 3882s
 37905 28431      -    -    -     422600.000 132994.665  68.5%     - 4008s
 38862 29009      -    -    -     422600.000 133128.803  68.5%     - 4107s
 39788 29606      -    -    -     422600.000 133365.100  68.4%     - 4207s
 40687 30074      -    -    -     422600.000 133756.462  68.3%     - 4301s
 41406 30374      -    -    -     422600.000 134103.970  68.3%     - 4396s
 41884 30906      -    -    -     422600.000 134151.947  68.3%     - 4532s
 42784 31469      -    -    -     422600.000 134383.267  68.2%     - 4702s
 43568 31479      -    -    -     422600.000 136463.113  67.7%     - 5492s
 43578 31988      -    -    -     422600.000 136463.113  67.7%     - 5625s
 44370 32217      -    -    -     422600.000 136463.113  67.7%     - 6133s
 44709 32638      -    -    -     422600.000 136755.626  67.6%     - 6672s
 45290 32969      -    -    -     422600.000 138277.756  67.3%     - 7260s
 45825 33555      -    -    -     378000.000 138530.729  63.4%     - 7568s
 46746 33569      -    -    -     378000.000 139996.776  63.0%     - 8179s
 46760 34372      -    -    -     378000.000 140129.903  62.9%     - 8326s
 48101 34939      -    -    -     378000.000 140404.021  62.9%     - 8509s
 48343 34939      -    -    -     378000.000 140404.021  62.9%     - 8510s
 49139 35158      -    -    -     378000.000 140851.269  62.7%     - 8742s
 49451 35947      -    -    -     378000.000 141285.908  62.6%     - 8896s
 50699 36736      -    -    -     378000.000 141401.941  62.6%     - 9050s
 51760 37577      -    -    -     378000.000 141742.258  62.5%     - 9199s
 52984 37791      -    -    -     378000.000 142305.378  62.4%     - 9589s
 53305 38648      -    -    -     378000.000 142605.572  62.3%     - 9743s
 54593 39393      -    -    -     378000.000 142734.142  62.2%     - 9883s
 55768 40071      -    -    -     378000.000 142987.716  62.2%     - 10005s
 56814 40884      -    -    -     378000.000 143062.721  62.2%     - 10152s
 58133 41596      -    -    -     378000.000 143267.314  62.1%     - 10304s
 59270 42088      -    -    -     378000.000 143369.620  62.1%     - 10448s
 59941 42837      -    -    -     378000.000 143656.204  62.0%     - 10600s
 61073 43010      -    -    -     378000.000 144144.349  61.9%     - 11164s
 61357 43776      -    -    -     378000.000 144289.800  61.8%     - 11311s
 62401 44566      -    -    -     378000.000 144449.862  61.8%     - 11465s
 63616 45368      -    -    -     378000.000 144585.343  61.7%     - 11631s
 64902 46105      -    -    -     378000.000 144737.800  61.7%     - 11776s
 66016 46836      -    -    -     378000.000 144921.386  61.7%     - 11948s
 67126 47588      -    -    -     378000.000 145018.343  61.6%     - 12100s
 68243 48281      -    -    -     378000.000 145261.538  61.6%     - 12250s
 69460 49083      -    -    -     378000.000 145316.696  61.6%     - 12393s
 70753 49288      -    -    -     378000.000 145646.265  61.5%     - 12710s
 71175 50082      -    -    -     378000.000 145820.483  61.4%     - 12849s
 71678 50082      -    -    -     378000.000 145820.483  61.4%     - 12850s
 72443 50758      -    -    -     378000.000 145922.441  61.4%     - 12963s
 73395 51396      -    -    -     378000.000 146035.965  61.4%     - 13083s
 74820 52123      -    -    -     378000.000 146143.335  61.3%     - 13178s
 75913 52182      -    -    -     378000.000 146644.724  61.2%     - 13697s
 76022 52898      -    -    -     378000.000 146741.713  61.2%     - 13829s
 77116 53664      -    -    -     378000.000 146871.008  61.1%     - 13960s
 78305 54333      -    -    -     378000.000 146871.008  61.1%     - 14101s
 79226 55093      -    -    -     378000.000 147078.217  61.1%     - 14235s
 80417 55734      -    -    -     378000.000 147195.430  61.1%     - 14369s
 81447 56398      -    -    -     378000.000 147324.731  61.0%     - 14492s
 82553 57101      -    -    -     378000.000 147414.781  61.0%     - 14613s
 83516 57831      -    -    -     378000.000 147541.867  61.0%     - 14750s
 84578 58445      -    -    -     378000.000 147621.814  60.9%     - 14895s
 85515 59151      -    -    -     378000.000 147621.814  60.9%     - 15036s
 86733 59665      -    -    -     378000.000 147722.659  60.9%     - 15203s
 87837 59809      -    -    -     378000.000 148182.295  60.8%     - 15785s
 88082 60481      -    -    -     378000.000 148331.362  60.8%     - 15949s
 89288 61159      -    -    -     378000.000 148369.664  60.7%     - 16085s
 90411 61882      -    -    -     378000.000 148369.664  60.7%     - 16215s
 91416 62564      -    -    -     378000.000 148413.806  60.7%     - 16348s
 92385 63254      -    -    -     378000.000 148522.940  60.7%     - 16484s
 93546 63907      -    -    -     378000.000 148700.210  60.7%     - 16621s
 94432 64596      -    -    -     378000.000 148764.709  60.6%     - 16767s
 95498 65229      -    -    -     378000.000 148807.761  60.6%     - 16896s
 96599 65871      -    -    -     378000.000 148985.337  60.6%     - 17033s
 97670 66579      -    -    -     378000.000 149035.617  60.6%     - 17178s
 98049 66504      -    -    -     378000.000 149035.617  60.6%     - 17178s
 98649 67108      -    -    -     378000.000 149064.855  60.6%     - 17311s
 99727 67656      -    -    -     378000.000 149155.962  60.5%     - 17452s
 100656 68313      -    -    -     378000.000 149155.962  60.5%     - 17581s
 101546 68913      -    -    -     378000.000 149155.962  60.5%     - 17713s
 102519 69591      -    -    -     378000.000 149240.697  60.5%     - 17843s
 103578 70184      -    -    -     378000.000 149274.408  60.5%     - 17958s
 104525 70899      -    -    -     378000.000 149373.155  60.5%     - 18062s
 105595 71621      -    -    -     378000.000 149438.750  60.5%     - 18163s
 106687 72301      -    -    -     378000.000 149458.670  60.5%     - 18280s
 107826 72947      -    -    -     378000.000 149484.116  60.5%     - 18411s
 108792 73611      -    -    -     378000.000 149684.753  60.4%     - 18545s
 109928 74209      -    -    -     378000.000 149762.083  60.4%     - 18670s
 111049 74782      -    -    -     378000.000 149828.734  60.4%     - 18790s
 112004 75503      -    -    -     378000.000 149870.709  60.4%     - 18901s
 113151 76153      -    -    -     378000.000 149906.718  60.3%     - 19018s
 114338 76801      -    -    -     378000.000 150048.932  60.3%     - 19136s
 114361 75629      -    -    -     378000.000 150048.932  60.3%     - 19137s
 115503 76287      -    -    -     378000.000 150127.712  60.3%     - 19261s
 116501 76928      -    -    -     378000.000 150144.501  60.3%     - 19374s
 117411 77422      -    -    -     378000.000 150213.442  60.3%     - 19490s
 118390 78082      -    -    -     378000.000 150213.442  60.3%     - 19599s
 119391 78760      -    -    -     378000.000 150213.442  60.3%     - 19696s
 120543 79420      -    -    -     378000.000 150213.442  60.3%     - 19794s
 121682 80014      -    -    -     378000.000 150213.442  60.3%     - 19895s
 122527 80629      -    -    -     378000.000 150239.460  60.3%     - 20008s
 123446 81216      -    -    -     378000.000 150368.236  60.2%     - 20119s
 124450 81834      -    -    -     378000.000 150430.428  60.2%     - 20238s
 125426 82464      -    -    -     378000.000 150480.521  60.2%     - 20342s
 126397 83148      -    -    -     378000.000 150538.094  60.2%     - 20455s
 127517 83840      -    -    -     378000.000 150677.342  60.1%     - 20569s
 128668 84436      -    -    -     378000.000 150734.003  60.1%     - 20694s
 129513 85018      -    -    -     378000.000 150768.519  60.1%     - 20819s
 130726 85628      -    -    -     378000.000 150845.411  60.1%     - 20940s
 131590 86199      -    -    -     378000.000 150890.820  60.1%     - 21062s
 132821 86850      -    -    -     378000.000 150958.512  60.1%     - 21166s
 133910 87440      -    -    -     378000.000 150986.397  60.1%     - 21262s
 134966 87938      -    -    -     378000.000 151060.076  60.0%     - 21347s
 135844 88540      -    -    -     378000.000 151112.326  60.0%     - 21444s
 136902 89187      -    -    -     378000.000 151232.303  60.0%     - 21563s
 137977 89701      -    -    -     378000.000 151278.006  60.0%     - 21672s
 138808 90294      -    -    -     378000.000 151349.795  60.0%     - 21789s
 139661 90931      -    -    -     378000.000 151405.411  59.9%     - 21892s
 140712 91580      -    -    -     378000.000 151472.038  59.9%     - 21998s
 141727 92140      -    -    -     378000.000 151472.038  59.9%     - 22100s
 142861 92727      -    -    -     378000.000 151472.038  59.9%     - 22199s
 143782 93309      -    -    -     378000.000 151529.878  59.9%     - 22304s
 144760 93920      -    -    -     378000.000 151580.270  59.9%     - 22405s
 145727 94476      -    -    -     378000.000 151670.857  59.9%     - 22517s
 146695 95110      -    -    -     377100.000 151700.892  59.8%     - 22627s
 147705 95756      -    -    -     377100.000 151739.845  59.8%     - 22729s
 148645 96393      -    -    -     377100.000 151743.446  59.8%     - 22839s
 149436 96393      -    -    -     377100.000 151743.446  59.8%     - 22840s
 149534 97068      -    -    -     377100.000 151822.363  59.7%     - 22951s
 150508 97648      -    -    -     377100.000 151875.472  59.7%     - 23056s
 151460 98295      -    -    -     377100.000 152031.028  59.7%     - 23149s
 151645 98295      -    -    -     377100.000 152031.028  59.7%     - 23150s
 152376 98959      -    -    -     377100.000 152031.028  59.7%     - 23243s
 153439 99577      -    -    -     377100.000 152031.028  59.7%     - 23341s
 154356 100219      -    -    -     377100.000 152089.474  59.7%     - 23440s
 155730 100895      -    -    -     377100.000 152155.040  59.7%     - 23542s
 156742 101597      -    -    -     377100.000 152183.679  59.6%     - 23638s
 157875 102139      -    -    -     377100.000 152261.442  59.6%     - 23731s
 159072 102772      -    -    -     377100.000 152369.777  59.6%     - 23842s
 160137 103329      -    -    -     377100.000 152412.593  59.6%     - 23974s
 161236 103945      -    -    -     377100.000 152448.568  59.6%     - 24096s
 162366 104581      -    -    -     377100.000 152448.568  59.6%     - 24208s
 163410 105203      -    -    -     377100.000 152448.568  59.6%     - 24317s
 164473 105804      -    -    -     377100.000 152448.568  59.6%     - 24417s
 165485 106363      -    -    -     377100.000 152499.251  59.6%     - 24506s
 166438 107011      -    -    -     377100.000 152557.853  59.5%     - 24605s
 167535 107520      -    -    -     356000.000 152629.201  57.1%     - 24719s
 168355 108135      -    -    -     356000.000 152659.507  57.1%     - 24825s
 169403 108775      -    -    -     356000.000 152659.507  57.1%     - 24933s
 170634 109258      -    -    -     356000.000 152693.518  57.1%     - 25029s
 171513 109777      -    -    -     356000.000 152737.987  57.1%     - 25127s
 172442 110286      -    -    -     356000.000 152796.660  57.1%     - 25243s
 173325 110816      -    -    -     356000.000 152836.685  57.1%     - 25346s
 174291 111366      -    -    -     356000.000 152876.700  57.1%     - 25448s
 175280 111946      -    -    -     356000.000 152992.281  57.0%     - 25548s
 176272 112458      -    -    -     356000.000 153047.215  57.0%     - 25664s
 177086 113119      -    -    -     356000.000 153094.139  57.0%     - 25771s
 178109 113735      -    -    -     356000.000 153094.139  57.0%     - 25874s
 179087 114264      -    -    -     356000.000 153094.139  57.0%     - 25983s
 180207 114950      -    -    -     356000.000 153104.295  57.0%     - 26080s
 181237 115515      -    -    -     356000.000 153142.360  57.0%     - 26201s
 182255 116086      -    -    -     356000.000 153195.066  57.0%     - 26312s
 183111 116797      -    -    -     356000.000 153245.785  57.0%     - 26413s
 184236 117338      -    -    -     356000.000 153245.785  57.0%     - 26497s
 185427 117943      -    -    -     356000.000 153257.283  57.0%     - 26595s
 186405 118569      -    -    -     356000.000 153291.904  56.9%     - 26679s
 187424 119126      -    -    -     356000.000 153354.347  56.9%     - 26770s
 188364 119774      -    -    -     356000.000 153402.599  56.9%     - 26867s
 189398 119817      -    -    -     356000.000 153552.783  56.9%     - 27386s
 189481 120385      -    -    -     356000.000 153552.783  56.9%     - 27479s
 190324 121011      -    -    -     356000.000 153577.500  56.9%     - 27583s
 191315 121647      -    -    -     356000.000 153610.719  56.9%     - 27689s
 192406 122328      -    -    -     356000.000 153656.197  56.8%     - 27797s
 193391 122895      -    -    -     356000.000 153732.418  56.8%     - 27906s
 194398 123484      -    -    -     356000.000 153787.232  56.8%     - 28018s
 195523 124055      -    -    -     356000.000 153865.447  56.8%     - 28119s
 196692 124593      -    -    -     356000.000 153899.410  56.8%     - 28223s
 197518 125211      -    -    -     356000.000 153944.327  56.8%     - 28340s
 198627 125841      -    -    -     356000.000 154028.339  56.7%     - 28456s
 199872 126464      -    -    -     356000.000 154028.339  56.7%     - 28571s
 200972 127104      -    -    -     356000.000 154059.326  56.7%     - 28686s
 201956 127725      -    -    -     356000.000 154059.326  56.7%     - 28787s
 202926 128326      -    -    -     356000.000 154059.326  56.7%     - 28866s
 203793 128906      -    -    -     356000.000 154081.596  56.7%     - 28953s
 204752 129539      -    -    -     356000.000 154111.704  56.7%     - 29047s
 205825 130083      -    -    -     356000.000 154164.941  56.7%     - 29173s
 206814 130638      -    -    -     356000.000 154195.123  56.7%     - 29306s
 207693 131281      -    -    -     356000.000 154266.500  56.7%     - 29425s
 208814 131904      -    -    -     356000.000 154325.793  56.7%     - 29533s
 209888 132501      -    -    -     356000.000 154372.737  56.6%     - 29636s
 210884 133095      -    -    -     356000.000 154396.395  56.6%     - 29738s
 211857 133659      -    -    -     356000.000 154437.109  56.6%     - 29841s
 212737 134295      -    -    -     356000.000 154457.414  56.6%     - 29947s
 213808 134963      -    -    -     356000.000 154484.842  56.6%     - 30048s
 214939 135532      -    -    -     356000.000 154484.842  56.6%     - 30144s
 215792 136115      -    -    -     356000.000 154505.653  56.6%     - 30251s
 216796 136689      -    -    -     356000.000 154563.569  56.6%     - 30371s
 217838 137139      -    -    -     356000.000 154610.919  56.6%     - 30497s
 218700 137802      -    -    -     356000.000 154666.837  56.6%     - 30612s
 219786 137887      -    -    -     356000.000 154984.920  56.5%     - 31307s
 219944 138542      -    -    -     356000.000 155015.667  56.5%     - 31431s
 220967 139288      -    -    -     356000.000 155015.667  56.5%     - 31551s
 222002 139939      -    -    -     356000.000 155024.330  56.5%     - 31650s
 223100 140601      -    -    -     356000.000 155047.340  56.4%     - 31758s
 224057 141203      -    -    -     356000.000 155113.884  56.4%     - 31863s
 225284 141822      -    -    -     356000.000 155126.660  56.4%     - 31971s
 226285 142453      -    -    -     356000.000 155188.983  56.4%     - 32079s
 227337 143059      -    -    -     356000.000 155237.558  56.4%     - 32187s
 228607 143645      -    -    -     356000.000 155280.894  56.4%     - 32279s
 229668 144227      -    -    -     356000.000 155280.894  56.4%     - 32371s
 230667 144824      -    -    -     356000.000 155280.894  56.4%     - 32454s
 231564 145424      -    -    -     356000.000 155290.233  56.4%     - 32553s
 232553 146022      -    -    -     356000.000 155330.996  56.4%     - 32677s
 233608 146634      -    -    -     356000.000 155380.018  56.4%     - 32795s
 234678 147090      -    -    -     356000.000 155409.232  56.3%     - 32905s
 235600 147695      -    -    -     356000.000 155422.053  56.3%     - 33013s
 236649 148352      -    -    -     356000.000 155486.403  56.3%     - 33118s
 237616 148946      -    -    -     356000.000 155514.550  56.3%     - 33219s
 238495 149619      -    -    -     356000.000 155524.080  56.3%     - 33332s
 239717 150162      -    -    -     356000.000 155565.621  56.3%     - 33442s
 240662 150718      -    -    -     356000.000 155595.978  56.3%     - 33546s
 241589 151328      -    -    -     356000.000 155595.978  56.3%     - 33643s
 242640 151933      -    -    -     356000.000 155595.978  56.3%     - 33757s
 243698 152183      -    -    -     356000.000 155669.169  56.3%     - 33994s
 244130 152766      -    -    -     356000.000 155700.818  56.3%     - 34104s
 245104 153401      -    -    -     356000.000 155733.453  56.3%     - 34195s
 246194 153949      -    -    -     356000.000 155816.108  56.2%     - 34289s
 246916 153949      -    -    -     356000.000 155816.108  56.2%     - 34290s
 247236 154570      -    -    -     356000.000 155853.576  56.2%     - 34383s
 248155 155243      -    -    -     356000.000 155900.413  56.2%     - 34475s
 249200 155977      -    -    -     356000.000 155921.818  56.2%     - 34576s
 250339 156232      -    -    -     356000.000 156082.288  56.2%     - 34946s
 250723 156885      -    -    -     356000.000 156098.469  56.2%     - 35066s
 251960 157585      -    -    -     356000.000 156098.469  56.2%     - 35174s
 252847 158347      -    -    -     356000.000 156098.469  56.2%     - 35273s
 254025 159015      -    -    -     356000.000 156098.469  56.2%     - 35385s
 255176 159560      -    -    -     356000.000 156203.442  56.1%     - 35492s
 256134 160175      -    -    -     356000.000 156226.936  56.1%     - 35603s
 257022 160687      -    -    -     356000.000 156306.353  56.1%     - 35704s
 258323 161328      -    -    -     356000.000 156314.966  56.1%     - 35800s
 259375 161944      -    -    -     356000.000 156393.534  56.1%     - 35891s
 260567 162589      -    -    -     356000.000 156435.297  56.1%     - 35999s
 261586 163183      -    -    -     356000.000 156457.686  56.1%     - 36097s
 262587 163871      -    -    -     356000.000 156457.686  56.1%     - 36200s
 263603 164417      -    -    -     356000.000 156457.686  56.1%     - 36303s
 264678 165139      -    -    -     356000.000 156470.557  56.0%     - 36401s
 265899 165689      -    -    -     356000.000 156491.554  56.0%     - 36516s
 266887 165948      -    -    -     356000.000 156558.266  56.0%     - 36753s
 267324 166625      -    -    -     356000.000 156596.859  56.0%     - 36874s
 268271 167268      -    -    -     356000.000 156660.151  56.0%     - 36997s
 269267 167846      -    -    -     356000.000 156671.962  56.0%     - 37121s
 270205 168445      -    -    -     356000.000 156692.750  56.0%     - 37252s
 271282 169048      -    -    -     356000.000 156722.348  56.0%     - 37373s
 272363 169652      -    -    -     356000.000 156736.325  56.0%     - 37498s
 273338 169807      -    -    -     356000.000 156849.124  55.9%     - 37801s

Cutting planes:
  Gomory: 1
  MIR: 95
  Flow cover: 148
  Zero half: 17
  RLT: 1026

Explored 273588 nodes (139483976 simplex iterations) in 37827.55 seconds
Thread count was 10 (of 64 available processors)

Solution count 10: 356000 

Solve interrupted
Best objective 3.560000000000e+05, best bound 1.569000000000e+05, gap 55.9270%
