-5,8,-7,6,1,-4,3,-2
-5,8,-7,6,1,-4,3,-2
-5,8,-7,6,1,-4,3,-2
-5,8,-7,6,1,-4,3,-2
-5,8,-7,6,1,-4,3,-2
-5,8,-7,6,1,-4,3,-2
0,0,0,0,0,0,0,0
7,-3,2,-8,-6,5,-1,4
7,-3,2,-8,-6,5,-1,4
7,-3,2,-8,-6,5,-1,4
7,-3,2,-8,-6,5,-1,4
7,-3,2,-8,-6,5,-1,4
7,-3,2,-8,-6,5,-1,4
0,0,0,0,0,0,0,0
5,4,8,-2,-1,-7,6,-3
5,4,8,-2,-1,-7,6,-3
5,4,8,-2,-1,-7,6,-3
5,4,8,-2,-1,-7,6,-3
5,4,8,-2,-1,-7,6,-3
5,4,8,-2,-1,-7,6,-3
0,0,0,0,0,0,0,0
-2,1,-5,7,3,-8,-4,6
-2,1,-5,7,3,-8,-4,6
-2,1,-5,7,3,-8,-4,6
-2,1,-5,7,3,-8,-4,6
-2,1,-5,7,3,-8,-4,6
-2,1,-5,7,3,-8,-4,6
0,0,0,0,0,0,0,0
7,-8,-6,-5,4,3,-1,2
7,-8,-6,-5,4,3,-1,2
7,-8,-6,-5,4,3,-1,2
7,-8,-6,-5,4,3,-1,2
7,-8,-6,-5,4,3,-1,2
7,-8,-6,-5,4,3,-1,2
0,0,0,0,0,0,0,0
-4,-7,8,1,-6,5,2,-3
-4,-7,8,1,-6,5,2,-3
-4,-7,8,1,-6,5,2,-3
-4,-7,8,1,-6,5,2,-3
-4,-7,8,1,-6,5,2,-3
-4,-7,8,1,-6,5,2,-3
0,0,0,0,0,0,0,0
6,3,-2,5,-4,-1,-8,7
6,3,-2,5,-4,-1,-8,7
6,3,-2,5,-4,-1,-8,7
6,3,-2,5,-4,-1,-8,7
6,3,-2,5,-4,-1,-8,7
6,3,-2,5,-4,-1,-8,7
0,0,0,0,0,0,0,0
-7,6,4,-3,8,-2,1,-5
-7,6,4,-3,8,-2,1,-5
-7,6,4,-3,8,-2,1,-5
-7,6,4,-3,8,-2,1,-5
-7,6,4,-3,8,-2,1,-5
-7,6,4,-3,8,-2,1,-5
0,0,0,0,0,0,0,0
8,-3,2,-7,-6,5,4,-1
8,-3,2,-7,-6,5,4,-1
8,-3,2,-7,-6,5,4,-1
8,-3,2,-7,-6,5,4,-1
8,-3,2,-7,-6,5,4,-1
8,-3,2,-7,-6,5,4,-1
0,0,0,0,0,0,0,0
-5,7,-8,6,1,-4,-2,3
-5,7,-8,6,1,-4,-2,3
-5,7,-8,6,1,-4,-2,3
-5,7,-8,6,1,-4,-2,3
-5,7,-8,6,1,-4,-2,3
-5,7,-8,6,1,-4,-2,3
0,0,0,0,0,0,0,0
-6,-8,7,5,-4,1,-3,2
-6,-8,7,5,-4,1,-3,2
-6,-8,7,5,-4,1,-3,2
-6,-8,7,5,-4,1,-3,2
-6,-8,7,5,-4,1,-3,2
-6,-8,7,5,-4,1,-3,2
0,0,0,0,0,0,0,0
4,3,-2,-1,6,-5,8,-7
4,3,-2,-1,6,-5,8,-7
4,3,-2,-1,6,-5,8,-7
4,3,-2,-1,6,-5,8,-7
4,3,-2,-1,6,-5,8,-7
4,3,-2,-1,6,-5,8,-7
0,0,0,0,0,0,0,0
-3,-5,1,8,2,7,-6,-4
-3,-5,1,8,2,7,-6,-4
-3,-5,1,8,2,7,-6,-4
-3,-5,1,8,2,7,-6,-4
-3,-5,1,8,2,7,-6,-4
-3,-5,1,8,2,7,-6,-4
0,0,0,0,0,0,0,0
5,-7,-8,-6,-1,4,2,3
5,-7,-8,-6,-1,4,2,3
5,-7,-8,-6,-1,4,2,3
5,-7,-8,-6,-1,4,2,3
5,-7,-8,-6,-1,4,2,3
5,-7,-8,-6,-1,4,2,3
0,0,0,0,0,0,0,0
6,8,7,-5,4,-1,-3,-2
6,8,7,-5,4,-1,-3,-2
6,8,7,-5,4,-1,-3,-2
6,8,7,-5,4,-1,-3,-2
6,8,7,-5,4,-1,-3,-2
6,8,7,-5,4,-1,-3,-2
0,0,0,0,0,0,0,0
-7,3,-2,6,-8,-4,1,5
-7,3,-2,6,-8,-4,1,5
-7,3,-2,6,-8,-4,1,5
-7,3,-2,6,-8,-4,1,5
-7,3,-2,6,-8,-4,1,5
-7,3,-2,6,-8,-4,1,5
0,0,0,0,0,0,0,0
4,-6,5,-1,-3,2,8,-7
4,-6,5,-1,-3,2,8,-7
4,-6,5,-1,-3,2,8,-7
4,-6,5,-1,-3,2,8,-7
4,-6,5,-1,-3,2,8,-7
4,-6,5,-1,-3,2,8,-7
0,0,0,0,0,0,0,0
-6,-4,-8,2,7,1,-5,3
-6,-4,-8,2,7,1,-5,3
-6,-4,-8,2,7,1,-5,3
-6,-4,-8,2,7,1,-5,3
-6,-4,-8,2,7,1,-5,3
-6,-4,-8,2,7,1,-5,3
0,0,0,0,0,0,0,0
-4,8,-7,1,6,-5,3,-2
-4,8,-7,1,6,-5,3,-2
-4,8,-7,1,6,-5,3,-2
-4,8,-7,1,6,-5,3,-2
-4,8,-7,1,6,-5,3,-2
-4,8,-7,1,6,-5,3,-2
0,0,0,0,0,0,0,0
5,-3,2,-6,-1,4,-8,7
5,-3,2,-6,-1,4,-8,7
5,-3,2,-6,-1,4,-8,7
5,-3,2,-6,-1,4,-8,7
5,-3,2,-6,-1,4,-8,7
5,-3,2,-6,-1,4,-8,7
