1,2,5,9,10,11,13,14,17,18
15,16,7,6,8,1,4,12,19,14
6,13,18,19,5,20,12,9,15,3
9,17,20,11,3,7,10,2,4,16
8,11,6,1,18,4,15,14,16,10
2,12,18,13,1,15,19,17,9,5
4,6,16,7,14,12,3,8,20,11
2,5,10,17,20,13,9,7,3,19
5,8,1,14,19,15,18,6,12,13
11,4,17,20,7,3,9,10,2,16
19,6,13,12,18,8,1,5,14,15
7,8,2,4,15,16,10,17,1,11
13,18,19,14,3,9,5,20,12,6
15,17,3,12,4,19,16,2,7,9
20,10,8,1,11,17,6,16,4,7
10,14,15,18,12,6,11,5,13,3
19,14,13,9,1,18,20,8,5,2
20,7,4,16,17,2,3,11,10,8
17,19,15,6,12,10,7,4,9,1
8,3,11,2,16,5,14,13,18,20
