6,3,-2,-5,4,-1,-10,-9,8,7,12,-11,19,16,-18,-14,20,15,-13,-17
6,3,-2,-5,4,-1,-10,-9,8,7,12,-11,19,16,-18,-14,20,15,-13,-17
6,3,-2,-5,4,-1,-10,-9,8,7,12,-11,19,16,-18,-14,20,15,-13,-17
6,3,-2,-5,4,-1,-10,-9,8,7,12,-11,19,16,-18,-14,20,15,-13,-17
6,3,-2,-5,4,-1,-10,-9,8,7,12,-11,19,16,-18,-14,20,15,-13,-17
6,3,-2,-5,4,-1,-10,-9,8,7,12,-11,19,16,-18,-14,20,15,-13,-17
0,0,0,0,0,0,0,0,0,0,0,0,0,0,0,0,0,0,0,0
3,-4,-1,2,-6,5,11,13,-12,-16,-7,9,-8,20,17,10,-15,-19,18,-14
3,-4,-1,2,-6,5,11,13,-12,-16,-7,9,-8,20,17,10,-15,-19,18,-14
3,-4,-1,2,-6,5,11,13,-12,-16,-7,9,-8,20,17,10,-15,-19,18,-14
3,-4,-1,2,-6,5,11,13,-12,-16,-7,9,-8,20,17,10,-15,-19,18,-14
3,-4,-1,2,-6,5,11,13,-12,-16,-7,9,-8,20,17,10,-15,-19,18,-14
3,-4,-1,2,-6,5,11,13,-12,-16,-7,9,-8,20,17,10,-15,-19,18,-14
0,0,0,0,0,0,0,0,0,0,0,0,0,0,0,0,0,0,0,0
-6,-5,4,-3,2,1,-13,-12,11,-18,-9,8,7,-15,14,-19,-20,10,16,17
-6,-5,4,-3,2,1,-13,-12,11,-18,-9,8,7,-15,14,-19,-20,10,16,17
-6,-5,4,-3,2,1,-13,-12,11,-18,-9,8,7,-15,14,-19,-20,10,16,17
-6,-5,4,-3,2,1,-13,-12,11,-18,-9,8,7,-15,14,-19,-20,10,16,17
-6,-5,4,-3,2,1,-13,-12,11,-18,-9,8,7,-15,14,-19,-20,10,16,17
-6,-5,4,-3,2,1,-13,-12,11,-18,-9,8,7,-15,14,-19,-20,10,16,17
0,0,0,0,0,0,0,0,0,0,0,0,0,0,0,0,0,0,0,0
-4,6,5,1,-3,-2,19,-11,12,13,8,-9,-10,-20,-17,18,15,-16,-7,14
-4,6,5,1,-3,-2,19,-11,12,13,8,-9,-10,-20,-17,18,15,-16,-7,14
-4,6,5,1,-3,-2,19,-11,12,13,8,-9,-10,-20,-17,18,15,-16,-7,14
-4,6,5,1,-3,-2,19,-11,12,13,8,-9,-10,-20,-17,18,15,-16,-7,14
-4,6,5,1,-3,-2,19,-11,12,13,8,-9,-10,-20,-17,18,15,-16,-7,14
-4,6,5,1,-3,-2,19,-11,12,13,8,-9,-10,-20,-17,18,15,-16,-7,14
0,0,0,0,0,0,0,0,0,0,0,0,0,0,0,0,0,0,0,0
5,-4,-6,2,-1,3,-8,7,-11,12,9,-10,-18,19,20,17,-16,13,-14,-15
5,-4,-6,2,-1,3,-8,7,-11,12,9,-10,-18,19,20,17,-16,13,-14,-15
5,-4,-6,2,-1,3,-8,7,-11,12,9,-10,-18,19,20,17,-16,13,-14,-15
5,-4,-6,2,-1,3,-8,7,-11,12,9,-10,-18,19,20,17,-16,13,-14,-15
5,-4,-6,2,-1,3,-8,7,-11,12,9,-10,-18,19,20,17,-16,13,-14,-15
5,-4,-6,2,-1,3,-8,7,-11,12,9,-10,-18,19,20,17,-16,13,-14,-15
0,0,0,0,0,0,0,0,0,0,0,0,0,0,0,0,0,0,0,0
4,3,-2,-1,6,-5,-9,-19,7,-13,-12,11,10,-15,14,-18,20,16,8,-17
4,3,-2,-1,6,-5,-9,-19,7,-13,-12,11,10,-15,14,-18,20,16,8,-17
4,3,-2,-1,6,-5,-9,-19,7,-13,-12,11,10,-15,14,-18,20,16,8,-17
4,3,-2,-1,6,-5,-9,-19,7,-13,-12,11,10,-15,14,-18,20,16,8,-17
4,3,-2,-1,6,-5,-9,-19,7,-13,-12,11,10,-15,14,-18,20,16,8,-17
4,3,-2,-1,6,-5,-9,-19,7,-13,-12,11,10,-15,14,-18,20,16,8,-17
0,0,0,0,0,0,0,0,0,0,0,0,0,0,0,0,0,0,0,0
-3,-6,1,5,-4,2,13,18,-12,-11,10,9,-7,17,-20,19,-14,-8,-16,15
-3,-6,1,5,-4,2,13,18,-12,-11,10,9,-7,17,-20,19,-14,-8,-16,15
-3,-6,1,5,-4,2,13,18,-12,-11,10,9,-7,17,-20,19,-14,-8,-16,15
-3,-6,1,5,-4,2,13,18,-12,-11,10,9,-7,17,-20,19,-14,-8,-16,15
-3,-6,1,5,-4,2,13,18,-12,-11,10,9,-7,17,-20,19,-14,-8,-16,15
-3,-6,1,5,-4,2,13,18,-12,-11,10,9,-7,17,-20,19,-14,-8,-16,15
0,0,0,0,0,0,0,0,0,0,0,0,0,0,0,0,0,0,0,0
-5,4,6,-2,1,-3,12,-10,11,8,-9,-7,18,-19,-17,-20,15,-13,14,16
-5,4,6,-2,1,-3,12,-10,11,8,-9,-7,18,-19,-17,-20,15,-13,14,16
-5,4,6,-2,1,-3,12,-10,11,8,-9,-7,18,-19,-17,-20,15,-13,14,16
-5,4,6,-2,1,-3,12,-10,11,8,-9,-7,18,-19,-17,-20,15,-13,14,16
-5,4,6,-2,1,-3,12,-10,11,8,-9,-7,18,-19,-17,-20,15,-13,14,16
-5,4,6,-2,1,-3,12,-10,11,8,-9,-7,18,-19,-17,-20,15,-13,14,16
0,0,0,0,0,0,0,0,0,0,0,0,0,0,0,0,0,0,0,0
2,-1,-5,-6,3,4,-13,9,-8,-19,-12,11,7,20,16,-15,-18,17,10,-14
2,-1,-5,-6,3,4,-13,9,-8,-19,-12,11,7,20,16,-15,-18,17,10,-14
2,-1,-5,-6,3,4,-13,9,-8,-19,-12,11,7,20,16,-15,-18,17,10,-14
2,-1,-5,-6,3,4,-13,9,-8,-19,-12,11,7,20,16,-15,-18,17,10,-14
2,-1,-5,-6,3,4,-13,9,-8,-19,-12,11,7,20,16,-15,-18,17,10,-14
2,-1,-5,-6,3,4,-13,9,-8,-19,-12,11,7,20,16,-15,-18,17,10,-14
0,0,0,0,0,0,0,0,0,0,0,0,0,0,0,0,0,0,0,0
-3,6,1,5,-4,-2,8,-7,12,18,13,-9,-11,-17,-20,19,14,-10,-16,15
-3,6,1,5,-4,-2,8,-7,12,18,13,-9,-11,-17,-20,19,14,-10,-16,15
-3,6,1,5,-4,-2,8,-7,12,18,13,-9,-11,-17,-20,19,14,-10,-16,15
-3,6,1,5,-4,-2,8,-7,12,18,13,-9,-11,-17,-20,19,14,-10,-16,15
-3,6,1,5,-4,-2,8,-7,12,18,13,-9,-11,-17,-20,19,14,-10,-16,15
-3,6,1,5,-4,-2,8,-7,12,18,13,-9,-11,-17,-20,19,14,-10,-16,15
0,0,0,0,0,0,0,0,0,0,0,0,0,0,0,0,0,0,0,0
0,0,0,0,0,0,0,0,0,0,0,0,0,0,0,0,0,0,0,0
0,0,0,0,0,0,0,0,0,0,0,0,0,0,0,0,0,0,0,0
2,-1,-5,-6,3,4,-12,11,-13,-19,-8,7,9,16,17,-14,-15,20,10,-18
2,-1,-5,-6,3,4,-12,11,-13,-19,-8,7,9,16,17,-14,-15,20,10,-18
2,-1,-5,-6,3,4,-12,11,-13,-19,-8,7,9,16,17,-14,-15,20,10,-18
2,-1,-5,-6,3,4,-12,11,-13,-19,-8,7,9,16,17,-14,-15,20,10,-18
0,0,0,0,0,0,0,0,0,0,0,0,0,0,0,0,0,0,0,0
5,6,-4,3,-1,-2,9,13,-7,18,12,-11,-8,-15,14,20,19,-10,-17,-16
5,6,-4,3,-1,-2,9,13,-7,18,12,-11,-8,-15,14,20,19,-10,-17,-16
5,6,-4,3,-1,-2,9,13,-7,18,12,-11,-8,-15,14,20,19,-10,-17,-16
5,6,-4,3,-1,-2,9,13,-7,18,12,-11,-8,-15,14,20,19,-10,-17,-16
5,6,-4,3,-1,-2,9,13,-7,18,12,-11,-8,-15,14,20,19,-10,-17,-16
5,6,-4,3,-1,-2,9,13,-7,18,12,-11,-8,-15,14,20,19,-10,-17,-16
0,0,0,0,0,0,0,0,0,0,0,0,0,0,0,0,0,0,0,0
-6,-3,2,-5,4,1,-19,-12,10,-9,-13,8,11,17,-20,-18,-14,16,7,15
-6,-3,2,-5,4,1,-19,-12,10,-9,-13,8,11,17,-20,-18,-14,16,7,15
-6,-3,2,-5,4,1,-19,-12,10,-9,-13,8,11,17,-20,-18,-14,16,7,15
-6,-3,2,-5,4,1,-19,-12,10,-9,-13,8,11,17,-20,-18,-14,16,7,15
-6,-3,2,-5,4,1,-19,-12,10,-9,-13,8,11,17,-20,-18,-14,16,7,15
-6,-3,2,-5,4,1,-19,-12,10,-9,-13,8,11,17,-20,-18,-14,16,7,15
0,0,0,0,0,0,0,0,0,0,0,0,0,0,0,0,0,0,0,0
-2,1,5,6,-3,-4,11,-9,8,-12,-7,10,-19,-16,18,14,20,-15,13,-17
-2,1,5,6,-3,-4,11,-9,8,-12,-7,10,-19,-16,18,14,20,-15,13,-17
-2,1,5,6,-3,-4,11,-9,8,-12,-7,10,-19,-16,18,14,20,-15,13,-17
-2,1,5,6,-3,-4,11,-9,8,-12,-7,10,-19,-16,18,14,20,-15,13,-17
-2,1,5,6,-3,-4,11,-9,8,-12,-7,10,-19,-16,18,14,20,-15,13,-17
-2,1,5,6,-3,-4,11,-9,8,-12,-7,10,-19,-16,18,14,20,-15,13,-17
0,0,0,0,0,0,0,0,0,0,0,0,0,0,0,0,0,0,0,0
3,-4,-1,2,-6,5,13,12,-11,19,9,-8,-7,-17,-16,15,14,-20,-10,18
3,-4,-1,2,-6,5,13,12,-11,19,9,-8,-7,-17,-16,15,14,-20,-10,18
3,-4,-1,2,-6,5,13,12,-11,19,9,-8,-7,-17,-16,15,14,-20,-10,18
3,-4,-1,2,-6,5,13,12,-11,19,9,-8,-7,-17,-16,15,14,-20,-10,18
3,-4,-1,2,-6,5,13,12,-11,19,9,-8,-7,-17,-16,15,14,-20,-10,18
3,-4,-1,2,-6,5,13,12,-11,19,9,-8,-7,-17,-16,15,14,-20,-10,18
0,0,0,0,0,0,0,0,0,0,0,0,0,0,0,0,0,0,0,0
-5,-3,2,-6,1,4,-11,-13,-12,16,7,9,8,20,17,-10,-15,19,-18,-14
-5,-3,2,-6,1,4,-11,-13,-12,16,7,9,8,20,17,-10,-15,19,-18,-14
-5,-3,2,-6,1,4,-11,-13,-12,16,7,9,8,20,17,-10,-15,19,-18,-14
-5,-3,2,-6,1,4,-11,-13,-12,16,7,9,8,20,17,-10,-15,19,-18,-14
-5,-3,2,-6,1,4,-11,-13,-12,16,7,9,8,20,17,-10,-15,19,-18,-14
-5,-3,2,-6,1,4,-11,-13,-12,16,7,9,8,20,17,-10,-15,19,-18,-14
0,0,0,0,0,0,0,0,0,0,0,0,0,0,0,0,0,0,0,0
6,4,-5,-2,3,-1,-18,10,11,-8,-9,-13,12,15,-14,-19,-20,7,16,17
6,4,-5,-2,3,-1,-18,10,11,-8,-9,-13,12,15,-14,-19,-20,7,16,17
6,4,-5,-2,3,-1,-18,10,11,-8,-9,-13,12,15,-14,-19,-20,7,16,17
6,4,-5,-2,3,-1,-18,10,11,-8,-9,-13,12,15,-14,-19,-20,7,16,17
6,4,-5,-2,3,-1,-18,10,11,-8,-9,-13,12,15,-14,-19,-20,7,16,17
6,4,-5,-2,3,-1,-18,10,11,-8,-9,-13,12,15,-14,-19,-20,7,16,17
0,0,0,0,0,0,0,0,0,0,0,0,0,0,0,0,0,0,0,0
-4,5,6,1,-2,-3,12,9,-8,19,13,-7,-11,-20,-17,18,15,-16,-10,14
-4,5,6,1,-2,-3,12,9,-8,19,13,-7,-11,-20,-17,18,15,-16,-10,14
-4,5,6,1,-2,-3,12,9,-8,19,13,-7,-11,-20,-17,18,15,-16,-10,14
-4,5,6,1,-2,-3,12,9,-8,19,13,-7,-11,-20,-17,18,15,-16,-10,14
-4,5,6,1,-2,-3,12,9,-8,19,13,-7,-11,-20,-17,18,15,-16,-10,14
-4,5,6,1,-2,-3,12,9,-8,19,13,-7,-11,-20,-17,18,15,-16,-10,14
0,0,0,0,0,0,0,0,0,0,0,0,0,0,0,0,0,0,0,0
5,-6,-4,3,-1,2,16,-10,13,8,-12,11,-9,-17,20,-7,14,-19,18,-15
5,-6,-4,3,-1,2,16,-10,13,8,-12,11,-9,-17,20,-7,14,-19,18,-15
5,-6,-4,3,-1,2,16,-10,13,8,-12,11,-9,-17,20,-7,14,-19,18,-15
5,-6,-4,3,-1,2,16,-10,13,8,-12,11,-9,-17,20,-7,14,-19,18,-15
5,-6,-4,3,-1,2,16,-10,13,8,-12,11,-9,-17,20,-7,14,-19,18,-15
5,-6,-4,3,-1,2,16,-10,13,8,-12,11,-9,-17,20,-7,14,-19,18,-15
0,0,0,0,0,0,0,0,0,0,0,0,0,0,0,0,0,0,0,0
-3,4,1,-2,6,-5,-13,12,-11,-18,9,-8,7,15,-14,19,-20,10,-16,17
-3,4,1,-2,6,-5,-13,12,-11,-18,9,-8,7,15,-14,19,-20,10,-16,17
-3,4,1,-2,6,-5,-13,12,-11,-18,9,-8,7,15,-14,19,-20,10,-16,17
-3,4,1,-2,6,-5,-13,12,-11,-18,9,-8,7,15,-14,19,-20,10,-16,17
-3,4,1,-2,6,-5,-13,12,-11,-18,9,-8,7,15,-14,19,-20,10,-16,17
-3,4,1,-2,6,-5,-13,12,-11,-18,9,-8,7,15,-14,19,-20,10,-16,17
