-4,-3,2,1,6,-5
-4,-3,2,1,6,-5
-4,-3,2,1,6,-5
-4,-3,2,1,6,-5
-4,-3,2,1,6,-5
-4,-3,2,1,6,-5
0,0,0,0,0,0
3,5,-1,-6,-2,4
3,5,-1,-6,-2,4
3,5,-1,-6,-2,4
3,5,-1,-6,-2,4
3,5,-1,-6,-2,4
3,5,-1,-6,-2,4
0,0,0,0,0,0
-5,-4,6,2,1,-3
-5,-4,6,2,1,-3
-5,-4,6,2,1,-3
-5,-4,6,2,1,-3
-5,-4,6,2,1,-3
-5,-4,6,2,1,-3
0,0,0,0,0,0
4,-6,-5,-1,3,2
4,-6,-5,-1,3,2
4,-6,-5,-1,3,2
4,-6,-5,-1,3,2
4,-6,-5,-1,3,2
4,-6,-5,-1,3,2
0,0,0,0,0,0
-6,3,-2,5,-4,1
-6,3,-2,5,-4,1
-6,3,-2,5,-4,1
-6,3,-2,5,-4,1
-6,3,-2,5,-4,1
-6,3,-2,5,-4,1
0,0,0,0,0,0
-2,1,5,6,-3,-4
-2,1,5,6,-3,-4
-2,1,5,6,-3,-4
-2,1,5,6,-3,-4
-2,1,5,6,-3,-4
-2,1,5,6,-3,-4
0,0,0,0,0,0
3,-6,-1,-5,4,2
3,-6,-1,-5,4,2
3,-6,-1,-5,4,2
3,-6,-1,-5,4,2
3,-6,-1,-5,4,2
3,-6,-1,-5,4,2
0,0,0,0,0,0
6,-5,4,-3,2,-1
6,-5,4,-3,2,-1
6,-5,4,-3,2,-1
6,-5,4,-3,2,-1
6,-5,4,-3,2,-1
6,-5,4,-3,2,-1
0,0,0,0,0,0
-3,6,1,5,-4,-2
-3,6,1,5,-4,-2
-3,6,1,5,-4,-2
-3,6,1,5,-4,-2
-3,6,1,5,-4,-2
-3,6,1,5,-4,-2
0,0,0,0,0,0
2,-1,-5,-6,3,4
2,-1,-5,-6,3,4
2,-1,-5,-6,3,4
2,-1,-5,-6,3,4
2,-1,-5,-6,3,4
2,-1,-5,-6,3,4
0,0,0,0,0,0
-4,5,6,1,-2,-3
-4,5,6,1,-2,-3
-4,5,6,1,-2,-3
-4,5,6,1,-2,-3
-4,5,6,1,-2,-3
-4,5,6,1,-2,-3
0,0,0,0,0,0
3,-6,-1,-5,4,2
3,-6,-1,-5,4,2
3,-6,-1,-5,4,2
3,-6,-1,-5,4,2
3,-6,-1,-5,4,2
3,-6,-1,-5,4,2
0,0,0,0,0,0
-2,1,5,6,-3,-4
-2,1,5,6,-3,-4
-2,1,5,6,-3,-4
-2,1,5,6,-3,-4
-2,1,5,6,-3,-4
-2,1,5,6,-3,-4
0,0,0,0,0,0
5,-4,-6,2,-1,3
5,-4,-6,2,-1,3
5,-4,-6,2,-1,3
5,-4,-6,2,-1,3
5,-4,-6,2,-1,3
5,-4,-6,2,-1,3
0,0,0,0,0,0
-3,6,1,-5,4,-2
-3,6,1,-5,4,-2
-3,6,1,-5,4,-2
-3,6,1,-5,4,-2
-3,6,1,-5,4,-2
-3,6,1,-5,4,-2
0,0,0,0,0,0
2,-1,-4,3,-6,5
2,-1,-4,3,-6,5
2,-1,-4,3,-6,5
2,-1,-4,3,-6,5
2,-1,-4,3,-6,5
2,-1,-4,3,-6,5
0,0,0,0,0,0
-5,4,6,-2,1,-3
-5,4,6,-2,1,-3
-5,4,6,-2,1,-3
-5,4,6,-2,1,-3
-5,4,6,-2,1,-3
-5,4,6,-2,1,-3
0,0,0,0,0,0
-3,6,1,5,-4,-2
-3,6,1,5,-4,-2
-3,6,1,5,-4,-2
-3,6,1,5,-4,-2
-3,6,1,5,-4,-2
-3,6,1,5,-4,-2
0,0,0,0,0,0
2,-1,-5,-6,3,4
2,-1,-5,-6,3,4
2,-1,-5,-6,3,4
2,-1,-5,-6,3,4
2,-1,-5,-6,3,4
2,-1,-5,-6,3,4
0,0,0,0,0,0
5,4,-6,-2,-1,3
5,4,-6,-2,-1,3
5,4,-6,-2,-1,3
5,4,-6,-2,-1,3
5,4,-6,-2,-1,3
5,4,-6,-2,-1,3
