1,3,6,7,9,11
1,3,6,7,9,11
1,3,6,7,9,11
0,0,0,0,0,0
10,8,12,2,5,4
10,8,12,2,5,4
10,8,12,2,5,4
10,8,12,2,5,4
10,8,12,2,5,4
10,8,12,2,5,4
0,0,0,0,0,0
11,7,9,3,6,1
11,7,9,3,6,1
11,7,9,3,6,1
11,7,9,3,6,1
11,7,9,3,6,1
11,7,9,3,6,1
0,0,0,0,0,0
4,10,8,5,12,2
4,10,8,5,12,2
4,10,8,5,12,2
4,10,8,5,12,2
4,10,8,5,12,2
4,10,8,5,12,2
0,0,0,0,0,0
3,9,11,1,7,6
3,9,11,1,7,6
3,9,11,1,7,6
3,9,11,1,7,6
3,9,11,1,7,6
3,9,11,1,7,6
0,0,0,0,0,0
12,4,5,11,6,10
12,4,5,11,6,10
12,4,5,11,6,10
12,4,5,11,6,10
12,4,5,11,6,10
12,4,5,11,6,10
0,0,0,0,0,0
1,7,3,2,9,8
1,7,3,2,9,8
1,7,3,2,9,8
1,7,3,2,9,8
1,7,3,2,9,8
1,7,3,2,9,8
0,0,0,0,0,0
4,6,12,8,3,2
4,6,12,8,3,2
4,6,12,8,3,2
4,6,12,8,3,2
4,6,12,8,3,2
4,6,12,8,3,2
0,0,0,0,0,0
11,1,9,10,5,7
11,1,9,10,5,7
11,1,9,10,5,7
11,1,9,10,5,7
11,1,9,10,5,7
11,1,9,10,5,7
0,0,0,0,0,0
7,12,2,6,8,4
7,12,2,6,8,4
7,12,2,6,8,4
7,12,2,6,8,4
7,12,2,6,8,4
7,12,2,6,8,4
0,0,0,0,0,0
5,10,4,11,3,9
5,10,4,11,3,9
5,10,4,11,3,9
5,10,4,11,3,9
5,10,4,11,3,9
5,10,4,11,3,9
0,0,0,0,0,0
3,6,8,7,1,11
3,6,8,7,1,11
3,6,8,7,1,11
3,6,8,7,1,11
3,6,8,7,1,11
3,6,8,7,1,11
0,0,0,0,0,0
10,9,1,12,2,5
10,9,1,12,2,5
10,9,1,12,2,5
10,9,1,12,2,5
10,9,1,12,2,5
10,9,1,12,2,5
6,8,4,3,11,7
0,0,0,0,0,0
6,8,4,3,11,7
6,8,4,3,11,7
6,8,4,3,11,7
6,8,4,3,11,7
6,8,4,3,11,7
0,0,0,0,0,0
8,12,10,4,2,5
8,12,10,4,2,5
8,12,10,4,2,5
8,12,10,4,2,5
8,12,10,4,2,5
8,12,10,4,2,5
9,3,6,1,7,11
9,3,6,1,7,11
9,3,6,1,7,11
0,0,0,0,0,0
1,2,9,12,6,4
1,2,9,12,6,4
1,2,9,12,6,4
1,2,9,12,6,4
1,2,9,12,6,4
1,2,9,12,6,4
0,0,0,0,0,0
8,11,7,10,5,3
8,11,7,10,5,3
8,11,7,10,5,3
8,11,7,10,5,3
8,11,7,10,5,3
8,11,7,10,5,3
0,0,0,0,0,0
2,10,1,5,9,7
2,10,1,5,9,7
2,10,1,5,9,7
2,10,1,5,9,7
2,10,1,5,9,7
2,10,1,5,9,7
0,0,0,0,0,0
4,3,11,6,8,12
4,3,11,6,8,12
4,3,11,6,8,12
4,3,11,6,8,12
4,3,11,6,8,12
4,3,11,6,8,12
0,0,0,0,0,0
10,5,2,1,12,9
10,5,2,1,12,9
10,5,2,1,12,9
10,5,2,1,12,9
10,5,2,1,12,9
10,5,2,1,12,9
0,0,0,0,0,0
8,6,7,9,4,2
8,6,7,9,4,2
8,6,7,9,4,2
8,6,7,9,4,2
8,6,7,9,4,2
8,6,7,9,4,2
0,0,0,0,0,0
5,12,1,3,10,11
5,12,1,3,10,11
5,12,1,3,10,11
5,12,1,3,10,11
5,12,1,3,10,11
5,12,1,3,10,11
0,0,0,0,0,0
0,0,0,0,0,0
