1,2,5,9,10,11,13,14,17,18
14,7,4,1,6,19,16,15,12,8
13,19,6,18,3,20,5,12,15,9
16,2,3,20,7,10,9,17,11,4
11,15,18,14,1,8,4,6,16,10
19,15,13,17,12,18,5,9,1,2
3,4,14,6,8,12,20,11,7,16
7,10,9,3,13,2,17,5,20,19
5,6,15,13,1,14,8,12,19,18
10,17,20,9,2,3,11,16,4,7
15,13,18,8,19,1,12,6,5,14
8,11,17,1,16,15,4,7,10,2
20,18,19,5,14,13,6,3,12,9
12,17,16,15,9,4,7,19,2,3
4,1,8,7,16,10,17,20,11,6
6,5,3,10,12,15,14,13,18,11
9,18,1,19,20,5,8,2,14,13
2,10,7,17,11,8,16,20,3,4
17,9,10,12,4,7,19,1,6,15
16,8,11,2,14,5,3,18,13,20
