1,2,5,9,10,11,13,14,17,18
1,2,5,9,10,11,13,14,17,18
1,2,5,9,10,11,13,14,17,18
1,2,5,9,10,11,13,14,17,18
1,2,5,9,10,11,13,14,17,18
1,2,5,9,10,11,13,14,17,18
0,0,0,0,0,0,0,0,0,0
14,7,4,1,6,19,16,15,12,8
14,7,4,1,6,19,16,15,12,8
14,7,4,1,6,19,16,15,12,8
14,7,4,1,6,19,16,15,12,8
14,7,4,1,6,19,16,15,12,8
14,7,4,1,6,19,16,15,12,8
0,0,0,0,0,0,0,0,0,0
13,19,6,18,3,20,5,12,15,9
13,19,6,18,3,20,5,12,15,9
13,19,6,18,3,20,5,12,15,9
13,19,6,18,3,20,5,12,15,9
13,19,6,18,3,20,5,12,15,9
13,19,6,18,3,20,5,12,15,9
0,0,0,0,0,0,0,0,0,0
16,2,3,20,7,10,9,17,11,4
16,2,3,20,7,10,9,17,11,4
16,2,3,20,7,10,9,17,11,4
16,2,3,20,7,10,9,17,11,4
16,2,3,20,7,10,9,17,11,4
16,2,3,20,7,10,9,17,11,4
0,0,0,0,0,0,0,0,0,0
11,15,18,14,1,8,4,6,16,10
11,15,18,14,1,8,4,6,16,10
11,15,18,14,1,8,4,6,16,10
11,15,18,14,1,8,4,6,16,10
11,15,18,14,1,8,4,6,16,10
11,15,18,14,1,8,4,6,16,10
0,0,0,0,0,0,0,0,0,0
19,15,13,17,12,18,5,9,1,2
19,15,13,17,12,18,5,9,1,2
19,15,13,17,12,18,5,9,1,2
19,15,13,17,12,18,5,9,1,2
19,15,13,17,12,18,5,9,1,2
19,15,13,17,12,18,5,9,1,2
0,0,0,0,0,0,0,0,0,0
3,4,14,6,8,12,20,11,7,16
3,4,14,6,8,12,20,11,7,16
3,4,14,6,8,12,20,11,7,16
3,4,14,6,8,12,20,11,7,16
3,4,14,6,8,12,20,11,7,16
3,4,14,6,8,12,20,11,7,16
0,0,0,0,0,0,0,0,0,0
7,10,9,3,13,2,17,5,20,19
7,10,9,3,13,2,17,5,20,19
7,10,9,3,13,2,17,5,20,19
7,10,9,3,13,2,17,5,20,19
7,10,9,3,13,2,17,5,20,19
7,10,9,3,13,2,17,5,20,19
0,0,0,0,0,0,0,0,0,0
5,6,15,13,1,14,8,12,19,18
5,6,15,13,1,14,8,12,19,18
5,6,15,13,1,14,8,12,19,18
5,6,15,13,1,14,8,12,19,18
5,6,15,13,1,14,8,12,19,18
5,6,15,13,1,14,8,12,19,18
0,0,0,0,0,0,0,0,0,0
10,17,20,9,2,3,11,16,4,7
10,17,20,9,2,3,11,16,4,7
10,17,20,9,2,3,11,16,4,7
10,17,20,9,2,3,11,16,4,7
10,17,20,9,2,3,11,16,4,7
10,17,20,9,2,3,11,16,4,7
15,13,18,8,19,1,12,6,5,14
15,13,18,8,19,1,12,6,5,14
15,13,18,8,19,1,12,6,5,14
15,13,18,8,19,1,12,6,5,14
0,0,0,0,0,0,0,0,0,0
8,11,17,1,16,15,4,7,10,2
8,11,17,1,16,15,4,7,10,2
8,11,17,1,16,15,4,7,10,2
8,11,17,1,16,15,4,7,10,2
8,11,17,1,16,15,4,7,10,2
8,11,17,1,16,15,4,7,10,2
0,0,0,0,0,0,0,0,0,0
20,18,19,5,14,13,6,3,12,9
20,18,19,5,14,13,6,3,12,9
20,18,19,5,14,13,6,3,12,9
20,18,19,5,14,13,6,3,12,9
20,18,19,5,14,13,6,3,12,9
20,18,19,5,14,13,6,3,12,9
0,0,0,0,0,0,0,0,0,0
12,17,16,15,9,4,7,19,2,3
12,17,16,15,9,4,7,19,2,3
12,17,16,15,9,4,7,19,2,3
12,17,16,15,9,4,7,19,2,3
12,17,16,15,9,4,7,19,2,3
12,17,16,15,9,4,7,19,2,3
0,0,0,0,0,0,0,0,0,0
4,1,8,7,16,10,17,20,11,6
4,1,8,7,16,10,17,20,11,6
4,1,8,7,16,10,17,20,11,6
4,1,8,7,16,10,17,20,11,6
4,1,8,7,16,10,17,20,11,6
4,1,8,7,16,10,17,20,11,6
0,0,0,0,0,0,0,0,0,0
6,5,3,10,12,15,14,13,18,11
6,5,3,10,12,15,14,13,18,11
6,5,3,10,12,15,14,13,18,11
6,5,3,10,12,15,14,13,18,11
6,5,3,10,12,15,14,13,18,11
6,5,3,10,12,15,14,13,18,11
0,0,0,0,0,0,0,0,0,0
9,18,1,19,20,5,8,2,14,13
9,18,1,19,20,5,8,2,14,13
9,18,1,19,20,5,8,2,14,13
9,18,1,19,20,5,8,2,14,13
9,18,1,19,20,5,8,2,14,13
9,18,1,19,20,5,8,2,14,13
0,0,0,0,0,0,0,0,0,0
2,10,7,17,11,8,16,20,3,4
2,10,7,17,11,8,16,20,3,4
2,10,7,17,11,8,16,20,3,4
2,10,7,17,11,8,16,20,3,4
2,10,7,17,11,8,16,20,3,4
2,10,7,17,11,8,16,20,3,4
0,0,0,0,0,0,0,0,0,0
17,9,10,12,4,7,19,1,6,15
17,9,10,12,4,7,19,1,6,15
17,9,10,12,4,7,19,1,6,15
17,9,10,12,4,7,19,1,6,15
17,9,10,12,4,7,19,1,6,15
17,9,10,12,4,7,19,1,6,15
0,0,0,0,0,0,0,0,0,0
16,8,11,2,14,5,3,18,13,20
16,8,11,2,14,5,3,18,13,20
16,8,11,2,14,5,3,18,13,20
16,8,11,2,14,5,3,18,13,20
16,8,11,2,14,5,3,18,13,20
16,8,11,2,14,5,3,18,13,20
0,0,0,0,0,0,0,0,0,0
