1,3,6,8,9,11
5,2,10,7,4,12
6,8,1,9,3,4
2,7,11,6,12,3
8,9,10,1,5,11
12,8,4,2,6,7
4,5,3,11,7,10
6,3,12,1,9,2
11,10,2,5,4,8
3,1,8,9,6,7
2,7,6,12,11,4
10,12,5,1,8,3
11,4,9,7,1,5
6,3,2,9,10,12
10,11,4,5,8,1
9,12,7,3,2,6
8,5,11,4,10,2
1,6,9,3,7,12
5,12,2,10,1,8
7,10,4,11,5,9
