3,5,6,7,8
9,10,1,2,4
6,7,8,3,5
1,2,4,9,10
3,5,6,7,8
4,3,10,2,9
10,8,5,6,1
7,9,1,8,4
3,10,5,2,6
6,1,4,9,7
4,8,3,10,2
7,2,5,1,9
9,4,8,3,6
1,5,2,7,10
1,5,2,7,10
7,8,5,6,3
4,10,9,2,1
9,5,3,4,6
8,1,2,7,10
1,6,5,8,4
5,2,3,9,7
7,8,10,1,2
9,10,4,3,6
3,6,7,8,5
2,4,10,9,1
