7,6,Inf,Inf
12,4,Inf,1
12,6,Inf,1
5,1,3,9
5,2,6,1
5,2,12,2
5,2,1,4
5,2,17,8
5,3,19,1
5,3,14,12
5,4,2,12
5,6,19,3
5,6,14,4
5,6,6,9
5,6,3,12
18,1,1,3
18,1,3,2
18,1,5,2
18,1,7,2
18,1,11,2
18,1,12,2
18,1,13,3
18,1,15,2
18,1,17,2
18,1,21,2
18,1,23,2
18,2,4,2
18,2,5,2
18,2,6,3
18,2,8,2
18,2,9,2
18,2,12,2
18,2,13,3
18,2,15,2
18,2,16,2
18,2,20,2
18,2,21,3
18,2,22,2
18,3,3,2
18,3,4,2
18,3,8,2
18,3,11,3
18,3,12,2
18,3,13,2
18,3,17,2
18,3,19,3
18,3,22,2
18,3,23,2
18,4,6,2
18,4,7,3
18,4,9,2
18,4,10,3
18,4,13,2
18,4,17,2
18,4,18,2
18,4,19,3
18,4,23,2
18,5,1,2
18,5,5,3
18,5,6,2
18,5,7,2
18,5,9,2
18,5,12,2
18,5,15,2
18,5,16,2
18,5,17,3
18,5,20,2
18,5,21,2
18,5,22,3
18,5,23,3
18,6,1,2
18,6,2,2
18,6,5,2
18,6,8,2
18,6,12,3
18,6,13,2
18,6,16,2
18,6,19,3
18,6,20,2
18,6,21,2
18,6,22,2
18,6,23,3
19,4,7,Inf
19,5,20,Inf
20,5,6,Inf
20,6,19,Inf
20,6,20,Inf
