4,5,7,8,9,12
6,10,11,1,12,2
7,8,9,4,3,5
6,10,11,3,1,2
9,8,12,1,5,4
7,11,6,10,3,2
12,9,8,2,5,1
7,6,10,1,3,4
7,6,10,5,3,4
6,11,8,4,12,1
11,9,2,12,3,7
7,8,10,4,5,6
11,2,5,12,8,9
11,2,1,12,8,9
6,1,3,5,9,10
8,4,12,2,7,11
8,4,12,2,7,11
11,2,1,3,6,10
9,12,5,4,8,7
8,5,6,9,3,10
4,2,11,10,5,7
4,2,11,10,1,7
5,3,12,8,9,6
1,4,2,10,11,7
4,9,1,7,3,12
4,9,5,7,3,12
1,6,3,8,2,11
5,10,12,9,4,7
