
Gurobi 9.0.2 (linux64, Matlab) logging started Fri 23 Apr 2021 11:55:58 AM EDT

Gurobi Optimizer version 9.0.2 build v9.0.2rc0 (linux64)

Warning: Thread count (80) is larger than core count (64)
         Reduce the value of the Threads parameter to improve performance


Concurrent MIP optimizer: 8 concurrent instances (10 threads per instance)

Presolve removed 6 rows and 78 columns
Presolve time: 0.75s
Presolved: 7098 rows, 7506 columns, 36342 nonzeros
Variable types: 0 continuous, 7506 integer (7506 binary)

Root relaxation: objective 0.000000e+00, 1289 iterations, 1.67 seconds

    Nodes    |    Current Node    |     Objective Bounds      |     Work
 Expl Unexpl |  Obj  Depth IntInf | Incumbent    BestBd   Gap | It/Node Time

     0     0      -    -    -     2.8161e+07    0.00000   100%     -    5s
     0     0      -    -    -     2.8161e+07   50.00000   100%     -   44s
     0     0      -    -    -     2.8161e+07 1277.65432   100%     -   66s
     0     0      -    -    -     2.8161e+07 1288.52596   100%     -   71s
     0     0      -    -    -     2.8161e+07 1288.75969   100%     -   72s
     0     0      -    -    -     2.8161e+07 1288.75969   100%     -   73s
     0     0      -    -    -     2.8161e+07 6531.17957   100%     -  117s
     0     0      -    -    -     2.8161e+07 6746.76540   100%     -  124s
     0     0      -    -    -     2.8161e+07 6780.85264   100%     -  127s
     0     0      -    -    -     2.8161e+07 6788.25963   100%     -  143s
     0     0      -    -    -     2.8161e+07 6788.87854   100%     -  146s
     0     0      -    -    -     2.8161e+07 8407.91631   100%     -  166s
     0     0      -    -    -     1.8809e+07 8471.35441   100%     -  203s
     0     0      -    -    -     1.8809e+07 8480.74913   100%     -  209s
     0     0      -    -    -     1.8809e+07 8484.28178   100%     -  213s
     0     0      -    -    -     1.8809e+07 8485.79932   100%     -  216s
     0     0      -    -    -     1.8809e+07 8487.11906   100%     -  218s
     0     0      -    -    -     1.8809e+07 8487.23687   100%     -  220s
     0     0      -    -    -     1.7689e+07 9027.37315   100%     -  231s
     0     0      -    -    -     1.7689e+07 9205.51733   100%     -  253s
     0     0      -    -    -     1.7689e+07 9205.51733   100%     -  256s
     0     0      -    -    -     1.7689e+07 9205.51733   100%     -  258s
     0     0      -    -    -     1.7689e+07 9205.51733   100%     -  259s
     0     0      -    -    -     1.7689e+07 9205.51733   100%     -  260s
     0     0      -    -    -     1.7689e+07 9205.51733   100%     -  260s
     0     0      -    -    -     1.3869e+07 9597.80532   100%     -  269s
     0     2      -    -    -     1.3869e+07 9718.25592   100%     -  288s
     1     4      -    -    -     1.3869e+07 10229.5533   100%     -  343s
     3     8      -    -    -     9486950.00 10229.5533   100%     -  420s
     7    16      -    -    -     9486950.00 10579.9075   100%     -  488s
    15    26      -    -    -     9486950.00 10690.7326   100%     -  551s
    25    36      -    -    -     9486950.00 10882.6773   100%     -  599s
    35    46      -    -    -     9486950.00 10882.6773   100%     -  929s
    45    56      -    -    -     9486950.00 10882.6773   100%     - 1003s
    55    69      -    -    -     9486950.00 10882.6773   100%     - 1026s
    68    82      -    -    -     9486950.00 10882.6773   100%     - 1076s
    81    92      -    -    -     9486950.00 10882.6773   100%     - 1640s
    91   107      -    -    -     9486950.00 10882.6773   100%     - 1710s
   106   117      -    -    -     7446040.00 10882.6773   100%     - 1920s
   116   132      -    -    -     61270.0000 10882.6773  82.2%     - 5465s
   131   154      -    -    -     61270.0000 10882.6773  82.2%     - 5544s
   153   166      -    -    -     61270.0000 10882.6773  82.2%     - 5830s
   166   167      -    -    -     61270.0000 10882.6773  82.2%     - 5884s
   168   168      -    -    -     61270.0000 10882.6773  82.2%     - 5927s
   169   169      -    -    -     61270.0000 10882.6773  82.2%     - 5965s
   170   170      -    -    -     61270.0000 10882.6773  82.2%     - 6026s
   171   170      -    -    -     61270.0000 10882.6773  82.2%     - 6115s
   172   171      -    -    -     61270.0000 10882.6773  82.2%     - 6153s
   173   172      -    -    -     61270.0000 10882.6773  82.2%     - 6199s
   174   172      -    -    -     61270.0000 10882.6773  82.2%     - 6222s
   175   173      -    -    -     61270.0000 10882.6773  82.2%     - 6242s
   176   174      -    -    -     61270.0000 10882.6773  82.2%     - 6258s
   177   174      -    -    -     61270.0000 10882.6773  82.2%     - 6273s
   178   175      -    -    -     57650.0000 10882.6773  81.1%     - 6333s
   179   176      -    -    -     57650.0000 10882.6773  81.1%     - 6357s
   180   176      -    -    -     57650.0000 10882.6773  81.1%     - 6364s
   181   177      -    -    -     57650.0000 10882.6773  81.1%     - 6369s
   182   178      -    -    -     57650.0000 10882.6773  81.1%     - 6371s
   183   178      -    -    -     57650.0000 10882.6773  81.1%     - 6378s
   184   179      -    -    -     48610.0000 11270.1036  76.8%     - 6434s
   185   180      -    -    -     48610.0000 11380.5407  76.6%     - 6476s
   186   180      -    -    -     48610.0000 11395.8721  76.6%     - 6487s
   187   181      -    -    -     48610.0000 11399.4422  76.5%     - 6494s
   188   182      -    -    -     48610.0000 11399.9242  76.5%     - 6504s
   189   182      -    -    -     48610.0000 11485.2363  76.4%     - 6517s
   190   183      -    -    -     48610.0000 11508.0094  76.3%     - 6522s
   191   184      -    -    -     48610.0000 11514.8576  76.3%     - 6530s
   192   184      -    -    -     48610.0000 11515.6419  76.3%     - 6545s
   193   185      -    -    -     48610.0000 11581.2900  76.2%     - 6553s
   194   186      -    -    -     48610.0000 11581.4077  76.2%     - 6579s
   195   189      -    -    -     48610.0000 11581.7747  76.2%     - 6680s
   197   193      -    -    -     48610.0000 11760.9525  75.8%     - 6738s
   201   199      -    -    -     48610.0000 11897.5016  75.5%     - 6907s
   209   207      -    -    -     48610.0000 12044.0717  75.2%     - 7113s
   219   213      -    -    -     48610.0000 12045.5999  75.2%     - 7260s
   229   220      -    -    -     48610.0000 12294.1457  74.7%     - 7602s
   239   227      -    -    -     48610.0000 12294.1457  74.7%     - 7717s
   249   233      -    -    -     48610.0000 12294.1457  74.7%     - 8263s
   259   241      -    -    -     48610.0000 12294.1457  74.7%     - 8358s
   270   247      -    -    -     47380.0000 12294.1457  74.1%     - 9176s
   280   258      -    -    -     47380.0000 12394.6273  73.8%     - 9374s
   294   269      -    -    -     47380.0000 12394.6273  73.8%     - 9497s
   310   274      -    -    -     45560.0000 12394.6273  72.8%     - 12990s
   320   288      -    -    -     45560.0000 12594.0034  72.4%     - 13104s
   337   302      -    -    -     45560.0000 12594.0034  72.4%     - 13245s
   357   316      -    -    -     45560.0000 12594.0034  72.4%     - 13340s
   378   335      -    -    -     45560.0000 12594.0034  72.4%     - 13412s
   406   347      -    -    -     45560.0000 12594.0034  72.4%     - 13495s
   433   359      -    -    -     45560.0000 12594.0034  72.4%     - 13566s
   464   375      -    -    -     45560.0000 12594.0034  72.4%     - 13693s
   494   398      -    -    -     45560.0000 12594.0034  72.4%     - 13824s
   533   413      -    -    -     45560.0000 12594.0034  72.4%     - 13898s
   567   434      -    -    -     45560.0000 12789.7927  71.9%     - 14006s
   608   448      -    -    -     45560.0000 12789.7927  71.9%     - 14109s
   649   424      -    -    -     45560.0000 12789.7927  71.9%     - 14109s
   653   459      -    -    -     45560.0000 12789.7927  71.9%     - 14193s
   706   465      -    -    -     45560.0000 12789.7927  71.9%     - 14333s
   727   465      -    -    -     45560.0000 12789.7927  71.9%     - 14333s
   741   498      -    -    -     45560.0000 12789.7927  71.9%     - 14446s
   784   534      -    -    -     45560.0000 13031.5538  71.4%     - 14578s
   820   581      -    -    -     45560.0000 13031.5538  71.4%     - 14668s
   869   626      -    -    -     45560.0000 13031.5538  71.4%     - 14752s
   928   688      -    -    -     45560.0000 13031.5538  71.4%     - 14816s
   998   760      -    -    -     45560.0000 13031.5538  71.4%     - 14889s
  1074   855      -    -    -     45560.0000 13031.5538  71.4%     - 15011s
  1169   946      -    -    -     45560.0000 13031.5538  71.4%     - 15083s
  1232   876      -    -    -     45560.0000 13031.5538  71.4%     - 15083s
  1294   891      -    -    -     45560.0000 13031.5538  71.4%     - 15177s
  1371   926      -    -    -     45560.0000 13031.5538  71.4%     - 15236s
  1425   980      -    -    -     45560.0000 13031.5538  71.4%     - 15298s
  1479  1043      -    -    -     45560.0000 13031.5538  71.4%     - 15367s
  1556  1119      -    -    -     45560.0000 13031.5538  71.4%     - 15420s
  1638  1096      -    -    -     45560.0000 13031.5538  71.4%     - 15420s
  1646  1160      -    -    -     45560.0000 13031.5538  71.4%     - 15492s
  1728  1242      -    -    -     45560.0000 13031.5538  71.4%     - 15569s
  1838  1318      -    -    -     45560.0000 13031.5538  71.4%     - 15658s
  1935  1395      -    -    -     45560.0000 13031.5538  71.4%     - 15760s
  2042  1482      -    -    -     45560.0000 13031.5538  71.4%     - 15852s
  2141  1516      -    -    -     45560.0000 13119.7091  71.2%     - 15938s
  2156  1499      -    -    -     45560.0000 13119.7091  71.2%     - 15938s
  2187  1536      -    -    -     45560.0000 13119.7091  71.2%     - 16134s
  2234  1576      -    -    -     45560.0000 13119.7091  71.2%     - 16273s
  2280  1626      -    -    -     45560.0000 13119.7091  71.2%     - 16462s
  2348  1683      -    -    -     45560.0000 13232.2245  71.0%     - 16593s
  2433  1778      -    -    -     45560.0000 13232.2245  71.0%     - 16746s
  2538  1878      -    -    -     45560.0000 13232.2245  71.0%     - 16856s
  2664  1978      -    -    -     45560.0000 13232.2245  71.0%     - 17060s
  2780  2056      -    -    -     45560.0000 13282.9073  70.8%     - 17198s
  2920  2118      -    -    -     45560.0000 13282.9073  70.8%     - 17387s
  3008  2209      -    -    -     45560.0000 13282.9073  70.8%     - 17544s
  3121  2327      -    -    -     45560.0000 13420.1934  70.5%     - 17703s
  3309  2477      -    -    -     45560.0000 13601.8204  70.1%     - 17833s
  3537  2665      -    -    -     45560.0000 13633.1122  70.1%     - 18037s
  3784  2777      -    -    -     45560.0000 13633.1122  70.1%     - 18191s
  3912  2919      -    -    -     45560.0000 13633.1122  70.1%     - 18753s
  4079  3070      -    -    -     45560.0000 13735.6067  69.9%     - 18988s
  4274  3191      -    -    -     45560.0000 13735.6067  69.9%     - 19215s
  4427  3327      -    -    -     45560.0000 13735.6067  69.9%     - 19491s
  4535  3316      -    -    -     45560.0000 13735.6067  69.9%     - 19492s
  4602  3431      -    -    -     45560.0000 13890.8986  69.5%     - 19719s
  4759  3562      -    -    -     45560.0000 13890.8986  69.5%     - 19955s
  4922  3595      -    -    -     45560.0000 14074.1888  69.1%     - 20393s
  4971  3723      -    -    -     45560.0000 14230.0466  68.8%     - 20823s
  5169  3860      -    -    -     45560.0000 14230.2723  68.8%     - 21131s
  5365  4008      -    -    -     45560.0000 14230.2723  68.8%     - 21449s
  5531  4241      -    -    -     45560.0000 14372.0806  68.5%     - 21781s
  5809  4409      -    -    -     45560.0000 14372.0806  68.5%     - 22228s
  5940  4399      -    -    -     45560.0000 14372.0806  68.5%     - 22229s
  5948  4369      -    -    -     45560.0000 14372.0806  68.5%     - 22229s
  6059  4674      -    -    -     45560.0000 14372.0806  68.5%     - 22619s
  6447  4863      -    -    -     45560.0000 14570.7526  68.0%     - 23060s
  6737  5030      -    -    -     45560.0000 14634.6564  67.9%     - 23466s
  6946  5236      -    -    -     45560.0000 14634.6564  67.9%     - 23923s
  7268  5368      -    -    -     45560.0000 14722.6849  67.7%     - 24365s
  7450  5467      -    -    -     45560.0000 14828.8451  67.5%     - 24888s
  7615  5727      -    -    -     45560.0000 14828.8451  67.5%     - 25193s
  7989  5946      -    -    -     45560.0000 14828.8451  67.5%     - 25507s
  8282  6130      -    -    -     45560.0000 14828.8451  67.5%     - 25923s
  8591  6356      -    -    -     45560.0000 14962.1991  67.2%     - 26359s
  8889  6477      -    -    -     45560.0000 14962.1991  67.2%     - 26673s
  9186  6535      -    -    -     45560.0000 15054.5757  67.0%     - 27403s
  9339  6560      -    -    -     45560.0000 15059.1515  66.9%     - 28328s
  9426  6410      -    -    -     45560.0000 15059.1515  66.9%     - 28784s
  9705  6622      -    -    -     45560.0000 15059.1515  66.9%     - 29243s
  9957  6622      -    -    -     45560.0000 15059.1515  66.9%     - 29245s
 10001  6839      -    -    -     45560.0000 15188.8827  66.7%     - 29834s
 10065  6839      -    -    -     45560.0000 15188.8827  66.7%     - 29835s
 10343  7096      -    -    -     45560.0000 15188.8827  66.7%     - 30400s
 10775  7168      -    -    -     45560.0000 15188.8827  66.7%     - 31779s
 10895  7465      -    -    -     45560.0000 15188.8827  66.7%     - 32258s
 11314  7595      -    -    -     45560.0000 15315.1767  66.4%     - 33124s
 11552  7806      -    -    -     45560.0000 15436.8548  66.1%     - 34089s
 11928  7986      -    -    -     45560.0000 15670.4655  65.6%     - 36082s
 12138  8280      -    -    -     45560.0000 15752.8144  65.4%     - 37500s
 12655  8718      -    -    -     45560.0000 15872.0061  65.2%     - 38914s
 12797  8718      -    -    -     45560.0000 15872.0061  65.2%     - 38915s
 13267  9045      -    -    -     45560.0000 16006.8464  64.9%     - 40369s
 13697  9347      -    -    -     45560.0000 16207.2243  64.4%     - 41997s
 14142  9775      -    -    -     45560.0000 16327.4973  64.2%     - 43580s
 14517  9643      -    -    -     45560.0000 16327.4973  64.2%     - 43581s
 14703 10101      -    -    -     45560.0000 16429.9338  63.9%     - 45529s
 14796 10101      -    -    -     45560.0000 16429.9338  63.9%     - 45530s
 15337 10293      -    -    -     45560.0000 16429.9338  63.9%     - 47190s
 15693 10658      -    -    -     45560.0000 16587.7976  63.6%     - 48380s
 16358 11211      -    -    -     45560.0000 16779.5038  63.2%     - 50140s
 17104 11583      -    -    -     44590.0000 16939.5161  62.0%     - 52381s
 17726 12283      -    -    -     44590.0000 16939.5161  62.0%     - 53552s
 18693 12859      -    -    -     44590.0000 16939.5161  62.0%     - 54522s
 19491 13415      -    -    -     44590.0000 17092.7487  61.7%     - 55852s
 20301 14022      -    -    -     44590.0000 17180.4203  61.5%     - 56842s
 21179 14653      -    -    -     44590.0000 17225.1955  61.4%     - 58180s
 22103 15175      -    -    -     44590.0000 17327.8192  61.1%     - 59664s
 22402 15175      -    -    -     44590.0000 17327.8192  61.1%     - 59665s
 22841 15617      -    -    -     44590.0000 17419.9643  60.9%     - 62451s
 23585 16114      -    -    -     44590.0000 17430.6651  60.9%     - 65390s
 24364 16855      -    -    -     44590.0000 17591.9576  60.5%     - 69033s
 24697 16855      -    -    -     44590.0000 17591.9576  60.5%     - 69035s
 25441 17727      -    -    -     44590.0000 17700.8414  60.3%     - 71739s
 26593 17727      -    -    -     44590.0000 17700.8414  60.3%     - 71740s
 26668 18102      -    -    -     43590.0000 17779.3966  59.2%     - 74641s

Cutting planes:
  Gomory: 2
  Clique: 1
  MIR: 80
  Flow cover: 115
  Zero half: 41
  RLT: 826

Explored 27287 nodes (60147640 simplex iterations) in 74646.23 seconds
Thread count was 10 (of 64 available processors)

Solution count 10: 43590 

Solve interrupted
Best objective 4.359000000000e+04, best bound 1.782000000000e+04, gap 59.1191%
