
Gurobi 8.1.1 (linux64, Matlab) logging started Wed Mar 16 01:09:07 2022

Optimize a model with 3660 rows, 4035 columns and 19915 nonzeros
Variable types: 0 continuous, 4035 integer (4035 binary)
Coefficient statistics:
  Matrix range     [1e+00, 6e+00]
  Objective range  [1e+02, 1e+05]
  Bounds range     [1e+00, 1e+00]
  RHS range        [1e+00, 3e+01]

Concurrent MIP optimizer: 16 concurrent instances (5 threads per instance)


MIP start did not produce a new incumbent solution
MIP start violates constraint R3370 by 29.000000000

Presolve removed 30 rows and 30 columns
Presolve time: 0.12s
Presolved: 3630 rows, 4005 columns, 19765 nonzeros
Variable types: 0 continuous, 4005 integer (4005 binary)

Root relaxation: objective 0.000000e+00, 939 iterations, 0.25 seconds

    Nodes    |    Current Node    |     Objective Bounds      |     Work
 Expl Unexpl |  Obj  Depth IntInf | Incumbent    BestBd   Gap | It/Node Time

     0     0      -    -    -              -    0.00000      -     -    0s
Another try with MIP start
     0     0      -    -    -     285800.000    0.00000   100%     -    1s
     0     0      -    -    -     285800.000 1350.00000   100%     -    1s
     0     0      -    -    -     285800.000 1406.25000   100%     -    2s
     0     0      -    -    -     285800.000 1406.25000   100%     -    2s
     0     0      -    -    -     285800.000 1433.33333  99.5%     -    2s
     0     0      -    -    -     285800.000 1433.33333  99.5%     -    2s
     0     0      -    -    -     285800.000 1530.00000  99.5%     -    3s
     0     0      -    -    -     285800.000 1530.00000  99.5%     -    3s
     0     0      -    -    -     285800.000 1600.00000  99.4%     -    4s
     0     2      -    -    -     285800.000 1991.42857  99.3%     -    4s
     3     8      -    -    -     285800.000 1991.42857  99.3%     -    5s
    95    96      -    -    -     285800.000 2050.00000  99.3%     -   12s
   128   131      -    -    -     197800.000 2050.00000  99.0%     -   17s
   157   158      -    -    -     197800.000 2050.00000  99.0%     -   25s
   202   203      -    -    -     197800.000 2050.00000  99.0%     -   36s
   295   299      -    -    -     197800.000 2050.00000  99.0%     -   44s
   300   300      -    -    -     197800.000 2050.00000  99.0%     -   45s
   434   428      -    -    -     197800.000 2150.00000  98.9%     -   60s
   595   571      -    -    -     197800.000 2200.00000  98.9%     -   79s
   687   653      -    -    -     197800.000 2200.00000  98.9%     -   80s
   759   710      -    -    -     197800.000 2400.00000  98.8%     -  105s
  1201  1056      -    -    -     197800.000 2433.33333  98.8%     -  110s
  1267  1102      -    -    -     197800.000 2433.33333  98.8%     -  115s
  1305  1124      -    -    -     197800.000 2433.33333  98.8%     -  121s
  1324  1138      -    -    -     197800.000 2433.33333  98.8%     -  125s
  1340  1149      -    -    -     197800.000 2791.66667  98.6%     -  137s
  1379  1176      -    -    -     197800.000 2791.66667  98.6%     -  162s
  1449  1220      -    -    -     197800.000 2860.00000  98.6%     -  181s
  1644  1355      -    -    -     197800.000 2860.00000  98.6%     -  188s
  1696  1386      -    -    -     197800.000 2860.00000  98.6%     -  205s
  1854  1481      -    -    -     197800.000 2860.00000  98.6%     -  238s
  1973  1520      -    -    -     197800.000 2860.00000  98.6%     -  241s
  2035  1561      -    -    -     197800.000 2866.66667  98.6%     -  270s
  2202  1646      -    -    -     197800.000 2880.00000  98.5%     -  316s
  2390  1755      -    -    -     197800.000 2880.00000  98.5%     -  320s
  2617  1872      -    -    -     197800.000 2880.00000  98.5%     -  348s
  2670  1907      -    -    -     197800.000 2975.00000  98.5%     -  350s
  2830  1994      -    -    -     197800.000 2975.00000  98.5%     -  358s
  2959  2058      -    -    -     197800.000 2975.00000  98.5%     -  369s
  2983  2060      -    -    -     197800.000 3250.00000  98.4%     -  372s
  3179  2161      -    -    -     197800.000 3323.52941  98.3%     -  410s
  3271  2198      -    -    -     197800.000 3327.77778  98.3%     -  458s
  3276  2196      -    -    -     197800.000 3327.77778  98.3%     -  460s
  3359  2247      -    -    -     197800.000 3327.77778  98.3%     -  465s
  3602  2367      -    -    -     197800.000 3327.77778  98.3%     -  480s
  3641  2393      -    -    -     197800.000 3628.57143  98.2%     -  503s
  3683  2415      -    -    -     197800.000 3628.57143  98.2%     -  505s
  3765  2465      -    -    -     197800.000 3766.66667  98.1%     -  518s
  3783  2480      -    -    -     197800.000 3766.66667  98.1%     -  521s
  3933  2568      -    -    -     197800.000 3800.00000  98.1%     -  543s

Cutting planes:
  Gomory: 5
  Cover: 20
  MIR: 79
  Flow cover: 385
  Zero half: 111

Explored 3958 nodes (1425410 simplex iterations) in 543.86 seconds
Thread count was 5 (of 160 available processors)

Solution count 10: 197800 197800 200800 ... 1.3815e+06 

Solve interrupted
Best objective 1.977999999546e+05, best bound 3.800000000000e+03, gap 98.0789%
