1,11,8,10,5,4
6,7,3,2,12,10
5,4,8,11,1,9
9,7,12,3,6,2
11,5,10,8,3,4
7,2,12,9,1,6
10,4,5,8,11,1
2,5,9,3,10,6
3,12,7,4,9,6
8,1,10,2,5,11
12,3,11,4,7,9
10,6,4,8,7,1
3,12,9,2,6,5
7,8,1,10,2,11
2,1,10,11,8,7
3,9,12,5,6,4
10,11,5,8,4,1
7,10,2,9,3,8
4,5,1,6,11,12
12,7,10,1,8,2
6,9,11,4,3,5
7,11,12,8,1,2
2,3,6,9,5,10
12,1,4,7,11,8
