2,3,5,7,8
2,3,5,7,8
2,3,5,7,8
0,0,0,0,0
9,4,10,6,1
9,4,10,6,1
9,4,10,6,1
9,4,10,6,1
9,4,10,6,1
9,4,10,6,1
0,0,0,0,0
8,2,7,5,3
8,2,7,5,3
8,2,7,5,3
8,2,7,5,3
8,2,7,5,3
8,2,7,5,3
0,0,0,0,0
6,1,4,10,9
6,1,4,10,9
6,1,4,10,9
6,1,4,10,9
6,1,4,10,9
6,1,4,10,9
0,0,0,0,0
3,7,9,5,1
3,7,9,5,1
3,7,9,5,1
3,7,9,5,1
3,7,9,5,1
3,7,9,5,1
0,0,0,0,0
4,10,8,3,2
4,10,8,3,2
4,10,8,3,2
4,10,8,3,2
4,10,8,3,2
4,10,8,3,2
0,0,0,0,0
6,9,7,2,5
6,9,7,2,5
6,9,7,2,5
6,9,7,2,5
6,9,7,2,5
6,9,7,2,5
0,0,0,0,0
1,8,6,7,3
1,8,6,7,3
1,8,6,7,3
8,5,1,3,7
8,5,1,3,7
8,5,1,3,7
0,0,0,0,0
10,9,2,5,4
10,9,2,5,4
10,9,2,5,4
10,9,2,5,4
10,9,2,5,4
10,9,2,5,4
0,0,0,0,0
3,1,6,7,8
3,1,6,7,8
3,1,6,7,8
3,1,6,7,8
3,1,6,7,8
3,1,6,7,8
0,0,0,0,0
2,10,4,8,5
2,10,4,8,5
2,10,4,8,5
2,10,4,8,5
2,10,4,8,5
2,10,4,8,5
0,0,0,0,0
3,5,7,9,6
3,5,7,9,6
3,5,7,9,6
3,5,7,9,6
3,5,7,9,6
3,5,7,9,6
0,0,0,0,0
10,9,2,1,4
10,9,2,1,4
10,9,2,1,4
10,9,2,1,4
10,9,2,1,4
10,9,2,1,4
6,5,7,3,8
0,0,0,0,0
3,6,8,7,5
3,6,8,7,5
3,6,8,7,5
3,6,8,7,5
3,6,8,7,5
0,0,0,0,0
1,10,6,9,4
1,10,6,9,4
1,10,6,9,4
1,10,6,9,4
1,10,6,9,4
1,10,6,9,4
6,7,3,2,8
6,7,3,2,8
6,7,3,2,8
0,0,0,0,0
10,2,8,4,1
10,2,8,4,1
10,2,8,4,1
10,2,8,4,1
10,2,8,4,1
10,2,8,4,1
0,0,0,0,0
4,6,5,10,9
4,6,5,10,9
4,6,5,10,9
4,6,5,10,9
4,6,5,10,9
4,6,5,10,9
0,0,0,0,0
7,8,2,1,3
7,8,2,1,3
7,8,2,1,3
7,8,2,1,3
7,8,2,1,3
7,8,2,1,3
0,0,0,0,0
9,5,6,3,7
9,5,6,3,7
9,5,6,3,7
9,5,6,3,7
9,5,6,3,7
9,5,6,3,7
0,0,0,0,0
8,1,4,2,10
8,1,4,2,10
8,1,4,2,10
8,1,4,2,10
8,1,4,2,10
8,1,4,2,10
0,0,0,0,0
5,9,10,1,6
5,9,10,1,6
5,9,10,1,6
5,9,10,1,6
5,9,10,1,6
5,9,10,1,6
0,0,0,0,0
7,4,3,8,2
7,4,3,8,2
7,4,3,8,2
7,4,3,8,2
7,4,3,8,2
7,4,3,8,2
0,0,0,0,0
0,0,0,0,0
