0,0,0,0,0,0,0,0,0,0
0,0,0,0,0,0,0,0,0,0
0,0,0,0,0,0,0,0,0,0
0,0,0,0,0,0,0,0,0,0
0,0,0,0,0,0,0,0,0,0
0,0,0,0,0,0,0,0,0,0
-3,4,1,-2,6,-5,10,9,-8,-7
-3,4,1,-2,6,-5,10,9,-8,-7
-3,4,1,-2,6,-5,10,9,-8,-7
0,0,0,0,0,0,0,0,0,0
5,-10,-6,8,-1,3,-9,-4,7,2
5,-10,-6,8,-1,3,-9,-4,7,2
5,-10,-6,8,-1,3,-9,-4,7,2
5,-10,-6,8,-1,3,-9,-4,7,2
5,-10,-6,8,-1,3,-9,-4,7,2
5,-10,-6,8,-1,3,-9,-4,7,2
0,0,0,0,0,0,0,0,0,0
-7,6,4,-3,9,-2,1,10,-5,-8
-7,6,4,-3,9,-2,1,10,-5,-8
-7,6,4,-3,9,-2,1,10,-5,-8
-7,6,4,-3,9,-2,1,10,-5,-8
-7,6,4,-3,9,-2,1,10,-5,-8
-7,6,4,-3,9,-2,1,10,-5,-8
0,0,0,0,0,0,0,0,0,0
3,-4,-1,2,-6,5,-10,-9,8,7
3,-4,-1,2,-6,5,-10,-9,8,7
3,-4,-1,2,-6,5,-10,-9,8,7
3,-4,-1,2,-6,5,-10,-9,8,7
3,-4,-1,2,-6,5,-10,-9,8,7
3,-4,-1,2,-6,5,-10,-9,8,7
0,0,0,0,0,0,0,0,0,0
6,-3,2,-5,4,-1,8,-7,10,-9
6,-3,2,-5,4,-1,8,-7,10,-9
6,-3,2,-5,4,-1,8,-7,10,-9
6,-3,2,-5,4,-1,8,-7,10,-9
6,-3,2,-5,4,-1,8,-7,10,-9
6,-3,2,-5,4,-1,8,-7,10,-9
0,0,0,0,0,0,0,0,0,0
-8,7,6,9,-10,-3,-2,1,-4,5
-8,7,6,9,-10,-3,-2,1,-4,5
-8,7,6,9,-10,-3,-2,1,-4,5
-8,7,6,9,-10,-3,-2,1,-4,5
-8,7,6,9,-10,-3,-2,1,-4,5
-8,7,6,9,-10,-3,-2,1,-4,5
0,0,0,0,0,0,0,0,0,0
-9,4,-7,-2,8,10,3,-5,1,-6
-9,4,-7,-2,8,10,3,-5,1,-6
-9,4,-7,-2,8,10,3,-5,1,-6
-9,4,-7,-2,8,10,3,-5,1,-6
-9,4,-7,-2,8,10,3,-5,1,-6
-9,4,-7,-2,8,10,3,-5,1,-6
0,0,0,0,0,0,0,0,0,0
4,-8,10,-1,-6,5,9,2,-7,-3
4,-8,10,-1,-6,5,9,2,-7,-3
4,-8,10,-1,-6,5,9,2,-7,-3
4,-8,10,-1,6,-5,9,2,-7,-3
4,-8,10,-1,6,-5,9,2,-7,-3
4,-8,10,-1,6,-5,9,2,-7,-3
0,0,0,0,0,0,0,0,0,0
-5,3,-2,6,1,-4,-10,-9,8,7
-5,3,-2,6,1,-4,-10,-9,8,7
-5,3,-2,6,1,-4,-10,-9,8,7
-5,3,-2,6,1,-4,-10,-9,8,7
-5,3,-2,6,1,-4,-10,-9,8,7
-5,3,-2,6,1,-4,-10,-9,8,7
0,0,0,0,0,0,0,0,0,0
2,-1,5,-7,-3,9,4,10,-6,-8
2,-1,5,-7,-3,9,4,10,-6,-8
2,-1,5,-7,-3,9,4,10,-6,-8
2,-1,5,-7,-3,9,4,10,-6,-8
2,-1,5,-7,-3,9,4,10,-6,-8
2,-1,5,-7,-3,9,4,10,-6,-8
0,0,0,0,0,0,0,0,0,0
-4,9,-8,1,7,-10,-5,3,-2,6
-4,9,-8,1,7,-10,-5,3,-2,6
-4,9,-8,1,7,-10,-5,3,-2,6
-4,9,-8,1,7,-10,-5,3,-2,6
-4,9,-8,1,7,-10,-5,3,-2,6
-4,9,-8,1,7,-10,-5,3,-2,6
0,0,0,0,0,0,0,0,0,0
-3,-6,1,-5,4,2,8,-7,10,-9
-3,-6,1,-5,4,2,8,-7,10,-9
-3,-6,1,-5,4,2,8,-7,10,-9
-3,-6,1,-5,4,2,8,-7,10,-9
-3,-6,1,-5,4,2,8,-7,10,-9
-3,-6,1,-5,4,2,8,-7,10,-9
0,0,0,0,0,0,0,0,0,0
6,5,-4,3,-2,-1,-9,-10,7,8
6,5,-4,3,-2,-1,-9,-10,7,8
6,5,-4,3,-2,-1,-9,-10,7,8
6,5,-4,3,-2,-1,-9,-10,7,8
6,5,-4,3,-2,-1,-9,-10,7,8
6,5,-4,3,-2,-1,-9,-10,7,8
-5,-3,2,-6,1,4,10,9,-8,-7
0,0,0,0,0,0,0,0,0,0
-5,-3,2,-6,1,4,10,9,-8,-7
-5,-3,2,-6,1,4,10,9,-8,-7
-5,-3,2,-6,1,4,10,9,-8,-7
-5,-3,2,-6,1,4,10,9,-8,-7
-5,-3,2,-6,1,4,10,9,-8,-7
0,0,0,0,0,0,0,0,0,0
8,-4,-10,2,-9,7,-6,-1,5,3
8,-4,-10,2,-9,7,-6,-1,5,3
8,-4,-10,2,-9,7,-6,-1,5,3
8,-4,-10,2,-9,7,-6,-1,5,3
8,-4,-10,2,-9,7,-6,-1,5,3
8,-4,-10,2,-9,7,-6,-1,5,3
0,0,0,0,0,0,0,0,0,0
0,0,0,0,0,0,0,0,0,0
0,0,0,0,0,0,0,0,0,0
0,0,0,0,0,0,0,0,0,0
-2,1,4,-3,-6,5,9,10,-7,-8
-2,1,4,-3,-6,5,9,10,-7,-8
-2,1,4,-3,-6,5,9,10,-7,-8
0,0,0,0,0,0,0,0,0,0
5,3,-2,6,-1,-4,-8,7,-10,9
5,3,-2,6,-1,-4,-8,7,-10,9
5,3,-2,6,-1,-4,-8,7,-10,9
5,3,-2,6,-1,-4,-8,7,-10,9
5,3,-2,6,-1,-4,-8,7,-10,9
5,3,-2,6,-1,-4,-8,7,-10,9
0,0,0,0,0,0,0,0,0,0
-4,-6,-5,1,3,2,-10,-9,8,7
-4,-6,-5,1,3,2,-10,-9,8,7
-4,-6,-5,1,3,2,-10,-9,8,7
-4,-6,-5,1,3,2,-10,-9,8,7
-4,-6,-5,1,3,2,-10,-9,8,7
-4,-6,-5,1,3,2,-10,-9,8,7
0,0,0,0,0,0,0,0,0,0
9,10,6,-8,-7,-3,5,4,-1,-2
9,10,6,-8,-7,-3,5,4,-1,-2
9,10,6,-8,-7,-3,5,4,-1,-2
9,10,6,-8,-7,-3,5,4,-1,-2
9,10,6,-8,-7,-3,5,4,-1,-2
9,10,6,-8,-7,-3,5,4,-1,-2
0,0,0,0,0,0,0,0,0,0
-6,-7,8,-9,10,1,2,-3,4,-5
-6,-7,8,-9,10,1,2,-3,4,-5
-6,-7,8,-9,10,1,2,-3,4,-5
-6,-7,8,-9,10,1,2,-3,4,-5
-6,-7,8,-9,10,1,2,-3,4,-5
-6,-7,8,-9,10,1,2,-3,4,-5
0,0,0,0,0,0,0,0,0,0
3,6,-1,5,-4,-2,-8,7,-10,9
3,6,-1,5,-4,-2,-8,7,-10,9
3,6,-1,5,-4,-2,-8,7,-10,9
3,6,-1,5,-4,-2,-8,7,-10,9
3,6,-1,5,-4,-2,-8,7,-10,9
3,6,-1,5,-4,-2,-8,7,-10,9
0,0,0,0,0,0,0,0,0,0
4,-5,-6,-1,2,3,-9,-10,7,8
4,-5,-6,-1,2,3,-9,-10,7,8
4,-5,-6,-1,2,3,-9,-10,7,8
4,-5,-6,-1,2,3,-9,-10,7,8
4,-5,-6,-1,2,3,-9,-10,7,8
4,-5,-6,-1,2,3,-9,-10,7,8
0,0,0,0,0,0,0,0,0,0
-2,1,9,10,-8,-7,6,5,-3,-4
-2,1,9,10,-8,-7,6,5,-3,-4
-2,1,9,10,-8,-7,6,5,-3,-4
-2,1,9,10,-8,-7,6,5,-3,-4
-2,1,9,10,-8,-7,6,5,-3,-4
-2,1,9,10,-8,-7,6,5,-3,-4
