1,2,4,7
1,2,4,7
1,2,4,7
0,0,0,0
8,6,3,5
8,6,3,5
8,6,3,5
8,6,3,5
8,6,3,5
8,6,3,5
0,0,0,0
1,7,2,4
1,7,2,4
1,7,2,4
1,7,2,4
1,7,2,4
1,7,2,4
0,0,0,0
5,3,8,6
5,3,8,6
5,3,8,6
5,3,8,6
5,3,8,6
5,3,8,6
0,0,0,0
3,1,6,2
3,1,6,2
3,1,6,2
3,1,6,2
3,1,6,2
3,1,6,2
0,0,0,0
7,8,4,5
7,8,4,5
7,8,4,5
7,8,4,5
7,8,4,5
7,8,4,5
0,0,0,0
6,2,7,1
6,2,7,1
6,2,7,1
6,2,7,1
6,2,7,1
6,2,7,1
0,0,0,0
3,8,1,4
3,8,1,4
3,8,1,4
3,8,1,4
3,8,1,4
3,8,1,4
0,0,0,0
5,4,7,8
5,4,7,8
5,4,7,8
5,4,7,8
5,4,7,8
5,4,7,8
0,0,0,0
1,3,6,2
1,3,6,2
1,3,6,2
1,3,6,2
1,3,6,2
1,3,6,2
0,0,0,0
4,8,5,7
4,8,5,7
4,8,5,7
4,8,5,7
4,8,5,7
4,8,5,7
0,0,0,0
6,3,2,1
6,3,2,1
6,3,2,1
6,3,2,1
6,3,2,1
6,3,2,1
0,0,0,0
8,6,5,3
8,6,5,3
8,6,5,3
8,6,5,3
8,6,5,3
8,6,5,3
0,0,0,0
1,2,7,4
1,2,7,4
1,2,7,4
1,2,7,4
1,2,7,4
1,2,7,4
0,0,0,0
8,3,6,5
8,3,6,5
8,3,6,5
8,3,6,5
8,3,6,5
8,3,6,5
0,0,0,0
0,0,0,0
0,0,0,0
0,0,0,0
2,7,4,1
2,7,4,1
2,7,4,1
0,0,0,0
4,3,2,5
4,3,2,5
4,3,2,5
4,3,2,5
4,3,2,5
4,3,2,5
0,0,0,0
7,8,1,6
7,8,1,6
7,8,1,6
7,8,1,6
7,8,1,6
7,8,1,6
0,0,0,0
5,4,3,2
5,4,3,2
5,4,3,2
5,4,3,2
5,4,3,2
5,4,3,2
0,0,0,0
8,5,7,6
8,5,7,6
8,5,7,6
8,5,7,6
8,5,7,6
8,5,7,6
0,0,0,0
2,1,4,7
2,1,4,7
2,1,4,7
2,1,4,7
2,1,4,7
2,1,4,7
0,0,0,0
6,3,2,1
6,3,2,1
6,3,2,1
6,3,2,1
6,3,2,1
6,3,2,1
0,0,0,0
7,5,4,8
7,5,4,8
7,5,4,8
7,5,4,8
7,5,4,8
7,5,4,8
0,0,0,0
0,0,0,0
