4,5,7,8,9,12
6,10,11,2,12,1
7,8,9,5,4,3
10,6,11,2,3,1
8,9,12,4,1,5
11,7,6,2,10,3
9,12,8,1,2,5
6,7,10,4,1,3
6,7,10,4,5,3
11,6,8,1,4,12
9,11,2,7,12,3
8,7,10,6,4,5
2,11,5,9,12,8
2,11,1,9,12,8
1,6,3,10,9,5
4,8,12,11,7,2
4,8,12,11,7,2
2,1,11,10,6,3
5,12,9,7,8,4
9,5,8,10,3,6
10,2,4,7,5,11
10,2,4,7,1,11
12,3,5,6,9,8
2,4,1,7,11,10
1,3,4,12,9,7
5,3,4,12,9,7
3,2,1,11,6,8
12,4,5,7,10,9
