4,5,24,8
11,4,Inf,3
18,1,1,3
18,1,3,2
18,1,5,2
18,1,12,2
18,1,19,3
18,1,23,2
18,1,27,2
18,2,1,2
18,2,6,2
18,2,7,2
18,2,9,2
18,2,14,2
18,2,17,2
18,2,18,2
18,2,19,2
18,3,4,2
18,3,10,2
18,3,11,3
18,3,12,2
18,3,15,2
18,3,17,2
18,3,20,2
18,4,1,2
18,4,10,3
18,4,11,2
18,4,15,2
18,4,17,2
18,4,18,2
18,4,19,2
18,4,20,2
18,4,22,2
18,4,24,2
18,4,26,2
18,5,2,2
18,5,5,2
18,5,6,2
18,5,10,2
18,5,11,2
18,5,12,2
18,5,17,2
18,5,19,2
18,5,22,3
18,6,1,2
18,6,9,2
18,6,10,2
18,6,12,2
18,6,14,2
18,6,19,3
18,6,22,2
18,6,24,2
18,6,26,3
