1,4,8,9,10
6,2,4,8,3
10,7,1,5,9
2,8,7,6,5
6,3,10,1,4
8,10,3,5,9
9,2,6,4,7
2,8,5,7,1
3,10,9,1,4
5,2,4,6,8
7,1,3,10,9
8,6,10,2,3
5,9,1,4,7
1,7,4,6,9
10,3,2,8,5
8,9,7,5,4
2,10,3,1,6
3,2,7,6,5
10,9,4,8,1
6,5,2,7,3
