1,4,8,9,10
1,4,8,9,10
1,4,8,9,10
1,4,8,9,10
1,4,8,9,10
1,4,8,9,10
0,0,0,0,0
6,2,4,8,3
6,2,4,8,3
6,2,4,8,3
6,2,4,8,3
6,2,4,8,3
6,2,4,8,3
0,0,0,0,0
10,7,1,5,9
10,7,1,5,9
10,7,1,5,9
10,7,1,5,9
10,7,1,5,9
10,7,1,5,9
0,0,0,0,0
2,8,7,6,5
2,8,7,6,5
2,8,7,6,5
2,8,7,6,5
2,8,7,6,5
2,8,7,6,5
0,0,0,0,0
6,3,10,1,4
6,3,10,1,4
6,3,10,1,4
6,3,10,1,4
6,3,10,1,4
6,3,10,1,4
0,0,0,0,0
8,10,3,5,9
8,10,3,5,9
8,10,3,5,9
8,10,3,5,9
8,10,3,5,9
8,10,3,5,9
0,0,0,0,0
9,2,6,4,7
9,2,6,4,7
9,2,6,4,7
9,2,6,4,7
9,2,6,4,7
9,2,6,4,7
0,0,0,0,0
2,8,5,7,1
2,8,5,7,1
2,8,5,7,1
2,8,5,7,1
2,8,5,7,1
2,8,5,7,1
0,0,0,0,0
3,10,9,1,4
3,10,9,1,4
3,10,9,1,4
3,10,9,1,4
3,10,9,1,4
3,10,9,1,4
0,0,0,0,0
5,2,4,6,8
5,2,4,6,8
5,2,4,6,8
5,2,4,6,8
0,0,0,0,0
0,0,0,0,0
0,0,0,0,0
7,1,3,10,9
7,1,3,10,9
7,1,3,10,9
7,1,3,10,9
7,1,3,10,9
7,1,3,10,9
0,0,0,0,0
8,6,10,2,3
8,6,10,2,3
8,6,10,2,3
8,6,10,2,3
8,6,10,2,3
8,6,10,2,3
0,0,0,0,0
5,9,1,4,7
5,9,1,4,7
5,9,1,4,7
5,9,1,4,7
5,9,1,4,7
5,9,1,4,7
0,0,0,0,0
1,7,4,6,9
1,7,4,6,9
1,7,4,6,9
1,7,4,6,9
1,7,4,6,9
1,7,4,6,9
0,0,0,0,0
10,3,2,8,5
10,3,2,8,5
10,3,2,8,5
10,3,2,8,5
10,3,2,8,5
10,3,2,8,5
0,0,0,0,0
8,9,7,5,4
8,9,7,5,4
8,9,7,5,4
8,9,7,5,4
8,9,7,5,4
8,9,7,5,4
0,0,0,0,0
2,10,3,1,6
2,10,3,1,6
2,10,3,1,6
2,10,3,1,6
2,10,3,1,6
2,10,3,1,6
0,0,0,0,0
3,2,7,6,5
3,2,7,6,5
3,2,7,6,5
3,2,7,6,5
3,2,7,6,5
3,2,7,6,5
0,0,0,0,0
10,9,4,8,1
10,9,4,8,1
10,9,4,8,1
10,9,4,8,1
10,9,4,8,1
10,9,4,8,1
0,0,0,0,0
6,5,2,7,3
6,5,2,7,3
6,5,2,7,3
6,5,2,7,3
6,5,2,7,3
6,5,2,7,3
0,0,0,0,0
