4,4,6,4
11,1,Inf,4
11,4,Inf,3
11,5,Inf,2
15,2,5,5
15,3,6,3
15,3,16,7
15,4,5,4
15,4,6,4
15,4,8,6
15,4,2,10
18,1,1,2
18,1,2,2
18,1,3,3
18,1,4,2
18,1,7,2
18,1,10,3
18,1,11,2
18,1,12,3
18,1,13,2
18,1,14,3
18,1,15,2
18,1,16,2
18,1,18,3
18,1,19,2
18,2,2,2
18,2,3,2
18,2,4,2
18,2,5,3
18,2,6,3
18,2,7,2
18,2,8,2
18,2,9,3
18,2,11,2
18,2,14,2
18,2,15,2
18,2,16,3
18,2,17,3
18,2,18,2
18,2,19,2
18,3,1,3
18,3,2,2
18,3,3,2
18,3,4,2
18,3,5,3
18,3,6,2
18,3,7,3
18,3,8,2
18,3,9,2
18,3,11,3
18,3,12,3
18,3,13,2
18,3,15,2
18,3,16,2
18,3,17,2
18,3,18,3
18,4,2,3
18,4,3,3
18,4,4,2
18,4,5,2
18,4,7,3
18,4,8,2
18,4,9,2
18,4,10,2
18,4,11,3
18,4,13,3
18,4,15,3
18,4,16,2
18,4,17,2
18,4,19,2
18,5,1,3
18,5,2,2
18,5,3,2
18,5,5,2
18,5,7,2
18,5,8,2
18,5,9,3
18,5,11,2
18,5,12,2
18,5,14,2
18,5,16,3
18,5,17,3
18,5,18,2
19,1,9,Inf
19,1,10,Inf
19,1,11,Inf
19,1,12,Inf
19,2,3,Inf
19,2,4,Inf
19,2,5,Inf
19,2,6,Inf
19,2,14,Inf
19,2,15,Inf
19,2,16,Inf
19,3,4,Inf
19,3,5,Inf
19,3,9,Inf
19,3,10,Inf
19,3,11,Inf
19,4,1,Inf
19,4,2,Inf
19,4,10,Inf
19,4,11,Inf
19,4,12,Inf
19,4,13,Inf
19,5,14,Inf
19,5,15,Inf
19,5,16,Inf
20,1,1,Inf
20,1,13,Inf
20,2,1,Inf
20,2,2,Inf
20,3,1,Inf
20,3,2,Inf
20,3,3,Inf
20,3,6,Inf
20,3,13,Inf
20,3,14,Inf
20,3,15,Inf
20,4,7,Inf
20,4,8,Inf
20,4,16,Inf
20,5,2,Inf
20,5,5,Inf
20,5,11,Inf
