2,-1,4,-3,-6,5,-9,12,7,-11,10,-8
2,-1,4,-3,-6,5,-9,12,7,-11,10,-8
2,-1,4,-3,-6,5,-9,12,7,-11,10,-8
2,-1,4,-3,-6,5,-9,12,7,-11,10,-8
2,-1,4,-3,-6,5,-9,12,7,-11,10,-8
2,-1,4,-3,-6,5,-9,12,7,-11,10,-8
0,0,0,0,0,0,0,0,0,0,0,0
-4,6,-5,1,3,-2,11,-10,-12,8,-7,9
-4,6,-5,1,3,-2,11,-10,-12,8,-7,9
-4,6,-5,1,3,-2,11,-10,-12,8,-7,9
-4,6,-5,1,3,-2,11,-10,-12,8,-7,9
-4,6,-5,1,3,-2,11,-10,-12,8,-7,9
-4,6,-5,1,3,-2,11,-10,-12,8,-7,9
0,0,0,0,0,0,0,0,0,0,0,0
12,-3,2,5,-4,7,-6,11,10,-9,-8,-1
12,-3,2,5,-4,7,-6,11,10,-9,-8,-1
12,-3,2,5,-4,7,-6,11,10,-9,-8,-1
12,-3,2,5,-4,7,-6,11,10,-9,-8,-1
12,-3,2,5,-4,7,-6,11,10,-9,-8,-1
12,-3,2,5,-4,7,-6,11,10,-9,-8,-1
0,0,0,0,0,0,0,0,0,0,0,0
-3,4,1,-2,-7,8,5,-6,-11,-12,9,10
-3,4,1,-2,-7,8,5,-6,-11,-12,9,10
-3,4,1,-2,-7,8,5,-6,-11,-12,9,10
-3,4,1,-2,-7,8,5,-6,-11,-12,9,10
-3,4,1,-2,-7,8,5,-6,-11,-12,9,10
-3,4,1,-2,-7,8,5,-6,-11,-12,9,10
0,0,0,0,0,0,0,0,0,0,0,0
4,-5,-8,-1,2,-11,-10,3,12,7,6,-9
4,-5,-8,-1,2,-11,-10,3,12,7,6,-9
4,-5,-8,-1,2,-11,-10,3,12,7,6,-9
4,-5,-8,-1,2,-11,-10,3,12,7,6,-9
4,-5,-8,-1,2,-11,-10,3,12,7,6,-9
4,-5,-8,-1,2,-11,-10,3,12,7,6,-9
0,0,0,0,0,0,0,0,0,0,0,0
-6,3,-2,5,-4,1,9,10,-7,-8,-12,11
-6,3,-2,5,-4,1,9,10,-7,-8,-12,11
-6,3,-2,5,-4,1,9,10,-7,-8,-12,11
-6,3,-2,5,-4,1,9,10,-7,-8,-12,11
-6,3,-2,5,-4,1,9,10,-7,-8,-12,11
-6,3,-2,5,-4,1,9,10,-7,-8,-12,11
0,0,0,0,0,0,0,0,0,0,0,0
-5,-4,6,2,1,-3,8,-7,-11,12,9,-10
-5,-4,6,2,1,-3,8,-7,-11,12,9,-10
-5,-4,6,2,1,-3,8,-7,-11,12,9,-10
-5,-4,6,2,1,-3,8,-7,-11,12,9,-10
-5,-4,6,2,1,-3,8,-7,-11,12,9,-10
-5,-4,6,2,1,-3,8,-7,-11,12,9,-10
0,0,0,0,0,0,0,0,0,0,0,0
4,5,11,-1,-2,8,-12,-6,10,-9,-3,7
4,5,11,-1,-2,8,-12,-6,10,-9,-3,7
4,5,11,-1,-2,8,-12,-6,10,-9,-3,7
4,5,11,-1,-2,8,-12,-6,10,-9,-3,7
4,5,11,-1,-2,8,-12,-6,10,-9,-3,7
4,5,11,-1,-2,8,-12,-6,10,-9,-3,7
0,0,0,0,0,0,0,0,0,0,0,0
-2,1,-5,12,3,-10,-11,9,-8,6,7,-4
-2,1,-5,12,3,-10,-11,9,-8,6,7,-4
-2,1,-5,12,3,-10,-11,9,-8,6,7,-4
-2,1,-5,12,3,-10,-11,9,-8,6,7,-4
-2,1,-5,12,3,-10,-11,9,-8,6,7,-4
-2,1,-5,12,3,-10,-11,9,-8,6,7,-4
0,0,0,0,0,0,0,0,0,0,0,0
5,-6,4,-3,-1,2,12,10,11,-8,-9,-7
5,-6,4,-3,-1,2,12,10,11,-8,-9,-7
5,-6,4,-3,-1,2,12,10,11,-8,-9,-7
5,-6,4,-3,-1,2,12,10,11,-8,-9,-7
5,-6,4,-3,-1,2,12,10,11,-8,-9,-7
5,-6,4,-3,-1,2,12,10,11,-8,-9,-7
0,0,0,0,0,0,0,0,0,0,0,0
-4,5,-6,1,-2,3,9,-12,-7,-11,10,8
-4,5,-6,1,-2,3,9,-12,-7,-11,10,8
-4,5,-6,1,-2,3,9,-12,-7,-11,10,8
-4,5,-6,1,-2,3,9,-12,-7,-11,10,8
-4,5,-6,1,-2,3,9,-12,-7,-11,10,8
-4,5,-6,1,-2,3,9,-12,-7,-11,10,8
0,0,0,0,0,0,0,0,0,0,0,0
6,-3,2,-5,4,-1,-8,7,-10,9,-12,11
6,-3,2,-5,4,-1,-8,7,-10,9,-12,11
6,-3,2,-5,4,-1,-8,7,-10,9,-12,11
6,-3,2,-5,4,-1,-8,7,-10,9,-12,11
6,-3,2,-5,4,-1,-8,7,-10,9,-12,11
6,-3,2,-5,4,-1,-8,7,-10,9,-12,11
0,0,0,0,0,0,0,0,0,0,0,0
3,-4,-1,2,6,-5,10,-11,12,-7,8,-9
3,-4,-1,2,6,-5,10,-11,12,-7,8,-9
3,-4,-1,2,6,-5,10,-11,12,-7,8,-9
3,-4,-1,2,6,-5,10,-11,12,-7,8,-9
3,-4,-1,2,6,-5,10,-11,12,-7,8,-9
3,-4,-1,2,6,-5,10,-11,12,-7,8,-9
0,0,0,0,0,0,0,0,0,0,0,0
-2,1,5,-6,-3,4,-12,-9,8,11,-10,7
-2,1,5,-6,-3,4,-12,-9,8,11,-10,7
-2,1,5,-6,-3,4,-12,-9,8,11,-10,7
-2,1,5,-6,-3,4,-12,-9,8,11,-10,7
-2,1,5,-6,-3,4,-12,-9,8,11,-10,7
-2,1,5,-6,-3,4,-12,-9,8,11,-10,7
0,0,0,0,0,0,0,0,0,0,0,0
9,-5,-4,3,2,-8,-11,6,-1,12,7,-10
9,-5,-4,3,2,-8,-11,6,-1,12,7,-10
9,-5,-4,3,2,-8,-11,6,-1,12,7,-10
9,-5,-4,3,2,-8,-11,6,-1,12,7,-10
9,-5,-4,3,2,-8,-11,6,-1,12,7,-10
9,-5,-4,3,2,-8,-11,6,-1,12,7,-10
0,0,0,0,0,0,0,0,0,0,0,0
-3,4,1,-2,-6,5,10,-12,11,-7,-9,8
-3,4,1,-2,-6,5,10,-12,11,-7,-9,8
-3,4,1,-2,-6,5,10,-12,11,-7,-9,8
-3,4,1,-2,-6,5,10,-12,11,-7,-9,8
-3,4,1,-2,-6,5,10,-12,11,-7,-9,8
-3,4,1,-2,-6,5,10,-12,11,-7,-9,8
0,0,0,0,0,0,0,0,0,0,0,0
-5,3,-2,6,1,-4,-8,7,-10,9,12,-11
-5,3,-2,6,1,-4,-8,7,-10,9,12,-11
-5,3,-2,6,1,-4,-8,7,-10,9,12,-11
-5,3,-2,6,1,-4,-8,7,-10,9,12,-11
-5,3,-2,6,1,-4,-8,7,-10,9,12,-11
-5,3,-2,6,1,-4,-8,7,-10,9,12,-11
0,0,0,0,0,0,0,0,0,0,0,0
2,-1,5,-12,-3,10,11,-9,8,-6,-7,4
2,-1,5,-12,-3,10,11,-9,8,-6,-7,4
2,-1,5,-12,-3,10,11,-9,8,-6,-7,4
2,-1,5,-12,-3,10,11,-9,8,-6,-7,4
2,-1,5,-12,-3,10,11,-9,8,-6,-7,4
2,-1,5,-12,-3,10,11,-9,8,-6,-7,4
0,0,0,0,0,0,0,0,0,0,0,0
3,6,-1,-5,4,-2,-10,11,-12,7,-8,9
3,6,-1,-5,4,-2,-10,11,-12,7,-8,9
3,6,-1,-5,4,-2,-10,11,-12,7,-8,9
3,6,-1,-5,4,-2,-10,11,-12,7,-8,9
3,6,-1,-5,4,-2,-10,11,-12,7,-8,9
3,6,-1,-5,4,-2,-10,11,-12,7,-8,9
0,0,0,0,0,0,0,0,0,0,0,0
-9,-10,-4,3,6,-5,8,-7,1,2,12,-11
-9,-10,-4,3,6,-5,8,-7,1,2,12,-11
-9,-10,-4,3,6,-5,8,-7,1,2,12,-11
-9,-10,-4,3,6,-5,8,-7,1,2,12,-11
-9,-10,-4,3,6,-5,8,-7,1,2,12,-11
-9,-10,-4,3,6,-5,8,-7,1,2,12,-11
