1,4,5,8,10,11
1,4,5,8,10,11
1,4,5,8,10,11
0,0,0,0,0,0
6,2,12,10,7,3
6,2,12,10,7,3
6,2,12,10,7,3
6,2,12,10,7,3
6,2,12,10,7,3
6,2,12,10,7,3
0,0,0,0,0,0
5,1,8,9,11,4
5,1,8,9,11,4
5,1,8,9,11,4
5,1,8,9,11,4
5,1,8,9,11,4
5,1,8,9,11,4
0,0,0,0,0,0
2,3,12,6,9,7
2,3,12,6,9,7
2,3,12,6,9,7
2,3,12,6,9,7
2,3,12,6,9,7
2,3,12,6,9,7
0,0,0,0,0,0
11,8,5,4,10,3
11,8,5,4,10,3
11,8,5,4,10,3
11,8,5,4,10,3
11,8,5,4,10,3
11,8,5,4,10,3
0,0,0,0,0,0
7,12,6,2,9,1
7,12,6,2,9,1
7,12,6,2,9,1
7,12,6,2,9,1
7,12,6,2,9,1
7,12,6,2,9,1
0,0,0,0,0,0
10,1,8,5,4,11
10,1,8,5,4,11
10,1,8,5,4,11
10,1,8,5,4,11
10,1,8,5,4,11
10,1,8,5,4,11
0,0,0,0,0,0
2,6,9,3,5,10
2,6,9,3,5,10
2,6,9,3,5,10
2,6,9,3,5,10
2,6,9,3,5,10
2,6,9,3,5,10
0,0,0,0,0,0
3,12,4,9,6,7
3,12,4,9,6,7
3,12,4,9,6,7
3,12,4,9,6,7
3,12,4,9,6,7
3,12,4,9,6,7
0,0,0,0,0,0
8,11,1,10,2,5
8,11,1,10,2,5
8,11,1,10,2,5
8,11,1,10,2,5
8,11,1,10,2,5
8,11,1,10,2,5
0,0,0,0,0,0
9,7,3,12,11,4
9,7,3,12,11,4
9,7,3,12,11,4
9,7,3,12,11,4
9,7,3,12,11,4
9,7,3,12,11,4
0,0,0,0,0,0
1,6,4,10,8,7
1,6,4,10,8,7
1,6,4,10,8,7
1,6,4,10,8,7
1,6,4,10,8,7
1,6,4,10,8,7
0,0,0,0,0,0
6,9,5,3,2,12
6,9,5,3,2,12
6,9,5,3,2,12
6,9,5,3,2,12
6,9,5,3,2,12
6,9,5,3,2,12
11,1,10,8,7,2
0,0,0,0,0,0
10,2,11,7,8,1
10,2,11,7,8,1
10,2,11,7,8,1
10,2,11,7,8,1
10,2,11,7,8,1
0,0,0,0,0,0
12,5,4,9,3,6
12,5,4,9,3,6
12,5,4,9,3,6
12,5,4,9,3,6
12,5,4,9,3,6
12,5,4,9,3,6
0,0,0,0,0,0
0,0,0,0,0,0
0,0,0,0,0,0
0,0,0,0,0,0
4,11,5,10,1,8
4,11,5,10,1,8
4,11,5,10,1,8
0,0,0,0,0,0
8,10,2,3,7,9
8,10,2,3,7,9
8,10,2,3,7,9
8,10,2,3,7,9
8,10,2,3,7,9
8,10,2,3,7,9
0,0,0,0,0,0
6,5,1,4,12,11
6,5,1,4,12,11
6,5,1,4,12,11
6,5,1,4,12,11
6,5,1,4,12,11
6,5,1,4,12,11
0,0,0,0,0,0
1,12,10,2,8,7
1,12,10,2,8,7
1,12,10,2,8,7
1,12,10,2,8,7
1,12,10,2,8,7
1,12,10,2,8,7
0,0,0,0,0,0
9,4,11,6,5,3
9,4,11,6,5,3
9,4,11,6,5,3
9,4,11,6,5,3
9,4,11,6,5,3
9,4,11,6,5,3
0,0,0,0,0,0
11,2,7,1,12,8
11,2,7,1,12,8
11,2,7,1,12,8
11,2,7,1,12,8
11,2,7,1,12,8
11,2,7,1,12,8
0,0,0,0,0,0
6,5,2,9,3,10
6,5,2,9,3,10
6,5,2,9,3,10
6,5,2,9,3,10
6,5,2,9,3,10
6,5,2,9,3,10
0,0,0,0,0,0
8,7,12,11,1,4
8,7,12,11,1,4
8,7,12,11,1,4
8,7,12,11,1,4
8,7,12,11,1,4
8,7,12,11,1,4
0,0,0,0,0,0
0,0,0,0,0,0
