1,2,4,7
1,2,4,7
1,2,4,7
0,0,0,0
8,6,3,5
8,6,3,5
8,6,3,5
8,6,3,5
8,6,3,5
8,6,3,5
0,0,0,0
1,7,2,4
1,7,2,4
1,7,2,4
1,7,2,4
1,7,2,4
1,7,2,4
0,0,0,0
5,6,8,3
5,6,8,3
5,6,8,3
5,6,8,3
5,6,8,3
5,6,8,3
0,0,0,0
2,3,1,6
2,3,1,6
2,3,1,6
2,3,1,6
2,3,1,6
2,3,1,6
0,0,0,0
5,7,8,4
5,7,8,4
5,7,8,4
5,7,8,4
5,7,8,4
5,7,8,4
0,0,0,0
1,6,2,7
1,6,2,7
1,6,2,7
1,6,2,7
1,6,2,7
1,6,2,7
0,0,0,0
4,3,8,1
4,3,8,1
4,3,8,1
4,3,8,1
4,3,8,1
4,3,8,1
0,0,0,0
7,8,4,5
7,8,4,5
7,8,4,5
7,8,4,5
7,8,4,5
7,8,4,5
0,0,0,0
3,2,6,1
3,2,6,1
3,2,6,1
3,2,6,1
3,2,6,1
3,2,6,1
0,0,0,0
8,7,5,4
8,7,5,4
8,7,5,4
8,7,5,4
8,7,5,4
8,7,5,4
0,0,0,0
1,3,2,6
1,3,2,6
1,3,2,6
1,3,2,6
1,3,2,6
1,3,2,6
0,0,0,0
8,6,5,3
8,6,5,3
8,6,5,3
8,6,5,3
8,6,5,3
8,6,5,3
1,7,4,2
0,0,0,0
1,7,4,2
1,7,4,2
1,7,4,2
1,7,4,2
1,7,4,2
0,0,0,0
3,6,8,5
3,6,8,5
3,6,8,5
3,6,8,5
3,6,8,5
3,6,8,5
0,0,0,0
0,0,0,0
0,0,0,0
0,0,0,0
7,4,2,1
7,4,2,1
7,4,2,1
0,0,0,0
3,2,4,5
3,2,4,5
3,2,4,5
3,2,4,5
3,2,4,5
3,2,4,5
0,0,0,0
8,1,7,6
8,1,7,6
8,1,7,6
8,1,7,6
8,1,7,6
8,1,7,6
0,0,0,0
4,3,5,2
4,3,5,2
4,3,5,2
4,3,5,2
4,3,5,2
4,3,5,2
0,0,0,0
5,7,8,6
5,7,8,6
5,7,8,6
5,7,8,6
5,7,8,6
5,7,8,6
0,0,0,0
1,4,2,7
1,4,2,7
1,4,2,7
1,4,2,7
1,4,2,7
1,4,2,7
0,0,0,0
3,2,6,1
3,2,6,1
3,2,6,1
3,2,6,1
3,2,6,1
3,2,6,1
0,0,0,0
4,5,7,8
4,5,7,8
4,5,7,8
4,5,7,8
4,5,7,8
4,5,7,8
0,0,0,0
0,0,0,0
