2,4,5,7
2,4,5,7
2,4,5,7
2,4,5,7
2,4,5,7
2,4,5,7
0,0,0,0
3,1,8,6
3,1,8,6
3,1,8,6
3,1,8,6
3,1,8,6
3,1,8,6
0,0,0,0
7,2,1,3
7,2,1,3
7,2,1,3
7,2,1,3
7,2,1,3
7,2,1,3
0,0,0,0
5,8,4,2
5,8,4,2
5,8,4,2
5,8,4,2
5,8,4,2
5,8,4,2
0,0,0,0
5,1,6,8
5,1,6,8
5,1,6,8
5,1,6,8
5,1,6,8
5,1,6,8
0,0,0,0
3,6,7,4
3,6,7,4
3,6,7,4
3,6,7,4
3,6,7,4
3,6,7,4
0,0,0,0
1,2,4,8
1,2,4,8
1,2,4,8
1,2,4,8
1,2,4,8
1,2,4,8
0,0,0,0
3,7,5,2
3,7,5,2
3,7,5,2
3,7,5,2
3,7,5,2
3,7,5,2
0,0,0,0
1,6,3,7
1,6,3,7
1,6,3,7
1,6,3,7
1,6,3,7
1,6,3,7
0,0,0,0
4,8,2,5
4,8,2,5
4,8,2,5
4,8,2,5
4,8,2,5
4,8,2,5
0,0,0,0
4,3,6,8
4,3,6,8
4,3,6,8
4,3,6,8
4,3,6,8
4,3,6,8
0,0,0,0
2,5,7,1
2,5,7,1
2,5,7,1
2,5,7,1
2,5,7,1
2,5,7,1
0,0,0,0
6,4,3,5
6,4,3,5
6,4,3,5
6,4,3,5
6,4,3,5
6,4,3,5
0,0,0,0
1,7,8,6
1,7,8,6
1,7,8,6
1,7,8,6
1,7,8,6
1,7,8,6
0,0,0,0
2,5,1,3
2,5,1,3
2,5,1,3
2,5,1,3
2,5,1,3
2,5,1,3
0,0,0,0
7,2,4,8
7,2,4,8
7,2,4,8
7,2,4,8
7,2,4,8
7,2,4,8
0,0,0,0
6,1,7,3
6,1,7,3
6,1,7,3
6,1,7,3
6,1,7,3
6,1,7,3
0,0,0,0
5,8,4,6
5,8,4,6
5,8,4,6
5,8,4,6
5,8,4,6
5,8,4,6
0,0,0,0
4,2,5,7
4,2,5,7
4,2,5,7
4,2,5,7
4,2,5,7
4,2,5,7
0,0,0,0
8,1,3,6
8,1,3,6
8,1,3,6
8,1,3,6
8,1,3,6
8,1,3,6
