4,3,8,7
4,4,8,1
5,1,12,6
5,1,13,6
5,1,14,8
5,2,12,2
5,2,13,2
5,2,14,3
5,3,12,4
5,3,13,4
5,4,12,7
5,4,13,7
18,1,1,2
18,1,3,3
18,1,5,2
18,1,7,2
18,1,8,3
18,1,11,2
18,1,12,3
18,1,15,2
18,1,16,2
18,1,17,3
18,1,18,3
18,1,19,2
18,1,21,3
18,1,23,2
18,1,24,2
18,2,1,2
18,2,4,3
18,2,6,2
18,2,8,3
18,2,12,2
18,2,15,2
18,2,16,2
18,2,17,3
18,2,18,2
18,2,19,2
18,2,20,2
18,2,23,2
18,2,24,3
18,3,1,3
18,3,3,3
18,3,5,2
18,3,6,3
18,3,7,3
18,3,12,3
18,3,13,2
18,3,15,2
18,3,17,2
18,3,18,2
18,3,19,2
18,3,22,2
18,3,23,2
18,3,24,3
18,4,2,2
18,4,4,3
18,4,5,2
18,4,6,3
18,4,7,3
18,4,9,2
18,4,12,2
18,4,15,2
18,4,16,3
18,4,17,3
18,4,18,3
18,4,21,2
18,4,22,2
18,4,23,2
18,4,24,2
19,3,13,2
