1,4,5,8,10,11
6,10,3,12,7,2
5,9,4,11,8,1
2,3,12,9,6,7
4,8,10,3,11,5
7,12,1,9,2,6
10,1,5,8,4,11
6,5,3,2,9,10
12,4,9,6,3,7
8,2,10,5,1,11
4,9,12,3,11,7
8,1,10,4,7,6
9,5,6,12,3,2
7,2,11,1,8,10
8,1,7,2,10,11
3,6,9,5,12,4
5,4,8,10,11,1
2,7,9,8,3,10
1,11,5,4,6,12
10,8,2,1,12,7
11,6,4,9,5,3
12,1,7,11,2,8
6,5,2,10,3,9
4,8,12,7,1,11
