1,4,5,8,10,11
6,2,12,10,3,7
9,4,8,1,11,5
6,12,3,2,7,9
4,8,11,5,3,10
2,7,12,6,1,9
5,11,4,10,8,1
3,10,5,2,9,6
12,9,6,3,7,4
10,1,2,11,8,5
12,3,4,7,11,9
6,4,8,10,7,1
2,5,9,3,12,6
10,11,7,8,2,1
11,10,8,7,1,2
4,5,3,9,6,12
1,8,11,4,10,5
9,2,10,7,3,8
11,1,4,6,5,12
8,10,2,12,7,1
5,11,6,4,9,3
2,12,1,7,8,11
9,6,5,3,2,10
7,12,8,4,11,1
