
Gurobi 9.0.2 (linux64, Matlab) logging started Fri 18 Feb 2022 12:40:18 PM EST

Gurobi Optimizer version 9.0.2 build v9.0.2rc0 (linux64)

Concurrent MIP optimizer: 8 concurrent instances (4 threads per instance)

Presolve removed 48 rows and 48 columns
Presolve time: 0.43s
Presolved: 8550 rows, 9126 columns, 44160 nonzeros
Variable types: 0 continuous, 9126 integer (9126 binary)

Root relaxation: objective 0.000000e+00, 1393 iterations, 0.80 seconds

    Nodes    |    Current Node    |     Objective Bounds      |     Work
 Expl Unexpl |  Obj  Depth IntInf | Incumbent    BestBd   Gap | It/Node Time

     0     0      -    -    -     526700.000    0.00000   100%     -    3s
     0     0      -    -    -     440300.000   41.66667   100%     -   23s
     0     0      -    -    -     440300.000  564.28571   100%     -   28s
     0     0      -    -    -     440300.000  581.48148   100%     -   29s
     0     0      -    -    -     440300.000  581.48148   100%     -   30s
     0     0      -    -    -     335200.000 9409.89583  97.2%     -   47s
     0     0      -    -    -     335200.000 9491.66667  97.2%     -   54s
     0     0      -    -    -     335200.000 9491.66667  97.2%     -   56s
     0     0      -    -    -     335200.000 12058.9868  96.4%     -   72s
     0     0      -    -    -     335200.000 12230.8655  96.4%     -   80s
     0     0      -    -    -     335200.000 12237.3961  96.3%     -   87s
     0     0      -    -    -     335200.000 12245.1613  96.3%     -   93s
     0     0      -    -    -     335200.000 12245.2663  96.3%     -   99s
     0     0      -    -    -     255100.000 12360.0000  95.2%     -  115s
     0     0      -    -    -     255100.000 12406.6894  95.1%     -  121s
     0     0      -    -    -     255100.000 12411.2697  95.1%     -  128s
     0     0      -    -    -     255100.000 12415.7902  95.1%     -  130s
     0     0      -    -    -     255100.000 12417.6243  95.1%     -  132s
     0     0      -    -    -     255100.000 12420.0738  95.1%     -  133s
     0     0      -    -    -     255100.000 12421.1110  95.1%     -  135s
     0     0      -    -    -     213800.000 13290.7496  93.8%     -  145s
     0     2      -    -    -     213800.000 13290.7496  93.8%     -  163s
     1     4      -    -    -     213800.000 13290.7496  93.8%     -  167s
     3     8      -    -    -     213800.000 13290.7496  93.8%     -  175s
     7    12      -    -    -     213800.000 13290.7496  93.8%     -  186s
    11    16      -    -    -     213800.000 13290.7496  93.8%     -  191s
    15    20      -    -    -     213800.000 13290.7496  93.8%     -  199s
    19    24      -    -    -     213800.000 13290.7496  93.8%     -  204s
    23    28      -    -    -     213800.000 13290.7496  93.8%     -  208s
    27    32      -    -    -     213800.000 13290.7496  93.8%     -  229s
    31    36      -    -    -     213800.000 13290.7496  93.8%     -  232s
    35    41      -    -    -     197600.000 13290.7496  93.3%     -  240s
    40    48      -    -    -     197600.000 13290.7496  93.3%     -  249s
    47    54      -    -    -     197600.000 13290.7496  93.3%     -  257s
    53    60      -    -    -     197600.000 13290.7496  93.3%     -  265s
    59    64      -    -    -     185700.000 13290.7496  92.8%     -  316s
    63    68      -    -    -     185700.000 13290.7496  92.8%     -  324s
    67    76      -    -    -     185700.000 13290.7496  92.8%     -  328s
    75    87      -    -    -     185700.000 13290.7496  92.8%     -  335s
    86    95      -    -    -     185700.000 13290.7496  92.8%     -  340s
    94    99      -    -    -     182200.000 13290.7496  92.7%     -  355s
    98   108      -    -    -     182200.000 13290.7496  92.7%     -  360s
   107   112      -    -    -     182200.000 13290.7496  92.7%     -  375s
   111   122      -    -    -     182200.000 13290.7496  92.7%     -  380s
   121   131      -    -    -     182200.000 13290.7496  92.7%     -  387s
   130   135      -    -    -     182200.000 13290.7496  92.7%     -  554s
   134   146      -    -    -     182200.000 13290.7496  92.7%     -  561s
   145   160      -    -    -     182200.000 13290.7496  92.7%     -  568s
   159   168      -    -    -     160900.000 13290.7496  91.7%     - 1195s
   167   182      -    -    -     160900.000 13290.7496  91.7%     - 1204s
   181   186      -    -    -     160900.000 13290.7496  91.7%     - 1274s
   185   206      -    -    -     160900.000 13290.7496  91.7%     - 1281s
   205   223      -    -    -     160900.000 13290.7496  91.7%     - 1288s
   222   244      -    -    -     160900.000 13290.7496  91.7%     - 1298s
   243   265      -    -    -     160900.000 13290.7496  91.7%     - 1306s
   264   289      -    -    -     155900.000 13290.7496  91.5%     - 1318s
   288   311      -    -    -     155900.000 13290.7496  91.5%     - 1327s
   310   341      -    -    -     155900.000 13290.7496  91.5%     - 1336s
   340   345      -    -    -     63200.0000 13290.7496  79.0%     - 1889s
   344   383      -    -    -     63200.0000 13290.7496  79.0%     - 1896s
   382   437      -    -    -     63200.0000 13290.7496  79.0%     - 1906s
   436   503      -    -    -     63200.0000 13290.7496  79.0%     - 1915s
   502   574      -    -    -     63200.0000 13290.7496  79.0%     - 1921s
   575   622      -    -    -     63200.0000 13290.7496  79.0%     - 1929s
   639   669      -    -    -     63200.0000 13290.7496  79.0%     - 1941s
   690   707      -    -    -     63200.0000 13290.7496  79.0%     - 1949s
   735   720      -    -    -     63200.0000 13290.7496  79.0%     - 1957s
   748   716      -    -    -     63200.0000 13290.7496  79.0%     - 1957s
   756   729      -    -    -     63200.0000 13290.7496  79.0%     - 1965s
   771   740      -    -    -     63200.0000 13290.7496  79.0%     - 1973s
   782   753      -    -    -     63200.0000 13290.7496  79.0%     - 1982s
   795   774      -    -    -     63200.0000 13290.7496  79.0%     - 1991s
   816   778      -    -    -     55400.0000 15660.6299  71.7%     - 3255s
   820   769      -    -    -     55400.0000 15660.6299  71.7%     - 3266s
   843   777      -    -    -     55200.0000 15660.6299  71.6%     - 3293s
   851   797      -    -    -     55200.0000 15660.6299  71.6%     - 3308s
   871   822      -    -    -     55200.0000 15660.6299  71.6%     - 3328s
   896   856      -    -    -     55200.0000 15660.6299  71.6%     - 3343s
   930   902      -    -    -     55200.0000 15660.6299  71.6%     - 3358s
   976   964      -    -    -     55200.0000 15660.6299  71.6%     - 3373s
  1039   965      -    -    -     55200.0000 15660.6299  71.6%     - 3386s
  1041   966      -    -    -     55200.0000 15660.6299  71.6%     - 3391s
  1042   967      -    -    -     55200.0000 15660.6299  71.6%     - 3400s
  1043   968      -    -    -     55200.0000 15660.6299  71.6%     - 3408s
  1044   968      -    -    -     55200.0000 15660.6299  71.6%     - 3414s
  1045   969      -    -    -     55200.0000 15660.6299  71.6%     - 3418s
  1046   970      -    -    -     55200.0000 15660.6299  71.6%     - 3422s
  1047   970      -    -    -     55200.0000 15660.6299  71.6%     - 3426s
  1049   972      -    -    -     55200.0000 15660.6299  71.6%     - 3431s
  1051   973      -    -    -     55200.0000 15660.6299  71.6%     - 3441s
  1052   974      -    -    -     55200.0000 15660.6299  71.6%     - 3447s
  1053   974      -    -    -     55200.0000 15660.6299  71.6%     - 3450s
  1057   977      -    -    -     55200.0000 15660.6299  71.6%     - 3460s
  1058   978      -    -    -     55200.0000 15660.6299  71.6%     - 3465s
  1059   978      -    -    -     55200.0000 15660.6299  71.6%     - 3470s
  1060   979      -    -    -     55200.0000 15660.6299  71.6%     - 3481s
  1061   980      -    -    -     55200.0000 15660.6299  71.6%     - 3487s
  1062   980      -    -    -     55200.0000 15660.6299  71.6%     - 3491s
  1063   981      -    -    -     55200.0000 15660.6299  71.6%     - 3495s
  1065   982      -    -    -     55200.0000 15660.6299  71.6%     - 3500s
  1066   983      -    -    -     55200.0000 15660.6299  71.6%     - 3513s
  1068   986      -    -    -     55200.0000 15660.6299  71.6%     - 3521s
  1070   987      -    -    -     55200.0000 15660.6299  71.6%     - 3525s
  1071   988      -    -    -     55200.0000 15660.6299  71.6%     - 3535s
  1072   989      -    -    -     55200.0000 15660.6299  71.6%     - 3542s
  1073   989      -    -    -     55200.0000 15660.6299  71.6%     - 3553s
  1074   990      -    -    -     55200.0000 15660.6299  71.6%     - 3562s
  1075   991      -    -    -     55200.0000 15660.6299  71.6%     - 3569s
  1076   991      -    -    -     55200.0000 15660.6299  71.6%     - 3571s
  1079   993      -    -    -     55200.0000 15660.6299  71.6%     - 3575s
  1081   995      -    -    -     55200.0000 15660.6299  71.6%     - 3582s
  1082   995      -    -    -     55200.0000 15660.6299  71.6%     - 3586s
  1083   996      -    -    -     55200.0000 15660.6299  71.6%     - 3593s
  1084   997      -    -    -     55200.0000 15660.6299  71.6%     - 3600s
  1086   998      -    -    -     55200.0000 15660.6299  71.6%     - 3607s
  1087   999      -    -    -     55200.0000 15660.6299  71.6%     - 3614s
  1088   999      -    -    -     55200.0000 15660.6299  71.6%     - 3617s
  1089  1000      -    -    -     55200.0000 15660.6299  71.6%     - 3621s
  1090  1001      -    -    -     55200.0000 15660.6299  71.6%     - 3632s
  1092  1003      -    -    -     55200.0000 15660.6299  71.6%     - 3635s
  1095  1005      -    -    -     55200.0000 15660.6299  71.6%     - 3647s
  1096  1006      -    -    -     55200.0000 15660.6299  71.6%     - 3656s
  1097  1006      -    -    -     55200.0000 15660.6299  71.6%     - 3664s
  1098  1007      -    -    -     55200.0000 15660.6299  71.6%     - 3670s
  1099  1008      -    -    -     55200.0000 15660.6299  71.6%     - 3675s
  1102  1010      -    -    -     55200.0000 15660.6299  71.6%     - 3680s
  1105  1012      -    -    -     55200.0000 15660.6299  71.6%     - 3690s
  1107  1013      -    -    -     55200.0000 15660.6299  71.6%     - 3697s
  1108  1014      -    -    -     55200.0000 15660.6299  71.6%     - 3705s
  1110  1015      -    -    -     55200.0000 15660.6299  71.6%     - 3712s
  1112  1016      -    -    -     55200.0000 15660.6299  71.6%     - 3716s
  1113  1017      -    -    -     55200.0000 15660.6299  71.6%     - 3722s
  1114  1018      -    -    -     55200.0000 15660.6299  71.6%     - 3725s
  1115  1018      -    -    -     55200.0000 15660.6299  71.6%     - 3730s
  1117  1020      -    -    -     55200.0000 15660.6299  71.6%     - 3735s
  1118  1020      -    -    -     55200.0000 15663.3634  71.6%     - 3748s
  1119  1021      -    -    -     55200.0000 15663.3634  71.6%     - 3753s
  1120  1025      -    -    -     55200.0000 15704.5455  71.5%     - 3778s
  1122  1028      -    -    -     55200.0000 15704.5455  71.5%     - 3786s
  1126  1031      -    -    -     55200.0000 15704.5455  71.5%     - 3792s
  1130  1033      -    -    -     55200.0000 15709.2593  71.5%     - 3804s
  1134  1036      -    -    -     55200.0000 15720.0000  71.5%     - 3818s
  1138  1039      -    -    -     55200.0000 15720.0000  71.5%     - 3821s
  1148  1045      -    -    -     55200.0000 15720.0000  71.5%     - 3858s
  1152  1050      -    -    -     55200.0000 15720.0000  71.5%     - 3863s
  1158  1055      -    -    -     55200.0000 15720.0000  71.5%     - 3867s
  1165  1063      -    -    -     55200.0000 15720.0000  71.5%     - 3874s
  1175  1067      -    -    -     55200.0000 15720.0000  71.5%     - 3882s
  1183  1069      -    -    -     55200.0000 15720.0000  71.5%     - 3942s
  1187  1076      -    -    -     55200.0000 15720.0000  71.5%     - 3951s
  1196  1081      -    -    -     55200.0000 15720.0000  71.5%     - 3958s
  1204  1088      -    -    -     55200.0000 15720.0000  71.5%     - 3966s
  1213  1089      -    -    -     55200.0000 15720.0000  71.5%     - 4017s
  1217  1096      -    -    -     55200.0000 15720.0000  71.5%     - 4021s
  1226  1103      -    -    -     55200.0000 15720.0000  71.5%     - 4027s
  1236  1109      -    -    -     55200.0000 15720.0000  71.5%     - 4032s
  1245  1110      -    -    -     55200.0000 15720.0000  71.5%     - 4452s
  1249  1068      -    -    -     55200.0000 15720.0000  71.5%     - 4460s
  1260  1068      -    -    -     55200.0000 15720.0000  71.5%     - 4484s
  1264  1078      -    -    -     55200.0000 15720.0000  71.5%     - 4492s
  1275  1078      -    -    -     53200.0000 15739.4269  70.4%     - 5473s
  1279  1090      -    -    -     53200.0000 15739.4269  70.4%     - 5481s
  1292  1092      -    -    -     53200.0000 15739.4269  70.4%     - 5519s
  1299  1106      -    -    -     53200.0000 15739.4269  70.4%     - 5528s
  1315  1118      -    -    -     53200.0000 15739.4269  70.4%     - 5535s
  1332  1135      -    -    -     53200.0000 15739.4269  70.4%     - 5544s
  1355  1148      -    -    -     53200.0000 15739.4269  70.4%     - 5554s
  1376  1163      -    -    -     53200.0000 15739.4269  70.4%     - 5564s
  1398  1180      -    -    -     53200.0000 15739.4269  70.4%     - 5574s
  1422  1196      -    -    -     53200.0000 15739.4269  70.4%     - 5585s
  1446  1222      -    -    -     53200.0000 15739.4269  70.4%     - 5598s
  1480  1227      -    -    -     53200.0000 15739.4269  70.4%     - 5608s
  1496  1255      -    -    -     53200.0000 15739.4269  70.4%     - 5620s
  1530  1281      -    -    -     53200.0000 15739.4269  70.4%     - 5630s
  1567  1309      -    -    -     53200.0000 15739.4269  70.4%     - 5640s
  1607  1348      -    -    -     53100.0000 15739.4269  70.4%     - 5651s
  1660  1401      -    -    -     53100.0000 15739.4269  70.4%     - 5663s
  1730  1461      -    -    -     53100.0000 15739.4269  70.4%     - 5677s
  1814  1519      -    -    -     53100.0000 15739.4269  70.4%     - 5695s
  1914  1542      -    -    -     53100.0000 15739.4269  70.4%     - 5713s
  1952  1475      -    -    -     53100.0000 15739.4269  70.4%     - 5713s
  2012  1444      -    -    -     53100.0000 15739.4269  70.4%     - 5735s
  2021  1443      -    -    -     53100.0000 15739.4269  70.4%     - 6726s
  2025  1452      -    -    -     53100.0000 15739.4269  70.4%     - 6739s
  2035  1453      -    -    -     53100.0000 15739.4269  70.4%     - 6889s
  2039  1344      -    -    -     53100.0000 15739.4269  70.4%     - 6899s
  2050  1351      -    -    -     53100.0000 15739.4269  70.4%     - 6912s
  2060  1358      -    -    -     53100.0000 15739.4269  70.4%     - 6922s
  2071  1368      -    -    -     53100.0000 15739.4269  70.4%     - 6935s
  2084  1376      -    -    -     53100.0000 15739.4269  70.4%     - 6947s
  2097  1387      -    -    -     53100.0000 15739.4269  70.4%     - 6961s
  2112  1399      -    -    -     53100.0000 15739.4269  70.4%     - 6975s
  2129  1397      -    -    -     53100.0000 15739.4269  70.4%     - 7590s
  2133  1420      -    -    -     53100.0000 15739.4269  70.4%     - 7604s
  2157  1454      -    -    -     53100.0000 15739.4269  70.4%     - 7622s
  2199  1503      -    -    -     53100.0000 15739.4269  70.4%     - 7638s
  2262  1518      -    -    -     53100.0000 15739.4269  70.4%     - 7654s
  2316  1504      -    -    -     53100.0000 15739.4269  70.4%     - 7848s
  2320  1543      -    -    -     53100.0000 15739.4269  70.4%     - 7869s
  2360  1571      -    -    -     53100.0000 15739.4269  70.4%     - 7882s
  2402  1561      -    -    -     53100.0000 15739.4269  70.4%     - 8496s
  2406  1614      -    -    -     53100.0000 15739.4269  70.4%     - 8517s
  2460  1654      -    -    -     53100.0000 15739.4269  70.4%     - 8538s
  2529  1692      -    -    -     53100.0000 15739.4269  70.4%     - 8561s
  2590  1763      -    -    -     53100.0000 15739.4269  70.4%     - 8594s
  2681  1832      -    -    -     53100.0000 15739.4269  70.4%     - 8619s
  2820  1855      -    -    -     53100.0000 15739.4269  70.4%     - 8643s
  2889  1908      -    -    -     53100.0000 15739.4269  70.4%     - 8671s
  2988  1882      -    -    -     53100.0000 15739.4269  70.4%     - 8712s
  2995  1932      -    -    -     53100.0000 15739.4269  70.4%     - 8741s
  3047  1809      -    -    -     53100.0000 15739.4269  70.4%     - 8879s
  3063  1846      -    -    -     53100.0000 15739.4269  70.4%     - 8906s
  3105  1836      -    -    -     53100.0000 15739.4269  70.4%     - 9366s
  3109  1887      -    -    -     53100.0000 15739.4269  70.4%     - 9397s
  3161  1906      -    -    -     53100.0000 15739.4269  70.4%     - 9725s
  3198  1957      -    -    -     53100.0000 15739.4269  70.4%     - 9753s
  3261  2005      -    -    -     53100.0000 15739.4269  70.4%     - 9934s
  3330  2068      -    -    -     53100.0000 15739.4269  70.4%     - 9966s
  3446  2032      -    -    -     53100.0000 15739.4269  70.4%     - 10312s
  3451  2114      -    -    -     53100.0000 15739.4269  70.4%     - 10344s
  3548  2190      -    -    -     53100.0000 15739.4269  70.4%     - 10380s
  3659  2189      -    -    -     49700.0000 15752.7397  68.3%     - 10923s
  3689  2338      -    -    -     49700.0000 15752.7397  68.3%     - 10962s
  3848  2403      -    -    -     49700.0000 15752.7397  68.3%     - 11008s
  3953  2464      -    -    -     49700.0000 15752.7397  68.3%     - 11046s
  4014  2492      -    -    -     49700.0000 15752.7397  68.3%     - 11367s
  4042  2578      -    -    -     49700.0000 15752.7397  68.3%     - 11511s
  4146  2680      -    -    -     49700.0000 15752.7397  68.3%     - 11845s
  4266  2684      -    -    -     49700.0000 15752.7397  68.3%     - 12572s
  4270  2845      -    -    -     49700.0000 15752.7397  68.3%     - 12660s
  4479  2961      -    -    -     49700.0000 15752.7397  68.3%     - 12721s
  4619  2965      -    -    -     49700.0000 15752.7397  68.3%     - 13548s
  4623  3089      -    -    -     49700.0000 15752.7397  68.3%     - 13604s
  4759  3196      -    -    -     49700.0000 15752.7397  68.3%     - 13664s
  4896  3294      -    -    -     49700.0000 15752.7397  68.3%     - 13984s
  4994  3298      -    -    -     49700.0000 15752.7397  68.3%     - 15342s
  4998  3427      -    -    -     49700.0000 15752.7397  68.3%     - 15420s
  5127  3517      -    -    -     49700.0000 15798.0609  68.2%     - 15497s
  5244  3476      -    -    -     49700.0000 15798.0609  68.2%     - 16895s
  5248  3633      -    -    -     49700.0000 15798.0609  68.2%     - 16957s
  5421  3738      -    -    -     49700.0000 15799.5638  68.2%     - 17078s
  5559  3742      -    -    -     49700.0000 15799.5638  68.2%     - 18866s
  5563  3908      -    -    -     49700.0000 15799.5638  68.2%     - 19011s
  5743  4112      -    -    -     49700.0000 15810.0000  68.2%     - 19138s
  5997  4344      -    -    -     49700.0000 15810.0000  68.2%     - 19279s
  6249  4540      -    -    -     49700.0000 15810.0000  68.2%     - 19424s
  6457  4544      -    -    -     49700.0000 15810.0000  68.2%     - 20151s
  6461  4746      -    -    -     49700.0000 15810.3430  68.2%     - 20275s
  6691  4881      -    -    -     49700.0000 15810.3430  68.2%     - 20393s
  6844  4946      -    -    -     49700.0000 15823.0609  68.2%     - 20951s
  6919  5113      -    -    -     49700.0000 15823.9448  68.2%     - 21251s
  7116  5161      -    -    -     49700.0000 15823.9448  68.2%     - 21690s
  7164  5293      -    -    -     49700.0000 15823.9448  68.2%     - 21852s
  7334  5401      -    -    -     47700.0000 15823.9448  66.8%     - 22748s
  7442  5537      -    -    -     47700.0000 15823.9448  66.8%     - 23001s
  7578  5811      -    -    -     47700.0000 15824.2183  66.8%     - 23147s
  7897  5815      -    -    -     47700.0000 15824.2183  66.8%     - 24736s
  7901  6149      -    -    -     47700.0000 15824.2183  66.8%     - 24842s
  8281  6190      -    -    -     47700.0000 15824.2183  66.8%     - 25119s
  8336  6296      -    -    -     47700.0000 15824.2183  66.8%     - 25888s
  8442  6389      -    -    -     47700.0000 15824.2183  66.8%     - 26105s
  8551  6651      -    -    -     47700.0000 15824.2183  66.8%     - 26265s
  8853  6659      -    -    -     47700.0000 15824.2183  66.8%     - 26937s
  8861  6933      -    -    -     47700.0000 15824.2183  66.8%     - 27106s
  9173  7263      -    -    -     47700.0000 15824.2183  66.8%     - 27268s
  9565  7503      -    -    -     47700.0000 15824.2183  66.8%     - 27459s
  9853  7667      -    -    -     47700.0000 15828.7638  66.8%     - 27632s
 10017  7671      -    -    -     47700.0000 15828.7638  66.8%     - 28879s
 10021  7890      -    -    -     47700.0000 15834.3365  66.8%     - 29239s
 10292  7996      -    -    -     47700.0000 15834.3365  66.8%     - 29725s
 10400  8334      -    -    -     47700.0000 15834.3365  66.8%     - 30002s
 10788  8430      -    -    -     47700.0000 15834.3365  66.8%     - 31478s
 10894  8590      -    -    -     47700.0000 15834.3365  66.8%     - 31959s
 11064  8863      -    -    -     47700.0000 15837.0048  66.8%     - 32312s
 11401  8951      -    -    -     47700.0000 15837.0048  66.8%     - 32993s
 11489  9407      -    -    -     47700.0000 15837.6144  66.8%     - 33296s
 12056  9694      -    -    -     47700.0000 15839.2005  66.8%     - 33629s
 12415  9911      -    -    -     47700.0000 15839.2005  66.8%     - 34018s
 12658 10064      -    -    -     47700.0000 15839.2005  66.8%     - 34527s
 12792 10028      -    -    -     47700.0000 15839.2005  66.8%     - 34527s
 12827 10508      -    -    -     47700.0000 15839.2005  66.8%     - 34885s
 13396 10512      -    -    -     47700.0000 15839.2005  66.8%     - 36490s
 13400 10625      -    -    -     47700.0000 15839.2005  66.8%     - 37324s
 13513 10860      -    -    -     47700.0000 15839.2005  66.8%     - 37603s
 13781 10872      -    -    -     47700.0000 15839.2005  66.8%     - 38077s
 13793 11317      -    -    -     47700.0000 15839.2005  66.8%     - 38389s
 14338 11678      -    -    -     47700.0000 15839.2005  66.8%     - 38630s
 14732 11831      -    -    -     47700.0000 15840.8850  66.8%     - 39542s
 14942 12117      -    -    -     47700.0000 15841.3404  66.8%     - 39866s
 15268 12387      -    -    -     47700.0000 15845.4887  66.8%     - 40251s
 15581 12540      -    -    -     47700.0000 15845.4887  66.8%     - 40558s
 15760 12556      -    -    -     47700.0000 15845.4887  66.8%     - 41911s
 15776 12990      -    -    -     47700.0000 15845.4887  66.8%     - 42175s
 16317 13083      -    -    -     47700.0000 15845.4887  66.8%     - 42540s
 16410 13470      -    -    -     47700.0000 15847.9125  66.8%     - 42841s
 16852 13809      -    -    -     47700.0000 15847.9125  66.8%     - 43121s
 17251 13976      -    -    -     47700.0000 15847.9125  66.8%     - 43602s
 17452 14433      -    -    -     47700.0000 15847.9125  66.8%     - 43869s
 18009 14954      -    -    -     47700.0000 15847.9125  66.8%     - 44187s
 18661 14969      -    -    -     47700.0000 15847.9125  66.8%     - 45687s
 18690 15341      -    -    -     47700.0000 15847.9125  66.8%     - 45955s
 19128 15398      -    -    -     47700.0000 15847.9125  66.8%     - 46611s
 19195 15699      -    -    -     47700.0000 15847.9125  66.8%     - 46915s
 19520 16169      -    -    -     47700.0000 15847.9125  66.8%     - 48095s
 20057 16897      -    -    -     47700.0000 15847.9125  66.8%     - 48525s
 20861 17261      -    -    -     47700.0000 15847.9125  66.8%     - 49195s
 20870 17219      -    -    -     47700.0000 15847.9125  66.8%     - 49195s
 21309 17317      -    -    -     47700.0000 15847.9125  66.8%     - 49676s
 21417 17683      -    -    -     47700.0000 15847.9125  66.8%     - 49959s
 21899 17685      -    -    -     47700.0000 15847.9125  66.8%     - 51212s
 21905 17877      -    -    -     47700.0000 15847.9125  66.8%     - 51638s
 22111 18001      -    -    -     47700.0000 15847.9125  66.8%     - 51945s
 22255 18099      -    -    -     47700.0000 15847.9125  66.8%     - 53266s
 22363 18410      -    -    -     47700.0000 15847.9125  66.8%     - 53534s
 22705 19061      -    -    -     47700.0000 15847.9125  66.8%     - 53830s
 23469 19423      -    -    -     47700.0000 15847.9125  66.8%     - 54168s
 23891 19427      -    -    -     47700.0000 15849.3609  66.8%     - 55177s
 23895 19742      -    -    -     47700.0000 15849.3609  66.8%     - 55550s
 24210 20069      -    -    -     47700.0000 15849.3609  66.8%     - 55885s
 24602 20086      -    -    -     47700.0000 15849.3609  66.8%     - 57399s
 24619 20630      -    -    -     47700.0000 15849.3609  66.8%     - 57844s
 25298 20900      -    -    -     47700.0000 15849.3609  66.8%     - 58210s
 25602 21315      -    -    -     47700.0000 15849.8744  66.8%     - 58534s
 26107 21592      -    -    -     47700.0000 15851.5432  66.8%     - 58832s
 26416 21596      -    -    -     47700.0000 15851.5432  66.8%     - 59993s
 26420 22122      -    -    -     47700.0000 15852.8243  66.8%     - 60314s
 27028 22140      -    -    -     47700.0000 15853.4896  66.8%     - 60727s
 27055 22153      -    -    -     47700.0000 15853.4896  66.8%     - 62628s
 27082 22768      -    -    -     47700.0000 15853.4896  66.8%     - 63004s
 27825 22890      -    -    -     47700.0000 15855.1536  66.8%     - 64266s
 27979 23084      -    -    -     47700.0000 15855.1536  66.8%     - 64836s
 28190 23452      -    -    -     47700.0000 15855.1536  66.8%     - 65360s
 28598 23977      -    -    -     47700.0000 15856.8014  66.8%     - 65652s
 29200 24268      -    -    -     47700.0000 15857.9125  66.8%     - 66148s
 29551 24354      -    -    -     47700.0000 15857.9778  66.8%     - 66605s
 29653 24857      -    -    -     47700.0000 15857.9778  66.8%     - 66857s
 30242 24930      -    -    -     47700.0000 15860.2553  66.7%     - 67736s
 30329 25597      -    -    -     47700.0000 15860.3182  66.7%     - 67998s
 31120 25633      -    -    -     47700.0000 15860.5285  66.7%     - 68654s
 31156 25947      -    -    -     47700.0000 15860.5895  66.7%     - 68972s
 31523 26401      -    -    -     47700.0000 15860.6097  66.7%     - 69326s
 32064 26884      -    -    -     47700.0000 15862.3429  66.7%     - 69605s
 32668 27432      -    -    -     47700.0000 15862.8760  66.7%     - 69855s
 33300 28059      -    -    -     47700.0000 15863.4816  66.7%     - 70192s
 34040 28236      -    -    -     47700.0000 15865.8654  66.7%     - 70847s
 34254 28514      -    -    -     47700.0000 15865.9631  66.7%     - 71491s
 34608 29041      -    -    -     47700.0000 15866.5360  66.7%     - 71756s
 35241 29565      -    -    -     47700.0000 15867.6464  66.7%     - 72136s
 35842 29700      -    -    -     47700.0000 15867.6692  66.7%     - 72911s
 36021 29929      -    -    -     47700.0000 15867.6692  66.7%     - 73539s
 36298 30295      -    -    -     47700.0000 15867.6692  66.7%     - 73849s
 36720 30299      -    -    -     47700.0000 15867.6692  66.7%     - 74694s
 36724 30687      -    -    -     47700.0000 15867.6692  66.7%     - 75026s
 37222 30918      -    -    -     47700.0000 15867.6692  66.7%     - 75291s
 37485 31116      -    -    -     47700.0000 15867.6692  66.7%     - 76033s
 37695 31483      -    -    -     47700.0000 15867.6692  66.7%     - 76349s
 38109 31942      -    -    -     47700.0000 15867.6692  66.7%     - 76599s
 38713 32106      -    -    -     47700.0000 15870.1347  66.7%     - 76875s
 38877 32162      -    -    -     47700.0000 15870.1347  66.7%     - 77566s
 38961 32718      -    -    -     47700.0000 15870.1347  66.7%     - 77817s
 39576 33072      -    -    -     47700.0000 15871.6302  66.7%     - 78069s
 39992 33543      -    -    -     47700.0000 15871.6879  66.7%     - 78333s
 40495 33884      -    -    -     47700.0000 15873.0609  66.7%     - 78582s
 40900 34126      -    -    -     47700.0000 15873.7809  66.7%     - 78802s
 41175 34313      -    -    -     47700.0000 15874.2183  66.7%     - 79121s
 41398 34898      -    -    -     47700.0000 15874.4538  66.7%     - 79458s
 42093 35154      -    -    -     47700.0000 15875.4760  66.7%     - 79723s
 42404 35570      -    -    -     47700.0000 15875.7129  66.7%     - 79999s
 42912 35672      -    -    -     47700.0000 15876.8817  66.7%     - 80406s
 43041 35839      -    -    -     47700.0000 15876.8817  66.7%     - 81179s
 43218 35931      -    -    -     47700.0000 15876.8817  66.7%     - 81444s
 43310 36015      -    -    -     47700.0000 15876.8817  66.7%     - 83123s
 43420 36178      -    -    -     47700.0000 15876.8817  66.7%     - 83555s
 43583 36514      -    -    -     47700.0000 15877.7311  66.7%     - 84008s
 43991 36594      -    -    -     47700.0000 15878.5627  66.7%     - 84949s
 44089 37296      -    -    -     47700.0000 15878.5992  66.7%     - 85312s
 44926 37466      -    -    -     47700.0000 15880.7550  66.7%     - 85952s
 45122 37834      -    -    -     47700.0000 15880.7550  66.7%     - 86243s
 45552 38146      -    -    -     47700.0000 15880.7550  66.7%     - 86676s
 45927 38837      -    -    -     47700.0000 15880.7550  66.7%     - 87090s
 46731 39173      -    -    -     47700.0000 15880.7550  66.7%     - 87455s
 47089 39701      -    -    -     47700.0000 15881.7688  66.7%     - 87760s
 47729 40189      -    -    -     47700.0000 15882.0577  66.7%     - 88089s
 48309 40350      -    -    -     47700.0000 15882.0577  66.7%     - 88417s
 48502 40410      -    -    -     47700.0000 15882.0577  66.7%     - 88857s
 48585 40768      -    -    -     46900.0000 15882.1187  66.1%     - 89484s
 48987 41079      -    -    -     46900.0000 15882.1187  66.1%     - 89787s
 49411 41375      -    -    -     46700.0000 15882.1187  66.0%     - 90186s
 49755 41379      -    -    -     46700.0000 15882.1187  66.0%     - 91276s
 49759 41729      -    -    -     46700.0000 15882.1223  66.0%     - 91615s
 50192 42233      -    -    -     46700.0000 15882.9525  66.0%     - 91965s
 50768 42237      -    -    -     46700.0000 15883.2459  66.0%     - 92840s
 50772 42345      -    -    -     46700.0000 15883.2459  66.0%     - 93750s
 50880 42453      -    -    -     46700.0000 15883.2459  66.0%     - 94369s
 50988 43007      -    -    -     46700.0000 15883.4518  66.0%     - 94670s
 51616 43281      -    -    -     46700.0000 15883.8129  66.0%     - 95138s
 51943 43285      -    -    -     46700.0000 15883.8129  66.0%     - 96600s
 51947 43562      -    -    -     46700.0000 15883.8129  66.0%     - 96928s
 52274 44038      -    -    -     46700.0000 15883.8129  66.0%     - 97238s
 52877 44101      -    -    -     46700.0000 15883.8129  66.0%     - 98012s
 52940 44190      -    -    -     46700.0000 15883.8129  66.0%     - 98348s
 53047 44602      -    -    -     46700.0000 15883.8129  66.0%     - 98681s
 53513 44922      -    -    -     46700.0000 15884.3365  66.0%     - 99026s
 53893 45429      -    -    -     46700.0000 15885.4291  66.0%     - 99372s
 54526 45871      -    -    -     46700.0000 15885.9352  66.0%     - 99746s
 55026 46054      -    -    -     46700.0000 15885.9352  66.0%     - 100064s
 55257 46058      -    -    -     46700.0000 15885.9352  66.0%     - 101537s
 55261 46476      -    -    -     46700.0000 15885.9352  66.0%     - 101878s
 55721 46897      -    -    -     46700.0000 15885.9352  66.0%     - 102238s
 56185 47337      -    -    -     46700.0000 15885.9352  66.0%     - 102540s
 56775 47680      -    -    -     46700.0000 15885.9352  66.0%     - 102837s
 57220 47913      -    -    -     46700.0000 15886.4364  66.0%     - 103351s
 57515 47960      -    -    -     46700.0000 15886.7229  66.0%     - 104120s
 57580 48266      -    -    -     46700.0000 15886.7229  66.0%     - 104481s
 57931 48707      -    -    -     46700.0000 15886.7229  66.0%     - 104861s
 58400 48808      -    -    -     46700.0000 15886.7229  66.0%     - 105826s
 58543 49104      -    -    -     46700.0000 15886.7229  66.0%     - 106893s
 58851 49523      -    -    -     46700.0000 15886.7229  66.0%     - 107656s
 59329 49978      -    -    -     46700.0000 15886.9435  66.0%     - 108037s
 59899 50103      -    -    -     46700.0000 15886.9435  66.0%     - 109964s
 60044 50462      -    -    -     46700.0000 15886.9435  66.0%     - 110373s
 60444 50646      -    -    -     46700.0000 15886.9435  66.0%     - 110873s
 60688 50650      -    -    -     46700.0000 15886.9435  66.0%     - 112265s
 60692 50932      -    -    -     46700.0000 15886.9435  66.0%     - 112736s
 61012 51378      -    -    -     46700.0000 15887.3427  66.0%     - 113119s
 61583 51726      -    -    -     46700.0000 15887.3427  66.0%     - 113500s
 61985 52295      -    -    -     46700.0000 15887.3427  66.0%     - 113814s
 62678 52523      -    -    -     46700.0000 15887.9125  66.0%     - 114183s
 62960 53114      -    -    -     46700.0000 15887.9125  66.0%     - 114488s
 63659 53351      -    -    -     46700.0000 15889.5595  66.0%     - 115064s
 63945 53686      -    -    -     46700.0000 15889.9014  66.0%     - 115445s
 64321 54161      -    -    -     46700.0000 15890.2839  66.0%     - 115882s
 64918 54571      -    -    -     46700.0000 15891.0545  66.0%     - 116206s
 65328 55249      -    -    -     46700.0000 15891.0784  66.0%     - 116633s
 66131 55376      -    -    -     46700.0000 15891.0784  66.0%     - 117108s
 66295 55519      -    -    -     46700.0000 15891.0784  66.0%     - 117685s
 66468 55790      -    -    -     46700.0000 15891.1864  66.0%     - 118345s
 66771 56256      -    -    -     46700.0000 15891.1864  66.0%     - 118816s
 67306 56535      -    -    -     46700.0000 15891.1864  66.0%     - 119444s
 67635 56539      -    -    -     46700.0000 15891.1864  66.0%     - 121460s
 67639 56923      -    -    -     46700.0000 15891.6968  66.0%     - 121865s
 68070 57082      -    -    -     46700.0000 15892.2180  66.0%     - 122175s
 68291 57086      -    -    -     46700.0000 15892.2180  66.0%     - 123066s
 68295 57613      -    -    -     46700.0000 15892.2180  66.0%     - 123364s
 68916 58142      -    -    -     46700.0000 15892.2180  66.0%     - 123679s
 69542 58595      -    -    -     46700.0000 15892.2180  66.0%     - 123995s
 70060 59041      -    -    -     46700.0000 15892.2180  66.0%     - 124293s
 70580 59379      -    -    -     46700.0000 15892.6692  66.0%     - 124587s
 71035 59383      -    -    -     46700.0000 15893.2016  66.0%     - 125417s
 71039 59978      -    -    -     46700.0000 15893.6869  66.0%     - 125790s
 71749 60398      -    -    -     46700.0000 15894.2480  66.0%     - 126081s
 72250 60634      -    -    -     46700.0000 15894.2628  66.0%     - 126352s
 72536 60970      -    -    -     46700.0000 15894.2628  66.0%     - 126654s
 72882 61410      -    -    -     46700.0000 15894.2690  66.0%     - 126993s
 73379 61757      -    -    -     46700.0000 15894.3478  66.0%     - 127278s
 73831 62029      -    -    -     46700.0000 15894.3804  66.0%     - 127620s
 74157 62187      -    -    -     46700.0000 15894.3804  66.0%     - 128184s
 74362 62604      -    -    -     46700.0000 15894.3804  66.0%     - 128520s
 74811 62933      -    -    -     46700.0000 15894.3804  66.0%     - 128881s
 75188 63467      -    -    -     46700.0000 15896.1712  66.0%     - 129187s
 75818 63641      -    -    -     46700.0000 15896.3434  66.0%     - 129887s
 76008 63981      -    -    -     46700.0000 15896.3434  66.0%     - 130344s
 76408 64109      -    -    -     46700.0000 15896.3434  66.0%     - 131717s
 76548 64275      -    -    -     46700.0000 15896.3434  66.0%     - 132265s
 76736 64727      -    -    -     46700.0000 15896.3612  66.0%     - 132612s
 77264 64731      -    -    -     46700.0000 15896.3612  66.0%     - 133272s
 77268 65143      -    -    -     46700.0000 15896.3612  66.0%     - 134552s
 77769 65147      -    -    -     46700.0000 15896.3612  66.0%     - 135680s
 77773 65392      -    -    -     46700.0000 15896.3612  66.0%     - 136529s
 78087 65707      -    -    -     46700.0000 15896.3612  66.0%     - 137075s
 78472 65891      -    -    -     46700.0000 15896.3612  66.0%     - 137556s
 78676 66184      -    -    -     46700.0000 15896.7420  66.0%     - 138109s
 79033 66570      -    -    -     46700.0000 15896.7420  66.0%     - 138588s
 79477 67221      -    -    -     46700.0000 15897.5795  66.0%     - 139164s
 80286 67225      -    -    -     46700.0000 15897.9125  66.0%     - 141609s
 80290 67699      -    -    -     46700.0000 15897.9125  66.0%     - 142121s
 80828 67976      -    -    -     46700.0000 15897.9125  66.0%     - 142768s
 81183 68015      -    -    -     46700.0000 15897.9125  66.0%     - 143373s
 81234 68740      -    -    -     46700.0000 15897.9125  66.0%     - 143847s
 82060 69192      -    -    -     46700.0000 15897.9125  66.0%     - 144356s
 82532 69230      -    -    -     46700.0000 15897.9125  66.0%     - 146079s
 82570 70044      -    -    -     46700.0000 15897.9125  66.0%     - 146626s
 83524 70546      -    -    -     46700.0000 15897.9125  66.0%     - 146955s
 84110 70964      -    -    -     46700.0000 15897.9125  66.0%     - 147318s
 84587 71022      -    -    -     46700.0000 15897.9125  66.0%     - 147740s
 84645 71286      -    -    -     46700.0000 15897.9125  66.0%     - 148297s
 84961 71860      -    -    -     46700.0000 15897.9125  66.0%     - 148781s
 85668 72044      -    -    -     46700.0000 15897.9125  66.0%     - 149161s
 85872 72106      -    -    -     46700.0000 15897.9125  66.0%     - 150037s
 85951 72444      -    -    -     46700.0000 15897.9125  66.0%     - 150392s
 86355 72922      -    -    -     46700.0000 15898.0398  66.0%     - 151001s
 86907 73077      -    -    -     46700.0000 15898.0398  66.0%     - 152698s
 87098 73328      -    -    -     46700.0000 15898.0398  66.0%     - 153139s
 87377 73759      -    -    -     46700.0000 15898.0398  66.0%     - 153422s
 87878 73763      -    -    -     46700.0000 15898.0398  66.0%     - 154232s
 87882 73938      -    -    -     46700.0000 15898.0398  66.0%     - 154834s
 88085 74391      -    -    -     46700.0000 15898.0398  66.0%     - 155130s
 88637 74438      -    -    -     46700.0000 15898.0398  66.0%     - 156403s
 88696 74824      -    -    -     46700.0000 15898.0398  66.0%     - 156982s
 89166 75329      -    -    -     46700.0000 15898.8946  66.0%     - 157478s
 89731 75481      -    -    -     46700.0000 15899.2005  66.0%     - 158241s
 89942 75747      -    -    -     46700.0000 15899.2005  66.0%     - 158606s
 90267 75886      -    -    -     46700.0000 15900.0000  66.0%     - 160367s
 90474 76468      -    -    -     46700.0000 15900.0000  66.0%     - 160830s
 91176 76720      -    -    -     46700.0000 15900.0000  66.0%     - 161414s
 91464 76724      -    -    -     46700.0000 15900.0000  66.0%     - 162892s
 91468 77039      -    -    -     46700.0000 15900.5441  66.0%     - 163297s
 91887 77554      -    -    -     46700.0000 15901.4114  65.9%     - 163890s
 92456 77923      -    -    -     46700.0000 15901.5949  65.9%     - 164385s
 92858 77927      -    -    -     46700.0000 15901.5949  65.9%     - 165198s
 92862 78569      -    -    -     46700.0000 15901.7005  65.9%     - 165778s
 93589 79116      -    -    -     46700.0000 15902.4098  65.9%     - 166236s
 94231 79120      -    -    -     46700.0000 15902.4208  65.9%     - 167189s
 94235 79646      -    -    -     46700.0000 15902.4208  65.9%     - 167669s
 94828 79769      -    -    -     46700.0000 15902.4208  65.9%     - 168089s
 94963 79994      -    -    -     46700.0000 15902.4208  65.9%     - 169035s
 95215 80414      -    -    -     46700.0000 15902.4208  65.9%     - 169510s
 95702 80418      -    -    -     46700.0000 15902.4208  65.9%     - 171355s
 95706 80825      -    -    -     46700.0000 15902.4208  65.9%     - 172183s
 96143 80846      -    -    -     46700.0000 15903.3856  65.9%     - 172801s
 96205 81487      -    -    -     46700.0000 15903.3856  65.9%     - 173261s
 97002 81915      -    -    -     46700.0000 15903.3856  65.9%     - 173680s
 97504 82270      -    -    -     46700.0000 15903.3856  65.9%     - 174265s
 97922 82563      -    -    -     46700.0000 15903.4545  65.9%     - 174852s
 98284 82650      -    -    -     46700.0000 15903.4545  65.9%     - 175776s
 98389 83182      -    -    -     46700.0000 15903.4681  65.9%     - 176320s
 99029 83186      -    -    -     46700.0000 15903.8221  65.9%     - 177092s
 99033 83571      -    -    -     46700.0000 15903.9683  65.9%     - 177702s
 99462 83724      -    -    -     46700.0000 15903.9683  65.9%     - 178089s
 99628 84122      -    -    -     46700.0000 15903.9875  65.9%     - 178496s
 100102 84126      -    -    -     46700.0000 15904.0025  65.9%     - 179322s
 100106 84678      -    -    -     46700.0000 15904.1175  65.9%     - 179770s
 100760 85191      -    -    -     46700.0000 15904.2183  65.9%     - 180188s
 101361 85531      -    -    -     46700.0000 15904.2183  65.9%     - 180656s
 101777 85751      -    -    -     46700.0000 15904.2183  65.9%     - 180993s
 102035 85807      -    -    -     46700.0000 15904.2183  65.9%     - 181942s
 102091 86476      -    -    -     46700.0000 15904.2183  65.9%     - 182417s
 102888 86625      -    -    -     46700.0000 15904.2183  65.9%     - 183197s
 103067 86870      -    -    -     46700.0000 15905.6570  65.9%     - 183832s
 103381 86874      -    -    -     46700.0000 15905.6570  65.9%     - 185285s
 103385 87533      -    -    -     46700.0000 15905.9937  65.9%     - 185789s
 103886 85360      -    -    -     46700.0000 15905.9937  65.9%     - 185789s
 104137 85352      -    -    -     46700.0000 15905.9937  65.9%     - 186392s
 104142 84246      -    -    -     46700.0000 15905.9937  65.9%     - 186711s
 104466 84349      -    -    -     46700.0000 15907.1187  65.9%     - 188305s
 104589 82658      -    -    -     46700.0000 15907.1187  65.9%     - 189512s
 104593 83288      -    -    -     46700.0000 15907.1429  65.9%     - 190030s
 105335 83716      -    -    -     46700.0000 15907.7397  65.9%     - 190542s
 105819 83816      -    -    -     46700.0000 15907.8531  65.9%     - 191695s
 105919 83924      -    -    -     46700.0000 15907.8531  65.9%     - 192715s
 106027 84347      -    -    -     46700.0000 15907.8531  65.9%     - 193327s
 106515 84351      -    -    -     46700.0000 15907.8531  65.9%     - 194195s
 106519 84519      -    -    -     46700.0000 15907.8531  65.9%     - 195324s
 106687 82922      -    -    -     46700.0000 15907.9125  65.9%     - 195841s
 107138 83026      -    -    -     46700.0000 15907.9523  65.9%     - 196605s
 107322 83040      -    -    -     46700.0000 15908.0781  65.9%     - 198464s
 107358 83285      -    -    -     46700.0000 15908.0781  65.9%     - 198935s
 107626 83289      -    -    -     46700.0000 15908.0781  65.9%     - 199523s
 107630 78590      -    -    -     46700.0000 15908.5567  65.9%     - 199894s
 108038 78735      -    -    -     46700.0000 15908.8946  65.9%     - 200624s
 108221 79050      -    -    -     46700.0000 15908.8946  65.9%     - 201340s
 108612 79316      -    -    -     46700.0000 15909.1391  65.9%     - 201520s
 108952 79486      -    -    -     46700.0000 15909.3358  65.9%     - 201990s
 109168 79874      -    -    -     46700.0000 15909.3358  65.9%     - 202316s
 109612 80312      -    -    -     46700.0000 15909.3358  65.9%     - 202574s
 110132 80852      -    -    -     46700.0000 15909.9125  65.9%     - 202725s
 110800 81120      -    -    -     46700.0000 15910.5559  65.9%     - 202978s
 111118 81786      -    -    -     46700.0000 15910.5792  65.9%     - 203229s
 111928 81962      -    -    -     46700.0000 15910.9621  65.9%     - 203464s
 112132 81965      -    -    -     46700.0000 15910.9621  65.9%     - 203799s
 112137 82286      -    -    -     46700.0000 15910.9780  65.9%     - 204258s
 112534 82290      -    -    -     46700.0000 15911.1779  65.9%     - 205194s
 112538 82649      -    -    -     46700.0000 15911.3772  65.9%     - 205363s
 112946 83131      -    -    -     46700.0000 15911.5034  65.9%     - 205668s
 113503 83135      -    -    -     46700.0000 15911.5034  65.9%     - 206281s
 113507 83715      -    -    -     46700.0000 15911.7991  65.9%     - 206521s
 114210 83985      -    -    -     46700.0000 15912.1105  65.9%     - 206760s
 114540 83989      -    -    -     46700.0000 15912.1982  65.9%     - 207249s
 114544 84097      -    -    -     46700.0000 15912.1982  65.9%     - 207266s

Cutting planes:
  Gomory: 5
  Cover: 10
  MIR: 48
  Flow cover: 259
  GUB cover: 2
  Zero half: 19
  RLT: 1772

Explored 114652 nodes (89473690 simplex iterations) in 207268.71 seconds
Thread count was 4 (of 64 available processors)

Solution count 10: 46700 

Solve interrupted
Best objective 4.670000000000e+04, best bound 1.600000000000e+04, gap 65.7388%
