4,5,7,8,9,12
4,5,7,8,9,12
4,5,7,8,9,12
0,0,0,0,0,0
12,10,11,1,2,6
12,10,11,1,2,6
12,10,11,1,2,6
12,10,11,1,2,6
12,10,11,1,2,6
12,10,11,1,2,6
0,0,0,0,0,0
3,8,9,4,5,7
3,8,9,4,5,7
3,8,9,4,5,7
3,8,9,4,5,7
3,8,9,4,5,7
3,8,9,4,5,7
0,0,0,0,0,0
1,10,11,3,2,6
1,10,11,3,2,6
1,10,11,3,2,6
1,10,11,3,2,6
1,10,11,3,2,6
1,10,11,3,2,6
0,0,0,0,0,0
5,8,12,1,4,9
5,8,12,1,4,9
5,8,12,1,4,9
5,8,12,1,4,9
5,8,12,1,4,9
5,8,12,1,4,9
0,0,0,0,0,0
3,11,6,10,2,7
3,11,6,10,2,7
3,11,6,10,2,7
3,11,6,10,2,7
3,11,6,10,2,7
3,11,6,10,2,7
0,0,0,0,0,0
2,9,8,5,1,12
2,9,8,5,1,12
2,9,8,5,1,12
2,9,8,5,1,12
2,9,8,5,1,12
2,9,8,5,1,12
0,0,0,0,0,0
1,6,10,3,4,7
1,6,10,3,4,7
1,6,10,3,4,7
5,6,10,3,4,7
5,6,10,3,4,7
5,6,10,3,4,7
0,0,0,0,0,0
12,11,8,4,1,6
12,11,8,4,1,6
12,11,8,4,1,6
12,11,8,4,1,6
12,11,8,4,1,6
12,11,8,4,1,6
0,0,0,0,0,0
7,9,3,2,12,11
7,9,3,2,12,11
7,9,3,2,12,11
7,9,3,2,12,11
7,9,3,2,12,11
7,9,3,2,12,11
0,0,0,0,0,0
6,4,5,8,10,7
6,4,5,8,10,7
6,4,5,8,10,7
6,4,5,8,10,7
6,4,5,8,10,7
6,4,5,8,10,7
0,0,0,0,0,0
9,12,8,2,5,11
9,12,8,2,5,11
9,12,8,2,5,11
9,12,8,2,1,11
9,12,8,2,1,11
9,12,8,2,1,11
0,0,0,0,0,0
10,5,9,1,3,6
10,5,9,1,3,6
10,5,9,1,3,6
10,5,9,1,3,6
10,5,9,1,3,6
10,5,9,1,3,6
11,2,7,4,8,12
0,0,0,0,0,0
11,2,7,4,8,12
11,2,7,4,8,12
11,2,7,4,8,12
11,2,7,4,8,12
11,2,7,4,8,12
0,0,0,0,0,0
10,3,6,2,11,1
10,3,6,2,11,1
10,3,6,2,11,1
10,3,6,2,11,1
10,3,6,2,11,1
10,3,6,2,11,1
0,0,0,0,0,0
0,0,0,0,0,0
0,0,0,0,0,0
0,0,0,0,0,0
7,4,8,5,9,12
7,4,8,5,9,12
7,4,8,5,9,12
0,0,0,0,0,0
10,8,5,9,3,6
10,8,5,9,3,6
10,8,5,9,3,6
10,8,5,9,3,6
10,8,5,9,3,6
10,8,5,9,3,6
0,0,0,0,0,0
4,11,2,10,5,7
4,11,2,10,5,7
4,11,2,10,5,7
4,11,2,10,1,7
4,11,2,10,1,7
4,11,2,10,1,7
0,0,0,0,0,0
5,8,3,12,6,9
5,8,3,12,6,9
5,8,3,12,6,9
5,8,3,12,6,9
5,8,3,12,6,9
5,8,3,12,6,9
0,0,0,0,0,0
1,10,4,11,7,2
1,10,4,11,7,2
1,10,4,11,7,2
1,10,4,11,7,2
1,10,4,11,7,2
1,10,4,11,7,2
0,0,0,0,0,0
4,9,3,12,7,1
4,9,3,12,7,1
4,9,3,12,7,1
4,9,3,12,7,5
4,9,3,12,7,5
4,9,3,12,7,5
0,0,0,0,0,0
1,6,2,11,8,3
1,6,2,11,8,3
1,6,2,11,8,3
1,6,2,11,8,3
1,6,2,11,8,3
1,6,2,11,8,3
0,0,0,0,0,0
5,12,4,7,9,10
5,12,4,7,9,10
5,12,4,7,9,10
5,12,4,7,9,10
5,12,4,7,9,10
5,12,4,7,9,10
0,0,0,0,0,0
0,0,0,0,0,0
