1,4,5,8,10,11
6,2,10,12,7,3
5,1,9,4,11,8
2,7,3,6,9,12
4,5,8,11,10,3
9,6,7,12,2,1
1,11,10,5,4,8
6,10,2,3,5,9
12,9,3,7,6,4
10,2,11,5,1,8
7,4,12,3,11,9
6,7,10,4,8,1
2,12,6,9,3,5
10,1,2,8,7,11
11,2,1,7,8,10
4,6,3,9,12,5
5,8,1,10,11,4
3,9,8,2,10,7
5,11,4,1,12,6
7,1,2,10,8,12
9,3,6,11,5,4
8,11,7,12,1,2
9,10,2,6,5,3
7,1,8,11,4,12
