6,2,Inf,1
6,5,Inf,7
5,1,7,1
5,1,17,5
5,1,21,9
5,3,15,1
5,3,14,3
5,3,10,11
5,4,16,2
5,5,21,5
5,5,14,7
5,5,6,8
5,6,3,2
5,6,16,5
18,1,1,2
18,1,3,2
18,1,5,2
18,1,6,3
18,1,7,2
18,1,10,2
18,1,11,2
18,1,12,2
18,1,13,3
18,1,15,2
18,1,19,2
18,1,20,2
18,1,23,2
18,2,3,3
18,2,4,2
18,2,6,2
18,2,9,3
18,2,12,2
18,2,13,3
18,2,15,2
18,2,16,2
18,2,19,3
18,2,20,2
18,2,21,2
18,2,23,3
18,3,1,3
18,3,3,2
18,3,6,2
18,3,7,3
18,3,9,2
18,3,12,3
18,3,13,2
18,3,15,2
18,3,16,2
18,3,17,3
18,3,20,2
18,3,21,2
18,3,22,3
18,3,23,3
18,4,2,2
18,4,3,2
18,4,4,2
18,4,8,2
18,4,9,2
18,4,12,2
18,4,15,2
18,4,17,3
18,4,19,3
18,4,23,2
18,5,1,2
18,5,5,3
18,5,9,2
18,5,10,3
18,5,13,2
18,5,21,2
18,5,22,2
18,6,1,2
18,6,4,2
18,6,5,2
18,6,6,3
18,6,8,2
18,6,11,3
18,6,12,2
18,6,13,2
18,6,15,3
18,6,18,2
18,6,20,2
18,6,23,2
19,3,20,Inf
19,4,16,Inf
19,4,17,Inf
20,1,9,Inf
20,1,10,Inf
20,3,13,Inf
20,4,1,Inf
20,4,2,Inf
