16,3,Inf,12
16,6,Inf,12
17,2,Inf,9
17,3,Inf,9
17,4,Inf,9
17,6,Inf,9
18,1,1,272
18,1,2,441
18,1,3,231
18,1,4,288
18,1,5,492
18,1,6,228
18,1,7,273
18,1,8,159
18,1,9,448
18,1,10,167
18,1,11,256
18,1,12,216
18,1,13,296
18,1,14,499
18,1,15,228
18,1,16,89
18,1,17,182
18,1,18,381
18,1,19,492
18,2,1,591
18,2,2,554
18,2,3,417
18,2,4,248
18,2,5,499
18,2,6,178
18,2,7,413
18,2,8,283
18,2,9,256
18,2,10,89
18,2,11,123
18,2,12,308
18,2,13,394
18,2,14,256
18,2,15,131
18,2,16,423
18,2,17,441
18,2,18,391
18,2,19,149
18,3,1,228
18,3,2,178
18,3,3,502
18,3,4,307
18,3,5,216
18,3,6,321
18,3,7,178
18,3,8,390
18,3,9,89
18,3,10,228
18,3,11,499
18,3,12,512
18,3,13,333
18,3,14,381
18,3,15,148
18,3,16,318
18,3,17,448
18,3,18,591
18,3,19,248
18,4,1,131
18,4,2,326
18,4,3,321
18,4,4,74
18,4,5,318
18,4,6,146
18,4,7,441
18,4,8,429
18,4,9,297
18,4,10,492
18,4,11,502
18,4,12,448
18,4,13,159
18,4,14,240
18,4,15,333
18,4,16,320
18,4,17,554
18,4,18,355
18,4,19,311
18,5,1,391
18,5,2,256
18,5,3,390
18,5,4,83
18,5,5,333
18,5,6,308
18,5,7,492
18,5,8,272
18,5,9,423
18,5,10,261
18,5,11,417
18,5,12,297
18,5,13,178
18,5,14,591
18,5,15,296
18,5,16,391
18,5,17,190
18,5,18,240
18,5,19,441
18,6,1,74
18,6,2,123
18,6,3,190
18,6,4,256
18,6,5,89
18,6,6,159
18,6,7,318
18,6,8,456
18,6,9,296
18,6,10,111
18,6,11,333
18,6,12,272
18,6,13,461
18,6,14,81
18,6,15,448
18,6,16,178
18,6,17,326
18,6,18,308
18,6,19,320
