4,2,13,1
11,4,Inf,5
5,1,10,7
5,1,4,9
5,2,12,1
5,2,13,1
5,2,15,9
5,3,14,5
5,3,21,8
5,3,8,12
5,6,3,2
5,6,8,10
5,6,10,10
18,1,1,2
18,1,3,2
18,1,6,3
18,1,9,2
18,1,10,3
18,1,12,2
18,1,13,2
18,1,16,3
18,1,18,2
18,1,20,2
18,2,3,2
18,2,6,3
18,2,7,2
18,2,8,2
18,2,10,3
18,2,11,2
18,2,12,2
18,2,14,3
18,2,21,2
18,2,22,3
18,3,1,2
18,3,3,3
18,3,4,2
18,3,7,2
18,3,8,2
18,3,12,2
18,3,14,2
18,3,17,2
18,3,19,3
18,3,22,2
18,3,23,2
18,4,2,2
18,4,5,2
18,4,6,2
18,4,7,3
18,4,9,2
18,4,10,2
18,4,13,2
18,4,16,2
18,4,17,3
18,4,18,2
18,4,20,2
18,4,22,2
18,4,23,3
18,5,1,2
18,5,3,3
18,5,5,2
18,5,6,3
18,5,8,2
18,5,11,3
18,5,12,2
18,5,13,2
18,5,15,2
18,5,17,2
18,5,19,3
18,5,20,2
18,5,21,2
18,5,23,2
18,6,1,2
18,6,4,2
18,6,5,2
18,6,12,3
18,6,13,2
18,6,15,2
18,6,16,2
18,6,17,3
18,6,19,2
18,6,22,2
18,6,23,2
19,5,3,Inf
20,5,12,Inf
20,5,20,Inf
20,6,13,Inf
