0,0,0,0,0,0,0,0,0,0,0,0
0,0,0,0,0,0,0,0,0,0,0,0
0,0,0,0,0,0,0,0,0,0,0,0
0,0,0,0,0,0,0,0,0,0,0,0
0,0,0,0,0,0,0,0,0,0,0,0
0,0,0,0,0,0,0,0,0,0,0,0
2,-1,-4,3,6,-5,-8,7,-11,12,9,-10
2,-1,-4,3,6,-5,-8,7,-11,12,9,-10
2,-1,-4,3,6,-5,-8,7,-11,12,9,-10
0,0,0,0,0,0,0,0,0,0,0,0
-3,5,1,-7,-2,8,4,-6,-12,11,-10,9
-3,5,1,-7,-2,8,4,-6,-12,11,-10,9
-3,5,1,-7,-2,8,4,-6,-12,11,-10,9
-3,5,1,-7,-2,8,4,-6,-12,11,-10,9
-3,5,1,-7,-2,8,4,-6,-12,11,-10,9
-3,5,1,-7,-2,8,4,-6,-12,11,-10,9
0,0,0,0,0,0,0,0,0,0,0,0
12,-8,-5,10,3,-11,-9,2,7,-4,6,-1
12,-8,-5,10,3,-11,-9,2,7,-4,6,-1
12,-8,-5,10,3,-11,-9,2,7,-4,6,-1
12,-8,-5,10,3,-11,-9,2,7,-4,6,-1
12,-8,-5,10,3,-11,-9,2,7,-4,6,-1
12,-8,-5,10,3,-11,-9,2,7,-4,6,-1
0,0,0,0,0,0,0,0,0,0,0,0
-9,10,4,-3,-6,5,8,-7,1,-2,-12,11
-9,10,4,-3,-6,5,8,-7,1,-2,-12,11
-9,10,4,-3,-6,5,8,-7,1,-2,-12,11
-9,10,4,-3,-6,5,8,-7,1,-2,-12,11
-9,10,4,-3,-6,5,8,-7,1,-2,-12,11
-9,10,4,-3,-6,5,8,-7,1,-2,-12,11
0,0,0,0,0,0,0,0,0,0,0,0
-11,-3,2,12,9,-8,-10,6,-5,7,1,-4
-11,-3,2,12,9,-8,-10,6,-5,7,1,-4
-11,-3,2,12,9,-8,-10,6,-5,7,1,-4
-11,-3,2,12,9,-8,-10,6,-5,7,1,-4
-11,-3,2,12,9,-8,-10,6,-5,7,1,-4
-11,-3,2,12,9,-8,-10,6,-5,7,1,-4
0,0,0,0,0,0,0,0,0,0,0,0
4,8,-6,-1,-7,3,5,-2,11,-12,-9,10
4,8,-6,-1,-7,3,5,-2,11,-12,-9,10
4,8,-6,-1,-7,3,5,-2,11,-12,-9,10
4,8,-6,-1,-7,3,5,-2,11,-12,-9,10
4,8,-6,-1,-7,3,5,-2,11,-12,-9,10
4,8,-6,-1,-7,3,5,-2,11,-12,-9,10
0,0,0,0,0,0,0,0,0,0,0,0
2,-1,-4,3,6,-5,-8,7,-10,9,12,-11
2,-1,-4,3,6,-5,-8,7,-10,9,12,-11
2,-1,-4,3,6,-5,-8,7,-10,9,12,-11
2,-1,-4,3,6,-5,-8,7,-10,9,12,-11
2,-1,-4,3,6,-5,-8,7,-10,9,12,-11
2,-1,-4,3,6,-5,-8,7,-10,9,12,-11
0,0,0,0,0,0,0,0,0,0,0,0
-10,4,11,-2,8,7,-6,-5,12,1,-3,-9
-10,4,11,-2,8,7,-6,-5,12,1,-3,-9
-10,4,11,-2,8,7,-6,-5,12,1,-3,-9
-10,4,11,-2,8,7,-6,-5,12,1,-3,-9
-10,4,11,-2,8,7,-6,-5,12,1,-3,-9
-10,4,11,-2,8,7,-6,-5,12,1,-3,-9
0,0,0,0,0,0,0,0,0,0,0,0
-12,-7,5,11,-3,10,2,-9,8,-6,-4,1
-12,-7,5,11,-3,10,2,-9,8,-6,-4,1
-12,-7,5,11,-3,10,2,-9,8,-6,-4,1
-12,-7,5,11,-3,10,2,-9,8,-6,-4,1
-12,-7,5,11,-3,10,2,-9,8,-6,-4,1
-12,-7,5,11,-3,10,2,-9,8,-6,-4,1
0,0,0,0,0,0,0,0,0,0,0,0
7,3,-2,-10,12,-8,-1,6,-11,4,9,-5
7,3,-2,-10,12,-8,-1,6,-11,4,9,-5
7,3,-2,-10,12,-8,-1,6,-11,4,9,-5
7,3,-2,-10,12,-8,-1,6,-11,4,9,-5
7,3,-2,-10,12,-8,-1,6,-11,4,9,-5
7,3,-2,-10,12,-8,-1,6,-11,4,9,-5
0,0,0,0,0,0,0,0,0,0,0,0
-4,-12,6,1,-11,-3,8,-7,10,-9,5,2
-4,-12,6,1,-11,-3,8,-7,10,-9,5,2
-4,-12,6,1,-11,-3,8,-7,10,-9,5,2
-4,-12,6,1,-11,-3,8,-7,10,-9,5,2
-4,-12,6,1,-11,-3,8,-7,10,-9,5,2
-4,-12,6,1,-11,-3,8,-7,10,-9,5,2
0,0,0,0,0,0,0,0,0,0,0,0
3,-4,-1,2,-6,5,9,12,-7,11,-10,-8
3,-4,-1,2,-6,5,9,12,-7,11,-10,-8
3,-4,-1,2,-6,5,9,12,-7,11,-10,-8
3,-4,-1,2,-6,5,9,12,-7,11,-10,-8
3,-4,-1,2,-6,5,9,12,-7,11,-10,-8
3,-4,-1,2,-6,5,9,12,-7,11,-10,-8
0,0,0,0,0,0,0,0,0,0,0,0
-2,1,4,-3,7,8,-5,-6,11,-12,-9,10
-2,1,4,-3,7,8,-5,-6,11,-12,-9,10
-2,1,4,-3,7,8,-5,-6,11,-12,-9,10
-2,1,4,-3,7,8,-5,-6,11,-12,-9,10
-2,1,4,-3,7,8,-5,-6,11,-12,-9,10
-2,1,4,-3,7,8,-5,-6,11,-12,-9,10
4,3,-2,-1,-8,-7,6,5,-10,9,12,-11
0,0,0,0,0,0,0,0,0,0,0,0
4,3,-2,-1,-8,-7,6,5,-10,9,12,-11
4,3,-2,-1,-8,-7,6,5,-10,9,12,-11
4,3,-2,-1,-8,-7,6,5,-10,9,12,-11
4,3,-2,-1,-8,-7,6,5,-10,9,12,-11
4,3,-2,-1,-8,-7,6,5,-10,9,12,-11
0,0,0,0,0,0,0,0,0,0,0,0
-5,-9,10,8,1,11,-12,-4,2,-3,-6,7
-5,-9,10,8,1,11,-12,-4,2,-3,-6,7
-5,-9,10,8,1,11,-12,-4,2,-3,-6,7
-5,-9,10,8,1,11,-12,-4,2,-3,-6,7
-5,-9,10,8,1,11,-12,-4,2,-3,-6,7
-5,-9,10,8,1,11,-12,-4,2,-3,-6,7
0,0,0,0,0,0,0,0,0,0,0,0
0,0,0,0,0,0,0,0,0,0,0,0
0,0,0,0,0,0,0,0,0,0,0,0
0,0,0,0,0,0,0,0,0,0,0,0
2,-1,-4,3,6,-5,-8,7,-11,12,9,-10
2,-1,-4,3,6,-5,-8,7,-11,12,9,-10
2,-1,-4,3,6,-5,-8,7,-11,12,9,-10
0,0,0,0,0,0,0,0,0,0,0,0
-3,4,1,-2,-7,-10,5,11,12,6,-8,-9
-3,4,1,-2,-7,-10,5,11,12,6,-8,-9
-3,4,1,-2,-7,-10,5,11,12,6,-8,-9
-3,4,1,-2,-7,-10,5,11,12,6,-8,-9
-3,4,1,-2,-7,-10,5,11,12,6,-8,-9
-3,4,1,-2,-7,-10,5,11,12,6,-8,-9
0,0,0,0,0,0,0,0,0,0,0,0
9,-6,-12,7,8,2,-4,-5,-1,-11,10,3
9,-6,-12,7,8,2,-4,-5,-1,-11,10,3
9,-6,-12,7,8,2,-4,-5,-1,-11,10,3
9,-6,-12,7,8,2,-4,-5,-1,-11,10,3
9,-6,-12,7,8,2,-4,-5,-1,-11,10,3
9,-6,-12,7,8,2,-4,-5,-1,-11,10,3
0,0,0,0,0,0,0,0,0,0,0,0
5,9,-10,-8,-1,-7,6,4,-2,3,-12,11
5,9,-10,-8,-1,-7,6,4,-2,3,-12,11
5,9,-10,-8,-1,-7,6,4,-2,3,-12,11
5,9,-10,-8,-1,-7,6,4,-2,3,-12,11
5,9,-10,-8,-1,-7,6,4,-2,3,-12,11
5,9,-10,-8,-1,-7,6,4,-2,3,-12,11
0,0,0,0,0,0,0,0,0,0,0,0
-4,-3,2,1,7,12,-5,-11,10,-9,8,-6
-4,-3,2,1,7,12,-5,-11,10,-9,8,-6
-4,-3,2,1,7,12,-5,-11,10,-9,8,-6
-4,-3,2,1,7,12,-5,-11,10,-9,8,-6
-4,-3,2,1,7,12,-5,-11,10,-9,8,-6
-4,-3,2,1,7,12,-5,-11,10,-9,8,-6
0,0,0,0,0,0,0,0,0,0,0,0
3,6,-1,-11,-8,-2,10,5,-12,-7,4,9
3,6,-1,-11,-8,-2,10,5,-12,-7,4,9
3,6,-1,-11,-8,-2,10,5,-12,-7,4,9
3,6,-1,-11,-8,-2,10,5,-12,-7,4,9
3,6,-1,-11,-8,-2,10,5,-12,-7,4,9
3,6,-1,-11,-8,-2,10,5,-12,-7,4,9
0,0,0,0,0,0,0,0,0,0,0,0
-2,1,8,-9,11,7,-6,-3,4,12,-5,-10
-2,1,8,-9,11,7,-6,-3,4,12,-5,-10
-2,1,8,-9,11,7,-6,-3,4,12,-5,-10
-2,1,8,-9,11,7,-6,-3,4,12,-5,-10
-2,1,8,-9,11,7,-6,-3,4,12,-5,-10
-2,1,8,-9,11,7,-6,-3,4,12,-5,-10
0,0,0,0,0,0,0,0,0,0,0,0
6,-4,-7,2,-12,-1,3,9,-8,-11,10,5
6,-4,-7,2,-12,-1,3,9,-8,-11,10,5
6,-4,-7,2,-12,-1,3,9,-8,-11,10,5
6,-4,-7,2,-12,-1,3,9,-8,-11,10,5
6,-4,-7,2,-12,-1,3,9,-8,-11,10,5
6,-4,-7,2,-12,-1,3,9,-8,-11,10,5
