3,5,6,7,8
4,1,10,2,9
7,8,5,3,6
10,1,4,2,9
8,3,6,5,7
9,4,10,3,2
5,10,8,1,6
8,7,1,4,9
6,10,2,5,3
4,9,1,7,6
3,10,8,2,4
5,9,2,7,1
6,8,4,9,3
2,7,5,10,1
2,7,5,10,1
5,6,3,7,8
10,1,9,4,2
5,9,4,3,6
8,7,10,1,2
4,1,6,8,5
3,5,7,9,2
7,2,10,8,1
9,6,4,10,3
8,5,3,6,7
9,1,2,4,10
