3,5,6,7,8
4,1,10,2,9
7,6,5,3,8
10,9,2,1,4
6,7,5,3,8
10,2,3,4,9
8,10,1,5,6
1,7,4,8,9
2,10,5,6,3
1,9,4,7,6
3,4,10,8,2
1,2,9,7,5
3,4,8,9,6
2,1,7,10,5
2,1,7,10,5
5,8,6,7,3
10,2,4,9,1
3,6,9,4,5
2,10,7,8,1
6,4,8,1,5
7,3,9,5,2
10,7,8,2,1
4,9,10,6,3
3,8,6,5,7
2,1,9,4,10
