-8,-3,2,-5,4,9,10,1,-6,-7
-8,-3,2,-5,4,9,10,1,-6,-7
-8,-3,2,-5,4,9,10,1,-6,-7
0,0,0,0,0,0,0,0,0,0
3,5,-1,6,-2,-4,-9,-10,7,8
3,5,-1,6,-2,-4,-9,-10,7,8
3,5,-1,6,-2,-4,-9,-10,7,8
3,5,-1,6,-2,-4,-9,-10,7,8
3,5,-1,6,-2,-4,-9,-10,7,8
3,5,-1,6,-2,-4,-9,-10,7,8
0,0,0,0,0,0,0,0,0,0
-7,-8,4,-3,9,10,1,2,-5,-6
-7,-8,4,-3,9,10,1,2,-5,-6
-7,-8,4,-3,9,10,1,2,-5,-6
-7,-8,4,-3,9,10,1,2,-5,-6
-7,-8,4,-3,9,10,1,2,-5,-6
-7,-8,4,-3,9,10,1,2,-5,-6
0,0,0,0,0,0,0,0,0,0
5,6,-10,7,-1,-2,-4,-9,8,3
5,6,-10,7,-1,-2,-4,-9,8,3
5,6,-10,7,-1,-2,-4,-9,8,3
5,6,-10,7,-1,-2,-4,-9,8,3
5,6,-10,7,-1,-2,-4,-9,8,3
5,6,-10,7,-1,-2,-4,-9,8,3
0,0,0,0,0,0,0,0,0,0
-8,-3,2,-5,4,9,10,1,-6,-7
-8,-3,2,-5,4,9,10,1,-6,-7
-8,-3,2,-5,4,9,10,1,-6,-7
-8,-3,2,-5,4,9,10,1,-6,-7
-8,-3,2,-5,4,9,10,1,-6,-7
-8,-3,2,-5,4,9,10,1,-6,-7
0,0,0,0,0,0,0,0,0,0
-10,5,6,8,-2,-3,-9,-4,7,1
-10,5,6,8,-2,-3,-9,-4,7,1
-10,5,6,8,-2,-3,-9,-4,7,1
-10,5,6,8,-2,-3,-9,-4,7,1
-10,5,6,8,-2,-3,-9,-4,7,1
-10,5,6,8,-2,-3,-9,-4,7,1
0,0,0,0,0,0,0,0,0,0
2,-1,-5,-6,3,4,-8,7,-10,9
2,-1,-5,-6,3,4,-8,7,-10,9
2,-1,-5,-6,3,4,-8,7,-10,9
2,-1,-5,-6,3,4,-8,7,-10,9
2,-1,-5,-6,3,4,-8,7,-10,9
2,-1,-5,-6,3,4,-8,7,-10,9
0,0,0,0,0,0,0,0,0,0
6,-9,-4,3,-7,-1,5,10,2,-8
6,-9,-4,3,-7,-1,5,10,2,-8
6,-9,-4,3,-7,-1,5,10,2,-8
6,-9,-4,3,-7,-1,5,10,2,-8
6,-9,-4,3,-7,-1,5,10,2,-8
6,-9,-4,3,-7,-1,5,10,2,-8
0,0,0,0,0,0,0,0,0,0
-3,7,1,-10,8,9,-2,-5,-6,4
-3,7,1,-10,8,9,-2,-5,-6,4
-3,7,1,-10,8,9,-2,-5,-6,4
-3,7,1,-10,8,9,-2,-5,-6,4
-3,7,1,-10,8,9,-2,-5,-6,4
-3,7,1,-10,8,9,-2,-5,-6,4
0,0,0,0,0,0,0,0,0,0
5,-4,-9,2,-1,8,10,-6,3,-7
5,-4,-9,2,-1,8,10,-6,3,-7
5,-4,-9,2,-1,8,10,-6,3,-7
5,-4,-9,2,-1,8,10,-6,3,-7
5,-4,-9,2,-1,8,10,-6,3,-7
5,-4,-9,2,-1,8,10,-6,3,-7
0,0,0,0,0,0,0,0,0,0
-2,1,7,5,-4,-10,-3,9,-8,6
-2,1,7,5,-4,-10,-3,9,-8,6
-2,1,7,5,-4,-10,-3,9,-8,6
-2,1,7,5,-4,-10,-3,9,-8,6
-2,1,7,5,-4,-10,-3,9,-8,6
-2,1,7,5,-4,-10,-3,9,-8,6
0,0,0,0,0,0,0,0,0,0
8,3,-2,-9,10,-7,6,-1,4,-5
8,3,-2,-9,10,-7,6,-1,4,-5
8,3,-2,-9,10,-7,6,-1,4,-5
8,3,-2,-9,10,-7,6,-1,4,-5
8,3,-2,-9,10,-7,6,-1,4,-5
8,3,-2,-9,10,-7,6,-1,4,-5
0,0,0,0,0,0,0,0,0,0
-4,-6,5,1,-3,2,-8,7,10,-9
-4,-6,5,1,-3,2,-8,7,10,-9
-4,-6,5,1,-3,2,-8,7,10,-9
-4,-6,5,1,-3,2,-8,7,10,-9
-4,-6,5,1,-3,2,-8,7,10,-9
-4,-6,5,1,-3,2,-8,7,10,-9
3,4,-1,-2,6,-5,9,-10,-7,8
0,0,0,0,0,0,0,0,0,0
3,4,-1,-2,6,-5,9,-10,-7,8
3,4,-1,-2,6,-5,9,-10,-7,8
3,4,-1,-2,6,-5,9,-10,-7,8
3,4,-1,-2,6,-5,9,-10,-7,8
3,4,-1,-2,6,-5,9,-10,-7,8
0,0,0,0,0,0,0,0,0,0
-5,-7,4,-3,1,10,2,9,-8,-6
-5,-7,4,-3,1,10,2,9,-8,-6
-5,-7,4,-3,1,10,2,9,-8,-6
-5,-7,4,-3,1,10,2,9,-8,-6
-5,-7,4,-3,1,10,2,9,-8,-6
-5,-7,4,-3,1,10,2,9,-8,-6
0,0,0,0,0,0,0,0,0,0
0,0,0,0,0,0,0,0,0,0
0,0,0,0,0,0,0,0,0,0
0,0,0,0,0,0,0,0,0,0
8,3,-2,5,-4,-9,-10,-1,6,7
8,3,-2,5,-4,-9,-10,-1,6,7
8,3,-2,5,-4,-9,-10,-1,6,7
0,0,0,0,0,0,0,0,0,0
-4,-5,8,1,2,7,-6,-3,10,-9
-4,-5,8,1,2,7,-6,-3,10,-9
-4,-5,8,1,2,7,-6,-3,10,-9
-4,-5,8,1,2,7,-6,-3,10,-9
-4,-5,8,1,2,7,-6,-3,10,-9
-4,-5,8,1,2,7,-6,-3,10,-9
0,0,0,0,0,0,0,0,0,0
9,4,-7,-2,-10,-8,3,6,-1,5
9,4,-7,-2,-10,-8,3,6,-1,5
9,4,-7,-2,-10,-8,3,6,-1,5
9,4,-7,-2,-10,-8,3,6,-1,5
9,4,-7,-2,-10,-8,3,6,-1,5
9,4,-7,-2,-10,-8,3,6,-1,5
0,0,0,0,0,0,0,0,0,0
2,-1,-6,9,7,3,-5,10,-4,-8
2,-1,-6,9,7,3,-5,10,-4,-8
2,-1,-6,9,7,3,-5,10,-4,-8
2,-1,-6,9,7,3,-5,10,-4,-8
2,-1,-6,9,7,3,-5,10,-4,-8
2,-1,-6,9,7,3,-5,10,-4,-8
0,0,0,0,0,0,0,0,0,0
-3,10,1,-5,4,-9,8,-7,6,-2
-3,10,1,-5,4,-9,8,-7,6,-2
-3,10,1,-5,4,-9,8,-7,6,-2
-3,10,1,-5,4,-9,8,-7,6,-2
-3,10,1,-5,4,-9,8,-7,6,-2
-3,10,1,-5,4,-9,8,-7,6,-2
0,0,0,0,0,0,0,0,0,0
4,3,-2,-1,-8,-7,6,5,-10,9
4,3,-2,-1,-8,-7,6,5,-10,9
4,3,-2,-1,-8,-7,6,5,-10,9
4,3,-2,-1,-8,-7,6,5,-10,9
4,3,-2,-1,-8,-7,6,5,-10,9
4,3,-2,-1,-8,-7,6,5,-10,9
0,0,0,0,0,0,0,0,0,0
-9,-4,5,2,-3,8,-10,-6,1,7
-9,-4,5,2,-3,8,-10,-6,1,7
-9,-4,5,2,-3,8,-10,-6,1,7
-9,-4,5,2,-3,8,-10,-6,1,7
-9,-4,5,2,-3,8,-10,-6,1,7
-9,-4,5,2,-3,8,-10,-6,1,7
0,0,0,0,0,0,0,0,0,0
-6,-5,10,-8,2,1,9,4,-7,-3
-6,-5,10,-8,2,1,9,4,-7,-3
-6,-5,10,-8,2,1,9,4,-7,-3
-6,-5,10,-8,2,1,9,4,-7,-3
-6,-5,10,-8,2,1,9,4,-7,-3
-6,-5,10,-8,2,1,9,4,-7,-3
0,0,0,0,0,0,0,0,0,0
7,8,-4,3,-9,-10,-1,-2,5,6
7,8,-4,3,-9,-10,-1,-2,5,6
7,8,-4,3,-9,-10,-1,-2,5,6
7,8,-4,3,-9,-10,-1,-2,5,6
7,8,-4,3,-9,-10,-1,-2,5,6
7,8,-4,3,-9,-10,-1,-2,5,6
