4,2,7,1
5,1,3,1
5,1,18,2
5,1,16,3
5,1,5,10
5,1,6,10
5,2,5,1
5,2,6,1
5,2,7,1
5,2,8,1
5,2,17,6
5,3,11,3
5,3,12,3
5,3,3,5
5,3,4,5
5,3,8,6
5,3,9,6
5,3,16,6
5,3,15,10
5,3,16,10
5,4,18,1
5,4,19,1
5,4,6,4
5,4,11,5
5,4,12,5
5,4,15,6
5,4,16,9
5,4,9,10
5,5,19,2
5,5,6,3
5,5,3,6
5,5,17,7
5,5,10,9
5,5,11,9
5,5,13,10
6,1,Inf,2
6,2,Inf,4
6,2,Inf,5
6,3,Inf,6
6,3,Inf,9
6,4,Inf,3
6,5,Inf,7
18,1,2,3
18,1,3,2
18,1,4,3
18,1,5,3
18,1,6,2
18,1,7,2
18,1,8,2
18,1,9,3
18,1,10,2
18,1,12,3
18,1,13,3
18,1,15,3
18,1,17,2
18,1,18,3
18,1,19,3
18,1,21,2
18,1,22,2
18,1,23,2
18,2,1,3
18,2,3,2
18,2,4,3
18,2,5,3
18,2,6,3
18,2,8,2
18,2,9,3
18,2,10,3
18,2,11,3
18,2,12,3
18,2,13,3
18,2,16,2
18,2,17,2
18,2,18,3
18,2,19,2
18,2,20,3
18,2,21,3
18,2,23,2
18,2,24,2
18,3,1,2
18,3,2,3
18,3,4,3
18,3,5,2
18,3,6,2
18,3,8,2
18,3,9,3
18,3,10,3
18,3,11,3
18,3,12,2
18,3,13,2
18,3,15,3
18,3,16,2
18,3,17,2
18,3,19,2
18,3,20,2
18,3,21,3
18,3,22,3
18,3,23,3
18,3,24,3
18,4,1,3
18,4,2,2
18,4,4,3
18,4,5,3
18,4,7,3
18,4,9,2
18,4,10,3
18,4,15,2
18,4,16,2
18,4,17,2
18,4,18,3
18,4,19,2
18,4,20,2
18,4,21,3
18,4,22,2
18,4,23,3
18,5,1,2
18,5,2,2
18,5,3,2
18,5,5,2
18,5,6,3
18,5,8,3
18,5,11,2
18,5,12,2
18,5,13,3
18,5,16,3
18,5,17,3
18,5,20,3
18,5,21,3
18,5,22,2
18,5,23,3
