
Gurobi 9.0.2 (linux64, Matlab) logging started Tue 08 Mar 2022 04:29:03 PM EST

Gurobi Optimizer version 9.0.2 build v9.0.2rc0 (linux64)

Concurrent MIP optimizer: 8 concurrent instances (4 threads per instance)

Presolve removed 8 rows and 8 columns
Presolve time: 0.04s
Presolved: 3476 rows, 3660 columns, 16428 nonzeros
Variable types: 0 continuous, 3660 integer (3660 binary)

Root relaxation: objective 0.000000e+00, 880 iterations, 0.13 seconds

    Nodes    |    Current Node    |     Objective Bounds      |     Work
 Expl Unexpl |  Obj  Depth IntInf | Incumbent    BestBd   Gap | It/Node Time

     0     0      -    -    -     2.3715e+07    0.00000   100%     -    0s
     0     0      -    -    -     1.9214e+07 1392933.65  92.8%     -    1s
     0     0      -    -    -     1.9214e+07 2305683.54  88.0%     -    2s
     0     0      -    -    -     1.9214e+07 2803319.91  85.4%     -    2s
     0     0      -    -    -     1.9214e+07 2809473.40  85.4%     -    2s
     0     0      -    -    -     1.9214e+07 2811369.88  85.4%     -    2s
     0     0      -    -    -     1.9214e+07 2811707.00  85.4%     -    2s
     0     0      -    -    -     1.9214e+07 2811786.80  85.4%     -    2s
     0     0      -    -    -     1.9214e+07 3580015.34  81.4%     -    3s
     0     0      -    -    -     1.6193e+07 3582887.05  77.9%     -    4s
     0     0      -    -    -     1.6193e+07 3583059.59  77.9%     -    4s
     0     0      -    -    -     1.3673e+07 3585355.33  73.8%     -    5s
     0     0      -    -    -     1.3673e+07 3585953.14  73.8%     -    5s
     0     0      -    -    -     1.2670e+07 3586153.46  71.7%     -    5s
     0     0      -    -    -     8683300.00 3588202.73  58.7%     -    6s
     0     0      -    -    -     6166200.00 3588727.57  41.8%     -    6s
     0     0      -    -    -     6166200.00 3589072.11  41.8%     -    6s
     0     0      -    -    -     4158000.00 3590152.21  13.7%     -    7s
     0     2      -    -    -     4158000.00 3590165.08  13.7%     -    8s
    15    19      -    -    -     4158000.00 3590783.21  13.6%     -   10s
   133   106      -    -    -     4156100.00 3594972.17  13.5%     -   15s
   185   134      -    -    -     4154200.00 3596871.15  13.4%     -   17s
   186   134      -    -    -     4152200.00 3596871.15  13.4%     -   17s
   273   181      -    -    -     4151200.00 3598446.65  13.3%     -   20s
   386   224      -    -    -     4151200.00 3602516.23  13.2%     -   25s
   440   270      -    -    -     4151200.00 3607017.40  13.1%     -   31s
   561   322      -    -    -     4151200.00 3622897.67  12.7%     -   44s
   565   348      -    -    -     4151200.00 3622897.67  12.7%     -   45s
   716   416      -    -    -     4151100.00 3622897.67  12.7%     -   50s
  1012   562      -    -    -     4151100.00 3623077.88  12.7%     -   55s
  1081   568      -    -    -     4151100.00 3623178.70  12.7%     -   60s
  1105   589      -    -    -     4151100.00 3623178.70  12.7%     -   65s
  1230   626      -    -    -     4151100.00 3623178.70  12.7%     -   70s
  1337   634      -    -    -     4151100.00 3623178.70  12.7%     -   75s
  1438   651      -    -    -     4151100.00 3623178.70  12.7%     -   82s
  1477   655      -    -    -     4151100.00 3623178.70  12.7%     -   86s
  1613   656      -    -    -     4151100.00 3623178.70  12.7%     -   90s
  1801   683      -    -    -     4151100.00 3626113.04  12.6%     -   97s
  1966   672      -    -    -     4151100.00 3626113.04  12.6%     -  102s
  2039   666      -    -    -     4151100.00 3626113.04  12.6%     -  106s
  2171   704      -    -    -     4151100.00 3626919.20  12.6%     -  110s
  2378   687      -    -    -     4151100.00 3626919.20  12.6%     -  115s
  2572   679      -    -    -     4151100.00 3630653.29  12.5%     -  126s
  2808   695      -    -    -     4151100.00 3630653.29  12.5%     -  131s
  3050   804      -    -    -     4151100.00 3630653.29  12.5%     -  135s
  3373  1013      -    -    -     4151100.00 3631142.71  12.5%     -  141s
  3634  1110      -    -    -     4151100.00 3631336.74  12.5%     -  146s
  3975  1306      -    -    -     4151100.00 3631355.58  12.5%     -  150s
  4177  1321      -    -    -     4151100.00 3631998.25  12.5%     -  157s
  4200  1391      -    -    -     4151100.00 3631998.25  12.5%     -  160s
  4707  1624      -    -    -     4151100.00 3632246.23  12.5%     -  167s
  4897  1690      -    -    -     4151100.00 3632656.80  12.5%     -  189s
  5009  1734      -    -    -     4151100.00 3633214.98  12.5%     -  194s
  5092  1778      -    -    -     4151100.00 3633979.90  12.5%     -  201s
  5209  1800      -    -    -     4151100.00 3634020.10  12.5%     -  209s
  5322  1877      -    -    -     4151100.00 3634020.10  12.5%     -  212s
  5534  1911      -    -    -     4151100.00 3634324.39  12.4%     -  219s
  5639  1916      -    -    -     4151100.00 3635137.26  12.4%     -  228s
  5654  2054      -    -    -     4151100.00 3635417.86  12.4%     -  231s
  5967  2125      -    -    -     4151100.00 3635976.42  12.4%     -  236s
  6114  2264      -    -    -     4151100.00 3636502.93  12.4%     -  240s
  6724  2406      -    -    -     4151100.00 3637496.44  12.4%     -  262s
  6807  2554      -    -    -     4151100.00 3638475.62  12.3%     -  287s
  7149  2710      -    -    -     4151100.00 3638475.62  12.3%     -  292s
  7503  2784      -    -    -     4151100.00 3638475.62  12.3%     -  298s
  7925  2902      -    -    -     4151100.00 3638475.62  12.3%     -  304s
  8248  3074      -    -    -     4151100.00 3638475.62  12.3%     -  313s
  8710  3301      -    -    -     4151100.00 3638798.28  12.3%     -  341s
  9264  3449      -    -    -     4151100.00 3638876.67  12.3%     -  348s
  9574  3449      -    -    -     4151100.00 3638876.67  12.3%     -  348s
  9586  3510      -    -    -     4151100.00 3639137.15  12.3%     -  357s
  9792  3605      -    -    -     4151100.00 3639826.05  12.3%     -  382s
 10108  3715      -    -    -     4151100.00 3639996.13  12.3%     -  391s
 10398  3966      -    -    -     4151100.00 3640251.38  12.3%     -  400s
 11091  4099      -    -    -     4151100.00 3640636.45  12.3%     -  409s
 11438  4360      -    -    -     4151100.00 3640836.89  12.3%     -  417s
 12080  4567      -    -    -     4151100.00 3641075.35  12.3%     -  427s
 12585  4811      -    -    -     4151100.00 3641712.30  12.3%     -  459s
 13289  5003      -    -    -     4151100.00 3641742.70  12.3%     -  469s
 13839  5197      -    -    -     4151100.00 3641964.29  12.3%     -  478s
 14338  5278      -    -    -     4151100.00 3641964.29  12.3%     -  486s
 14632  5545      -    -    -     4151100.00 3641964.29  12.3%     -  495s
 15334  5672      -    -    -     4151100.00 3642100.34  12.3%     -  504s
 15709  5872      -    -    -     4151100.00 3642173.01  12.3%     -  512s
 16274  6006      -    -    -     4151100.00 3642264.37  12.3%     -  521s
 16626  6251      -    -    -     4151100.00 3642481.34  12.3%     -  529s
 17297  6451      -    -    -     4151100.00 3642481.34  12.3%     -  537s
 17963  6553      -    -    -     4151100.00 3642494.67  12.3%     -  545s
 18271  6762      -    -    -     4151100.00 3642597.68  12.2%     -  553s
 18974  6956      -    -    -     4151100.00 3642870.90  12.2%     -  573s
 19563  7181      -    -    -     4151100.00 3642899.86  12.2%     -  580s
 20224  7445      -    -    -     4151100.00 3643069.09  12.2%     -  589s
 20944  7500      -    -    -     4151100.00 3643340.46  12.2%     -  600s
 21124  7716      -    -    -     4151100.00 3643340.46  12.2%     -  608s
 21782  7933      -    -    -     4151100.00 3643340.46  12.2%     -  615s
 22386  7945      -    -    -     4151100.00 3643593.49  12.2%     -  630s
 22423  7995      -    -    -     4151100.00 3643593.49  12.2%     -  638s
 22654  8279      -    -    -     4151100.00 3643593.49  12.2%     -  646s
 23397  8374      -    -    -     4151100.00 3643593.49  12.2%     -  662s
 23773  8631      -    -    -     4151100.00 3643593.49  12.2%     -  669s
 24520  8892      -    -    -     4151100.00 3643701.61  12.2%     -  677s
 25270  9106      -    -    -     4151100.00 3644228.34  12.2%     -  701s
 25866  9329      -    -    -     4151100.00 3644337.18  12.2%     -  708s
 26475  9512      -    -    -     4151100.00 3644417.41  12.2%     -  715s
 27119  9740      -    -    -     4151100.00 3644495.87  12.2%     -  722s
 27776  9954      -    -    -     4151100.00 3644684.20  12.2%     -  730s
 28408 10085      -    -    -     4151100.00 3644761.11  12.2%     -  736s
 28954 10180      -    -    -     4151100.00 3644844.98  12.2%     -  743s
 29349 10387      -    -    -     4151100.00 3644913.34  12.2%     -  750s
 29942 10496      -    -    -     4151100.00 3644981.82  12.2%     -  758s
 30300 10659      -    -    -     4151100.00 3645017.95  12.2%     -  765s
 30892 10831      -    -    -     4151100.00 3645141.67  12.2%     -  772s
 31374 10962      -    -    -     4151100.00 3645225.00  12.2%     -  782s
 31794 11121      -    -    -     4151100.00 3645225.00  12.2%     -  789s
 32390 11364      -    -    -     4151100.00 3645327.27  12.2%     -  796s
 33073 11443      -    -    -     4151100.00 3645413.23  12.2%     -  804s
 33387 11601      -    -    -     4151100.00 3645489.31  12.2%     -  810s
 33929 11618      -    -    -     4151100.00 3645621.69  12.2%     -  836s
 34072 11807      -    -    -     4151100.00 3645720.87  12.2%     -  844s
 34699 12008      -    -    -     4151100.00 3645767.20  12.2%     -  850s
 35349 12156      -    -    -     4151100.00 3645918.87  12.2%     -  857s
 35897 12347      -    -    -     4151100.00 3645960.29  12.2%     -  864s
 36535 12524      -    -    -     4151100.00 3645960.29  12.2%     -  871s
 37107 12644      -    -    -     4151100.00 3645960.29  12.2%     -  878s
 37559 12828      -    -    -     4151100.00 3645960.29  12.2%     -  885s
 38169 12881      -    -    -     4151100.00 3646096.52  12.2%     -  892s
 38364 13030      -    -    -     4151100.00 3646227.73  12.2%     -  899s
 38956 13252      -    -    -     4151100.00 3646502.71  12.2%     -  906s
 39652 13368      -    -    -     4151100.00 3646546.44  12.2%     -  913s
 40081 13560      -    -    -     4151100.00 3646717.39  12.2%     -  921s
 40783 13665      -    -    -     4151100.00 3646894.78  12.1%     -  931s
 41085 13826      -    -    -     4151100.00 3647043.64  12.1%     -  937s
 41631 13980      -    -    -     4151100.00 3647151.42  12.1%     -  944s
 42303 14077      -    -    -     4151100.00 3647317.13  12.1%     -  952s
 42572 14226      -    -    -     4151100.00 3647477.73  12.1%     -  959s
 43157 14377      -    -    -     4151100.00 3647477.73  12.1%     -  966s
 43750 14429      -    -    -     4151100.00 3647477.73  12.1%     -  973s
 44063 14579      -    -    -     4151100.00 3647502.34  12.1%     -  980s
 44733 14693      -    -    -     4151100.00 3648282.93  12.1%     - 1007s
 45120 14845      -    -    -     4151100.00 3648630.09  12.1%     - 1014s
 45763 14932      -    -    -     4151100.00 3648920.43  12.1%     - 1021s
 46313 15094      -    -    -     4151100.00 3649098.60  12.1%     - 1029s
 47011 15232      -    -    -     4151100.00 3649318.87  12.1%     - 1036s
 47627 15378      -    -    -     4151100.00 3649643.90  12.1%     - 1042s
 48214 15501      -    -    -     4151100.00 3650190.77  12.1%     - 1050s
 48713 15601      -    -    -     4151100.00 3650457.24  12.1%     - 1060s
 49025 15773      -    -    -     4151100.00 3650689.52  12.1%     - 1066s
 49623 15930      -    -    -     4151100.00 3650948.73  12.0%     - 1074s
 50248 15962      -    -    -     4151100.00 3651576.30  12.0%     - 1082s
 50486 16135      -    -    -     4151100.00 3651813.98  12.0%     - 1090s
 51150 16235      -    -    -     4151100.00 3652200.00  12.0%     - 1096s
 51708 16328      -    -    -     4151100.00 3652802.94  12.0%     - 1107s
 52058 16467      -    -    -     4151100.00 3653050.00  12.0%     - 1114s
 52686 16623      -    -    -     4151100.00 3653775.00  12.0%     - 1122s
 53345 16694      -    -    -     4151100.00 3654104.52  12.0%     - 1129s
 53642 16843      -    -    -     4151100.00 3654320.83  12.0%     - 1137s
 54276 17030      -    -    -     4151100.00 3654715.00  12.0%     - 1144s
 55016 17044      -    -    -     4151100.00 3657199.78  11.9%     - 1171s
 55108 17195      -    -    -     4151100.00 3658407.14  11.9%     - 1178s
 55798 17345      -    -    -     4151100.00 3658857.24  11.9%     - 1185s
 56415 17524      -    -    -     4151100.00 3659282.58  11.8%     - 1193s
 57162 17654      -    -    -     4151100.00 3660097.85  11.8%     - 1200s
 57804 17800      -    -    -     4151100.00 3661194.51  11.8%     - 1207s
 58494 17935      -    -    -     4151100.00 3661800.00  11.8%     - 1214s
 59117 18074      -    -    -     4151100.00 3662473.81  11.8%     - 1222s
 59752 18186      -    -    -     4151100.00 3663313.16  11.8%     - 1229s
 60330 18186      -    -    -     4151100.00 3667096.88  11.7%     - 1256s
 60342 18228      -    -    -     4151100.00 3669478.24  11.6%     - 1275s
 60476 18398      -    -    -     4151100.00 3670100.00  11.6%     - 1283s
 61260 18534      -    -    -     4151100.00 3671121.62  11.6%     - 1290s
 61895 18657      -    -    -     4151100.00 3672500.00  11.5%     - 1297s
 62475 18776      -    -    -     4151100.00 3674360.93  11.5%     - 1304s
 62993 18900      -    -    -     4151100.00 3675618.30  11.5%     - 1311s
 63600 18993      -    -    -     4151100.00 3677421.60  11.4%     - 1319s
 64009 19129      -    -    -     4151100.00 3678405.10  11.4%     - 1326s
 64597 19196      -    -    -     4151100.00 3682542.34  11.3%     - 1339s
 65056 19352      -    -    -     4151100.00 3684021.65  11.3%     - 1346s
 65722 19461      -    -    -     4151100.00 3685314.32  11.2%     - 1353s
 66376 19463      -    -    -     4151100.00 3688960.56  11.1%     - 1369s
 66399 19567      -    -    -     4151100.00 3689783.42  11.1%     - 1376s
 66996 19647      -    -    -     4151100.00 3691295.61  11.1%     - 1382s
 67509 19737      -    -    -     4151100.00 3692469.47  11.0%     - 1389s
 68110 19877      -    -    -     4151100.00 3693547.51  11.0%     - 1395s
 68773 20001      -    -    -     4151100.00 3695148.04  11.0%     - 1402s
 69353 20138      -    -    -     4151100.00 3697824.85  10.9%     - 1408s
 70035 20191      -    -    -     4151100.00 3699731.06  10.9%     - 1418s
 70496 20306      -    -    -     4151100.00 3703434.80  10.8%     - 1425s
 71166 20404      -    -    -     4151100.00 3707215.10  10.7%     - 1438s
 71713 20500      -    -    -     4151100.00 3709240.10  10.6%     - 1444s
 72276 20610      -    -    -     4151100.00 3713883.66  10.5%     - 1456s
 72925 20699      -    -    -     4151100.00 3716549.32  10.5%     - 1463s
 73479 20749      -    -    -     4151100.00 3722556.48  10.3%     - 1469s
 73664 20886      -    -    -     4151100.00 3726816.05  10.2%     - 1476s
 74350 20960      -    -    -     4151100.00 3731468.83  10.1%     - 1483s
 74930 21067      -    -    -     4151100.00 3737482.02  10.0%     - 1489s
 75524 21181      -    -    -     4151100.00 3740773.01  9.88%     - 1496s
 76106 21267      -    -    -     4151100.00 3744471.85  9.80%     - 1502s
 76589 21406      -    -    -     4151100.00 3746726.67  9.74%     - 1509s
 77205 21489      -    -    -     4151100.00 3753590.00  9.58%     - 1515s
 77782 21573      -    -    -     4151100.00 3757457.95  9.48%     - 1521s
 78272 21632      -    -    -     4151100.00 3762560.00  9.36%     - 1527s
 78748 21698      -    -    -     4151100.00 3766938.51  9.25%     - 1533s
 79280 21780      -    -    -     4151100.00 3776714.10  9.02%     - 1539s
 79696 21863      -    -    -     4151100.00 3783257.15  8.86%     - 1545s
 80242 21943      -    -    -     4151100.00 3788449.44  8.74%     - 1551s
 80719 22018      -    -    -     4151100.00 3793558.89  8.61%     - 1557s
 81218 22088      -    -    -     4151100.00 3806725.23  8.30%     - 1563s
 81710 22156      -    -    -     4151100.00 3810891.67  8.20%     - 1569s
 82233 22212      -    -    -     4151100.00 3816716.67  8.06%     - 1575s
 82698 22292      -    -    -     4151100.00 3816716.67  8.06%     - 1581s
 83214 22349      -    -    -     4151100.00 3816716.67  8.06%     - 1587s
 83679 22426      -    -    -     4151100.00 3816953.83  8.05%     - 1593s
 84206 22490      -    -    -     4151100.00 3830288.51  7.73%     - 1599s
 84723 22568      -    -    -     4151100.00 3837563.97  7.55%     - 1605s
 85235 22625      -    -    -     4151100.00 3854171.43  7.15%     - 1611s
 85763 22700      -    -    -     4151100.00 3860030.00  7.01%     - 1617s
 86278 22750      -    -    -     4151100.00 3874314.62  6.67%     - 1624s
 86772 22797      -    -    -     4151100.00 3880589.13  6.52%     - 1630s
 87243 22845      -    -    -     4151100.00 3888576.84  6.32%     - 1635s
 87705 22908      -    -    -     4151100.00 3897066.67  6.12%     - 1641s
 88159 22964      -    -    -     4151100.00 3901860.83  6.00%     - 1647s
 88626 22998      -    -    -     4151100.00 3931533.98  5.29%     - 1653s
 89090 23082      -    -    -     4151100.00 3943503.33  5.00%     - 1659s
 89551 23136      -    -    -     4151100.00 3957996.92  4.65%     - 1666s
 90069 23152      -    -    -     4151100.00 3990283.33  3.87%     - 1672s
 90495 23206      -    -    -     4151100.00 4012824.19  3.33%     - 1678s
 90976 23250      -    -    -     4151100.00 4046533.33  2.52%     - 1685s
 91442 23327      -    -    -     4151100.00 4063225.01  2.12%     - 1691s
 91911 23376      -    -    -     4151100.00 4097811.54  1.28%     - 1698s
 92426 23447      -    -    -     4151100.00 4123495.21  0.66%     - 1704s
 92881 23479      -    -    -     4151100.00 4131380.58  0.48%     - 1710s
 93343 23500      -    -    -     4151100.00 4134761.29  0.39%     - 1716s
 93723 23577      -    -    -     4151100.00 4137992.67  0.32%     - 1722s
 94261 23619      -    -    -     4151100.00 4138913.92  0.29%     - 1728s
 94665 23685      -    -    -     4151100.00 4140091.54  0.27%     - 1734s
 95122 23694      -    -    -     4151100.00 4142296.85  0.21%     - 1740s
 95456 23726      -    -    -     4151100.00 4144498.81  0.16%     - 1745s
 95875 23773      -    -    -     4151100.00 4145197.34  0.14%     - 1752s
 96389 23811      -    -    -     4151100.00 4151100.00  0.00%     - 1756s

Cutting planes:
  Gomory: 11
  MIR: 107
  Flow cover: 55
  Inf proof: 1
  Zero half: 48
  RLT: 1187

Instance 1 was solved

Explored 110662 nodes (22765629 simplex iterations) in 1756.62 seconds
Thread count was 4 (of 64 available processors)

Solution count 10: 4.1511e+06 

Optimal solution found (tolerance 1.00e-04)
Best objective 4.151100000000e+06, best bound 4.151100000000e+06, gap 0.0000%
