5,1,3,1
5,1,5,1
5,1,7,1
5,1,12,1
5,1,2,2
5,1,4,2
5,1,17,2
5,1,14,3
5,1,11,4
5,1,13,4
5,1,10,5
5,1,1,6
5,1,8,6
5,1,20,6
5,2,19,1
5,2,11,2
5,2,13,2
5,2,18,2
5,2,20,2
5,2,21,3
5,2,6,4
5,2,8,4
5,2,14,4
5,2,2,5
5,2,7,5
5,2,9,5
5,2,5,6
5,3,6,1
5,3,10,2
5,3,12,2
5,3,14,2
5,3,13,3
5,3,18,3
5,3,1,5
5,3,3,5
5,3,4,6
5,3,9,6
5,3,17,6
5,3,19,6
5,3,21,6
18,1,1,3
18,1,4,2
18,1,5,2
18,1,7,3
18,1,8,2
18,1,11,3
18,1,14,3
18,1,15,3
18,1,19,2
18,1,20,3
18,1,21,3
18,1,23,2
18,2,4,2
18,2,7,3
18,2,9,2
18,2,10,2
18,2,11,2
18,2,13,3
18,2,14,2
18,2,15,2
18,2,18,3
18,2,20,2
18,2,21,2
18,2,22,2
18,3,2,2
18,3,3,2
18,3,4,3
18,3,5,3
18,3,6,2
18,3,7,2
18,3,11,3
18,3,14,2
18,3,15,2
18,3,17,3
18,3,20,2
18,3,23,2
