4,2,11,8
4,3,9,6
4,4,5,5
4,4,11,6
11,1,Inf,5
5,1,18,1
5,1,1,2
5,1,10,3
5,1,17,3
5,1,7,4
5,1,9,4
5,1,16,6
5,1,4,8
5,2,9,2
5,2,13,3
5,2,8,5
5,2,16,5
5,2,5,6
5,2,4,7
5,2,10,8
5,2,11,8
5,3,6,1
5,3,5,2
5,3,16,2
5,3,14,3
5,3,10,4
5,3,8,6
5,3,9,6
5,4,9,1
5,4,1,3
5,4,18,3
5,4,13,4
5,4,4,5
5,4,5,5
5,4,10,6
5,4,11,6
5,4,14,7
5,4,7,8
